Sample	Chr	FirstProbe	LastProbe	NbSnp	length_bp	Type	Avg_certainty
HT29_100vF1_3_NoGC	3	79299000	90299003	45	11000003	0.666	1.00
HT29_100vF1_3_NoGC	1	121250003	142750002	3	21499999	1.334	1.00
HT29_100vF1_3_NoGC	3	49001	79049003	317	79000002	1.334	1.00
HT29_100vF1_3_NoGC	4	157276001	190775999	135	33499998	1.334	1.00
HT29_100vF1_3_NoGC	6	58454999	162455004	406	104000005	1.334	1.00
HT29_100vF1_3_NoGC	7	159089004	159089004	1	0	1.334	1.00
HT29_100vF1_3_NoGC	8	199998	42700002	171	42500004	1.334	1.00
HT29_100vF1_3_NoGC	9	36085002	69835001	64	33749999	1.334	1.00
HT29_100vF1_3_NoGC	10	42121002	42371004	2	250002	1.334	1.00
HT29_100vF1_3_NoGC	14	18806999	107057003	354	88250004	1.334	1.00
HT29_100vF1_3_NoGC	15	19957001	20207003	2	250002	1.334	1.00
HT29_100vF1_3_NoGC	16	33925001	46424999	8	12499998	1.334	1.00
HT29_100vF1_3_NoGC	17	2320002	25070004	81	22750002	1.334	1.00
HT29_100vF1_3_NoGC	17	66320003	70820004	19	4500001	1.334	1.00
HT29_100vF1_3_NoGC	18	18374004	77873999	239	59499995	1.334	1.00
HT29_100vF1_3_NoGC	19	46002	27796001	101	27749999	1.334	1.00
HT29_100vF1_3_NoGC	21	9391002	47891003	144	38500001	1.334	1.00
HT29_100vF1_3_NoGC	22	16011000	18761004	12	2750004	1.334	1.00
HT29_100vF1_3_NoGC	22	31011000	51261000	82	20250000	1.334	1.00
HT29_100vF1_3_NoGC	23	206004	41956001	168	41749997	1.334	1.00
HT29_100vF1_3_NoGC	23	58456002	66706002	23	8250000	1.334	1.00
HT29_100vF1_3_NoGC	3	93299004	130299000	149	36999996	2.66	1.00
HT29_100vF1_3_NoGC	5	1871003	17621003	64	15750000	2.66	1.00
HT29_100vF1_3_NoGC	7	21339000	56339003	141	35000003	2.66	1.00
HT29_100vF1_3_NoGC	7	62839002	158839002	385	96000000	2.66	1.00
HT29_100vF1_3_NoGC	10	133621002	135371003	8	1750001	2.66	1.00
HT29_100vF1_3_NoGC	11	86004	48336000	194	48249996	2.66	1.00
HT29_100vF1_3_NoGC	11	56836002	134836001	313	77999999	2.66	1.00
HT29_100vF1_3_NoGC	12	79002	1079003	5	1000001	2.66	1.00
HT29_100vF1_3_NoGC	13	34226999	53477004	78	19250005	2.66	1.00
HT29_100vF1_3_NoGC	13	94477002	114977004	83	20500002	2.66	1.00
HT29_100vF1_3_NoGC	15	20456999	102457002	328	82000003	2.66	1.00
HT29_100vF1_3_NoGC	16	175001	4925003	20	4750002	2.66	1.00
HT29_100vF1_3_NoGC	17	25319999	43570002	74	18250003	2.66	1.00
HT29_100vF1_3_NoGC	17	71069999	81070002	41	10000003	2.66	1.00
HT29_100vF1_3_NoGC	18	124002	15374003	62	15250001	2.66	1.00
HT29_100vF1_3_NoGC	19	28046004	33046002	21	4999998	2.66	1.00
HT29_100vF1_3_NoGC	23	148706003	154955999	26	6249996	2.66	1.00
HT29_100vF1_3_NoGC	7	89003	7088999	29	6999996	3.34	1.00
HT29_100vF1_3_NoGC	13	72227004	76727003	19	4499999	3.34	1.00
HT29_100vF1_3_NoGC	17	63320003	66070002	12	2749999	3.34	1.00
HT29_100vF1_3_NoGC	20	29917002	62917002	133	33000000	3.34	1.00
HT29_100vF1_3_NoGC	4	191026002	191026002	1	0	4	1.00
HT29_100vF1_3_NoGC	5	121002	1621001	7	1499999	4	1.00
HT29_100vF1_3_NoGC	8	115200000	145949999	124	30749999	4	1.00
HT29_100vF1_3_NoGC	13	18977004	33977003	61	14999999	4	1.00
HT29_100vF1_3_NoGC	19	33296003	59045999	104	25749996	4	1.00
HT29_100vF1_3_NoGC	22	19010999	20011002	5	1000003	4	1.00
##Estimated cellularity:1.0
##Estimated ratio:1.0251341264286957
##Version:2.0
