Sample       Chr FirstProbe LastProbe   NbSnp  length_min    Type Avg_certainty
HT29_100vF1_2_NoGC        3 79549001 89549003      11  1.00e+07  0.00  1.00
HT29_100vF1_2_NoGC        1 121000002 142000001       2  2.10e+07 0.500  1.00
HT29_100vF1_2_NoGC        2 242749002 242749002       1   0.00 0.500  1.00
HT29_100vF1_2_NoGC        3  548999 78548999      79  7.80e+07 0.500  1.00
HT29_100vF1_2_NoGC        4 157526004 189526002      33  3.20e+07 0.500  1.00
HT29_100vF1_2_NoGC        6 57455004 162455004     104  1.05e+08 0.500  1.00
HT29_100vF1_2_NoGC        8  199998 41200001      42  4.10e+07 0.500  1.00
HT29_100vF1_2_NoGC        9 35835000 69835001      18  3.40e+07 0.500  1.00
HT29_100vF1_2_NoGC       14 18057000 107057003      90  8.90e+07 0.500  1.00
HT29_100vF1_2_NoGC       16 34174998 46175003       3  1.20e+07 0.500  1.00
HT29_100vF1_2_NoGC       17 1820003 24820002      22  2.30e+07 0.500  1.00
HT29_100vF1_2_NoGC       18 17624003 77624004      61  6.00e+07 0.500  1.00
HT29_100vF1_2_NoGC       19  545999 24546000      25  2.40e+07 0.500  1.00
HT29_100vF1_2_NoGC       21 9391002 47390999      37  3.80e+07 0.500  1.00
HT29_100vF1_2_NoGC       22 15260999 18261000       4  3.00e+06 0.500  1.00
HT29_100vF1_2_NoGC       22 21260999 51261000      31  3.00e+07 0.500  1.00
HT29_100vF1_2_NoGC        X  956003 40956000      41  4.00e+07 0.500  1.00
HT29_100vF1_2_NoGC        X 57956004 65956002       7  8.00e+06 0.500  1.00
HT29_100vF1_2_NoGC        3 92549004 129549000      38  3.70e+07  1.50  1.00
HT29_100vF1_2_NoGC        4 190526003 190526003       1   0.00  1.50  1.00
HT29_100vF1_2_NoGC        5  371003 17371002      18  1.70e+07  1.50  1.00
HT29_100vF1_2_NoGC        7 21339000 56339003      36  3.50e+07  1.50  1.00
HT29_100vF1_2_NoGC        7 64339002 158339003      95  9.40e+07  1.50  1.00
HT29_100vF1_2_NoGC       10 133621002 134621003       2  1.00e+06  1.50  1.00
HT29_100vF1_2_NoGC       11   86004 47086001      48  4.70e+07  1.50  1.00
HT29_100vF1_2_NoGC       11 57086003 134086002      78  7.70e+07  1.50  1.00
HT29_100vF1_2_NoGC       12   79002   79002       1   0.00  1.50  1.00
HT29_100vF1_2_NoGC       13 37227000 53227002      17  1.60e+07  1.50  1.00
HT29_100vF1_2_NoGC       13 94227000 114227003      21  2.00e+07  1.50  1.00
HT29_100vF1_2_NoGC       15 30707003 101707002      72  7.10e+07  1.50  1.00
HT29_100vF1_2_NoGC       16  175001 4175004       5  4.00e+06  1.50  1.00
HT29_100vF1_2_NoGC       17 25820003 42820001      18  1.70e+07  1.50  1.00
HT29_100vF1_2_NoGC       17 72820002 80820000       9  8.00e+06  1.50  1.00
HT29_100vF1_2_NoGC       18  623999 14624004      15  1.40e+07  1.50  1.00
HT29_100vF1_2_NoGC        X 151955999 153956004       3  2.00e+06  1.50  1.00
HT29_100vF1_2_NoGC        7  338999 6339000       7  6.00e+06  2.00  1.00
HT29_100vF1_2_NoGC        8 115200000 145200000      31  3.00e+07  2.00  1.00
HT29_100vF1_2_NoGC       12 133079004 133079004       1   0.00  2.00  1.00
HT29_100vF1_2_NoGC       13 18227004 36227003      19  1.80e+07  2.00  1.00
HT29_100vF1_2_NoGC       19 30546000 58546002      29  2.80e+07  2.00  1.00
HT29_100vF1_2_NoGC       20 30416999 62417003      33  3.20e+07  2.00  1.00
HT29_100vF1_2_NoGC       22 19261001 20261003       2  1.00e+06  2.00  1.00
##Estimated cellularity:0.707
##Estimated ratio:1.0170316301703164
##Version:2.0
