Sample       Chr FirstProbe LastProbe   NbSnp  length_min    Type Avg_certainty
HT29_00vF1_3_NoGC        1 186000000 199000002      14  1.30e+07  0.00  1.00
HT29_00vF1_3_NoGC       13 54227004 72227004      19  1.80e+07  0.00  1.00
HT29_00vF1_3_NoGC       15 19707000 21707004       3  2.00e+06  0.00  1.00
HT29_00vF1_3_NoGC        1 65999999 121000002      56  5.50e+07 0.500  1.00
HT29_00vF1_3_NoGC        2 49749000 83749002      35  3.40e+07 0.500  1.00
HT29_00vF1_3_NoGC        2 137749001 215749002      79  7.80e+07 0.500  1.00
HT29_00vF1_3_NoGC        3 74549004 120548999      45  4.60e+07 0.500  1.00
HT29_00vF1_3_NoGC        3 143549004 192549000      50  4.90e+07 0.500  1.00
HT29_00vF1_3_NoGC        4 10526004 47525999      38  3.70e+07 0.500  1.00
HT29_00vF1_3_NoGC        4 52526003 182525999     131  1.30e+08 0.500  1.00
HT29_00vF1_3_NoGC        5 18371004 129371003     110  1.11e+08 0.500  1.00
HT29_00vF1_3_NoGC        6 44455002 147455004     102  1.03e+08 0.500  1.00
HT29_00vF1_3_NoGC        7 7339001 21339000      15  1.40e+07 0.500  1.00
HT29_00vF1_3_NoGC        7 77339004 96339000      20  1.90e+07 0.500  1.00
HT29_00vF1_3_NoGC        7 102338999 126338999      25  2.40e+07 0.500  1.00
HT29_00vF1_3_NoGC        8 50200002 122200001      73  7.20e+07 0.500  1.00
HT29_00vF1_3_NoGC        8 146200001 146200001       1   0.00 0.500  1.00
HT29_00vF1_3_NoGC        9  835002 30835002      31  3.00e+07 0.500  1.00
HT29_00vF1_3_NoGC       10 51620999 68621004      18  1.70e+07 0.500  1.00
HT29_00vF1_3_NoGC       11 20086001 42086004      23  2.20e+07 0.500  1.00
HT29_00vF1_3_NoGC       11 79085999 108086003      30  2.90e+07 0.500  1.00
HT29_00vF1_3_NoGC       12 15079002 47078999      31  3.20e+07 0.500  1.00
HT29_00vF1_3_NoGC       12 58079004 103079003      46  4.50e+07 0.500  1.00
HT29_00vF1_3_NoGC       13 73226999 109226999      37  3.60e+07 0.500  1.00
HT29_00vF1_3_NoGC       14 25057001 49057001      25  2.40e+07 0.500  1.00
HT29_00vF1_3_NoGC       14 79057002 88057002      10  9.00e+06 0.500  1.00
HT29_00vF1_3_NoGC       18 23624003 74624004      52  5.10e+07 0.500  1.00
HT29_00vF1_3_NoGC       21 14390999 31391003      18  1.70e+07 0.500  1.00
HT29_00vF1_3_NoGC        X 3956004 37955999      35  3.40e+07 0.500  1.00
HT29_00vF1_3_NoGC        X 73956000 146956001      74  7.30e+07 0.500  1.00
HT29_00vF1_3_NoGC        1       0 46000002      47  4.60e+07  1.50  1.00
HT29_00vF1_3_NoGC        3 193549001 197549003       5  4.00e+06  1.50  1.00
HT29_00vF1_3_NoGC        4  526001 9526001      10  9.00e+06  1.50  1.00
HT29_00vF1_3_NoGC        4 48526001 49526003       2  1.00e+06  1.50  1.00
HT29_00vF1_3_NoGC        6 30455003 43454999      14  1.30e+07  1.50  1.00
HT29_00vF1_3_NoGC        6 166455000 170455002       5  4.00e+06  1.50  1.00
HT29_00vF1_3_NoGC        7  338999 6339000       7  6.00e+06  1.50  1.00
HT29_00vF1_3_NoGC       10 41621003 50621004      10  9.00e+06  1.50  1.00
HT29_00vF1_3_NoGC       11 60086003 78086004      19  1.80e+07  1.50  1.00
HT29_00vF1_3_NoGC       12 48079002 57079001      10  9.00e+06  1.50  1.00
HT29_00vF1_3_NoGC       12 104079000 133079004      30  2.90e+07  1.50  1.00
HT29_00vF1_3_NoGC       13 110227002 114227003       5  4.00e+06  1.50  1.00
HT29_00vF1_3_NoGC       14 18057000 24056999       7  6.00e+06  1.50  1.00
HT29_00vF1_3_NoGC       14 89057003 107057003      19  1.80e+07  1.50  1.00
HT29_00vF1_3_NoGC       15 100706999 101707002       2  1.00e+06  1.50  1.00
HT29_00vF1_3_NoGC       16  175001 30175002      31  3.00e+07  1.50  1.00
HT29_00vF1_3_NoGC       16 84175001 90175001       7  6.00e+06  1.50  1.00
HT29_00vF1_3_NoGC       17  820001 47820000      46  4.70e+07  1.50  1.00
HT29_00vF1_3_NoGC       19 19546001 58546002      38  3.90e+07  1.50  1.00
HT29_00vF1_3_NoGC       20  417000 3416999       4  3.00e+06  1.50  1.00
HT29_00vF1_3_NoGC       20 30416999 62417003      33  3.20e+07  1.50  1.00
HT29_00vF1_3_NoGC       21 9391002 13391003       3  4.00e+06  1.50  1.00
HT29_00vF1_3_NoGC       21 32391000 47390999      16  1.50e+07  1.50  1.00
HT29_00vF1_3_NoGC       22 15260999 51261000      37  3.60e+07  1.50  1.00
HT29_00vF1_3_NoGC        X  956003 2956001       3  2.00e+06  1.50  1.00
HT29_00vF1_3_NoGC        7 97339002 101339004       5  4.00e+06  2.00  1.00
HT29_00vF1_3_NoGC        8 140200001 145200000       6  5.00e+06  2.00  1.00
HT29_00vF1_3_NoGC        9 129835002 139835004      11  1.00e+07  2.00  1.00
HT29_00vF1_3_NoGC       10 131621003 134621003       4  3.00e+06  2.00  1.00
HT29_00vF1_3_NoGC       11   86004 3086004       4  3.00e+06  2.00  1.00
HT29_00vF1_3_NoGC       17 70820004 80820000      11  1.00e+07  2.00  1.00
HT29_00vF1_3_NoGC       18 75623999 77624004       3  2.00e+06  2.00  1.00
HT29_00vF1_3_NoGC       19  545999 18546000      19  1.80e+07  2.00  1.00
##Estimated cellularity:0.424
##Estimated ratio:0.870003475842892
##Version:2.0
