Sample	Chr	FirstProbe	LastProbe	NbSnp	length_bp	Type	Avg_certainty
HT29_50vMiSeq_3_NoGC	3	79448999	90449004	111	11000005	0.666	1.00
HT29_50vMiSeq_3_NoGC	3	49001	79349004	794	79300003	1.334	1.00
HT29_50vMiSeq_3_NoGC	4	130426002	138426000	81	7999998	1.334	1.00
HT29_50vMiSeq_3_NoGC	4	157226003	190926000	338	33699997	1.334	1.00
HT29_50vMiSeq_3_NoGC	6	61855001	167155001	1054	105300000	1.334	1.00
HT29_50vMiSeq_3_NoGC	8	199998	46800000	438	46600002	1.334	1.00
HT29_50vMiSeq_3_NoGC	14	18957000	107257002	884	88300002	1.334	1.00
HT29_50vMiSeq_3_NoGC	15	19907004	20107002	3	199998	1.334	1.00
HT29_50vMiSeq_3_NoGC	17	8420003	22220004	139	13800001	1.334	1.00
HT29_50vMiSeq_3_NoGC	18	18524003	77224001	588	58699998	1.334	1.00
HT29_50vMiSeq_3_NoGC	21	9391002	38791001	264	29399999	1.334	1.00
HT29_50vMiSeq_3_NoGC	23	2456004	41756004	394	39300000	1.334	1.00
HT29_50vMiSeq_3_NoGC	1	0	45400002	453	45400002	2.66	1.00
HT29_50vMiSeq_3_NoGC	3	118749000	129649001	110	10900001	2.66	1.00
HT29_50vMiSeq_3_NoGC	6	167255004	171055001	39	3799997	2.66	1.00
HT29_50vMiSeq_3_NoGC	7	39000	7239000	73	7200000	2.66	1.00
HT29_50vMiSeq_3_NoGC	7	22339002	48639000	264	26299998	2.66	1.00
HT29_50vMiSeq_3_NoGC	7	94639002	159038999	645	64399997	2.66	1.00
HT29_50vMiSeq_3_NoGC	8	0	100001	2	100001	2.66	1.00
HT29_50vMiSeq_3_NoGC	10	133520999	135521003	21	2000004	2.66	1.00
HT29_50vMiSeq_3_NoGC	11	86004	20285999	203	20199995	2.66	1.00
HT29_50vMiSeq_3_NoGC	11	43486002	79085999	324	35599997	2.66	1.00
HT29_50vMiSeq_3_NoGC	11	107086002	134986002	280	27900000	2.66	1.00
HT29_50vMiSeq_3_NoGC	12	79002	779003	8	700001	2.66	1.00
HT29_50vMiSeq_3_NoGC	13	34027002	53126999	192	19099997	2.66	1.00
HT29_50vMiSeq_3_NoGC	13	94727003	115027002	203	20299999	2.66	1.00
HT29_50vMiSeq_3_NoGC	15	20207003	102506999	820	82299996	2.66	1.00
HT29_50vMiSeq_3_NoGC	16	75000	5474999	55	5399999	2.66	1.00
HT29_50vMiSeq_3_NoGC	17	25219998	41719998	166	16500000	2.66	1.00
HT29_50vMiSeq_3_NoGC	17	70820004	81119999	104	10299995	2.66	1.00
HT29_50vMiSeq_3_NoGC	18	24000	18424002	155	18400002	2.66	1.00
HT29_50vMiSeq_3_NoGC	23	148356000	155156003	69	6800003	2.66	1.00
HT29_50vMiSeq_3_NoGC	4	191026002	191126004	2	100002	3.34	1.00
HT29_50vMiSeq_3_NoGC	5	70997	4171001	42	4100004	3.34	1.00
HT29_50vMiSeq_3_NoGC	8	142700003	146300004	37	3600001	3.34	1.00
HT29_50vMiSeq_3_NoGC	19	28345998	38546004	103	10200006	3.34	1.00
HT29_50vMiSeq_3_NoGC	20	29917002	62917002	331	33000000	3.34	1.00
HT29_50vMiSeq_3_NoGC	12	133779000	133779000	1	0	4	1.00
HT29_50vMiSeq_3_NoGC	13	18927000	33926999	151	14999999	4	1.00
HT29_50vMiSeq_3_NoGC	19	38646000	59045999	205	20399999	4	1.00
HT29_50vMiSeq_3_NoGC	8	115200000	142600002	275	27400002	6	1.00
##Estimated cellularity:0.75
##Estimated ratio:1.01
##Version:2.0
