Sample       Chr FirstProbe LastProbe   NbSnp  length_min    Type Avg_certainty
HT29_100vF9_3_NoGC        3 59849004 60849000      11  1.00e+06 0.333  1.00
HT29_100vF9_3_NoGC        3 79448999 90449004     111  1.10e+07 0.333  1.00
HT29_100vF9_3_NoGC       16 6374999 6775002       5  4.00e+05 0.333  1.00
HT29_100vF9_3_NoGC        3   49001 59749002     598  5.97e+07 0.667  1.00
HT29_100vF9_3_NoGC        3 60949002 79349004     185  1.84e+07 0.667  1.00
HT29_100vF9_3_NoGC        4 49026000 49626000       7  6.00e+05 0.667  1.00
HT29_100vF9_3_NoGC        4 157226003 190625999     335  3.34e+07 0.667  1.00
HT29_100vF9_3_NoGC        6 76855001 162755004     860  8.59e+07 0.667  1.00
HT29_100vF9_3_NoGC        8       0 42900000     430  4.29e+07 0.667  1.00
HT29_100vF9_3_NoGC        8 105400002 107099999      18  1.70e+06 0.667  1.00
HT29_100vF9_3_NoGC        9 36434999 67034999     126  3.06e+07 0.667  1.00
HT29_100vF9_3_NoGC       14 18957000 107257002     884  8.83e+07 0.667  1.00
HT29_100vF9_3_NoGC       15 19907004 20107002       3  2.00e+05 0.667  1.00
HT29_100vF9_3_NoGC       17   20003 25219998     224  2.52e+07 0.667  1.00
HT29_100vF9_3_NoGC       18 18424002 77923998     596  5.95e+07 0.667  1.00
HT29_100vF9_3_NoGC       19   46002 27845999     249  2.78e+07 0.667  1.00
HT29_100vF9_3_NoGC       21 14591004 48091001     336  3.35e+07 0.667  1.00
HT29_100vF9_3_NoGC       22 15961001 18861000      30  2.90e+06 0.667  1.00
HT29_100vF9_3_NoGC       22 21361002 28361004      71  7.00e+06 0.667  1.00
HT29_100vF9_3_NoGC       22 30261000 51161004     210  2.09e+07 0.667  1.00
HT29_100vF9_3_NoGC        X   56003 15956003     160  1.59e+07 0.667  1.00
HT29_100vF9_3_NoGC        X 23056001 41856000     189  1.88e+07 0.667  1.00
HT29_100vF9_3_NoGC        X 58556003 61756002       3  3.20e+06 0.667  1.00
HT29_100vF9_3_NoGC        3 93449003 130549001     372  3.71e+07  1.33  1.00
HT29_100vF9_3_NoGC        3 145649003 152549003      70  6.90e+06  1.33  1.00
HT29_100vF9_3_NoGC        3 164348999 176149002     119  1.18e+07  1.33  1.00
HT29_100vF9_3_NoGC        4 190726001 191126004       5  4.00e+05  1.33  1.00
HT29_100vF9_3_NoGC        5   70997 54271002     514  5.42e+07  1.33  1.00
HT29_100vF9_3_NoGC        6 171055001 171055001       1   0.00  1.33  1.00
HT29_100vF9_3_NoGC        7   39000 7339001      74  7.30e+06  1.33  1.00
HT29_100vF9_3_NoGC        7 21339000 57038999     358  3.57e+07  1.33  1.00
HT29_100vF9_3_NoGC        7 62539001 159038999     966  9.65e+07  1.33  1.00
HT29_100vF9_3_NoGC        8 43000001 105300000     594  6.23e+07  1.33  1.00
HT29_100vF9_3_NoGC        8 107200002 115100003      80  7.90e+06  1.33  1.00
HT29_100vF9_3_NoGC        8 142600002 146300004      38  3.70e+06  1.33  1.00
HT29_100vF9_3_NoGC       10 133921001 135521003      17  1.60e+06  1.33  1.00
HT29_100vF9_3_NoGC       11   86004 134986002    1316  1.35e+08  1.33  1.00
HT29_100vF9_3_NoGC       12   79002  878999       9  8.00e+05  1.33  1.00
HT29_100vF9_3_NoGC       12 21179003 33879000     128  1.27e+07  1.33  1.00
HT29_100vF9_3_NoGC       13 34127003 53327003     193  1.92e+07  1.33  1.00
HT29_100vF9_3_NoGC       13 71327004 115027002     437  4.37e+07  1.33  1.00
HT29_100vF9_3_NoGC       15 22607004 102506999     800  7.99e+07  1.33  1.00
HT29_100vF9_3_NoGC       16   75000 6274998      63  6.20e+06  1.33  1.00
HT29_100vF9_3_NoGC       17 78820002 81119999      24  2.30e+06  1.33  1.00
HT29_100vF9_3_NoGC       18   24000 15323999     154  1.53e+07  1.33  1.00
HT29_100vF9_3_NoGC       19 27946002 33246000      54  5.30e+06  1.33  1.00
HT29_100vF9_3_NoGC       22 28461000 30161004      18  1.70e+06  1.33  1.00
HT29_100vF9_3_NoGC        X 148356000 155156003      69  6.80e+06  1.33  1.00
HT29_100vF9_3_NoGC       17 29220000 31120002      20  1.90e+06  1.67  1.00
HT29_100vF9_3_NoGC       17 32920001 37020000      42  4.10e+06  1.67  1.00
HT29_100vF9_3_NoGC       17 63320003 66120000      29  2.80e+06  1.67  1.00
HT29_100vF9_3_NoGC       20 29917002 62917002     331  3.30e+07  1.67  1.00
HT29_100vF9_3_NoGC       22 18961002 21260999      24  2.30e+06  1.67  1.00
HT29_100vF9_3_NoGC       12 133779000 133779000       1   0.00  2.00  1.00
HT29_100vF9_3_NoGC       13 19027001 26327004      74  7.30e+06  2.00  1.00
HT29_100vF9_3_NoGC       15 20207003 22507001      20  2.30e+06  2.00  1.00
HT29_100vF9_3_NoGC       19 33346002 59045999     258  2.57e+07  2.00  1.00
HT29_100vF9_3_NoGC       13 26426999 34027002      77  7.60e+06  2.33  1.00
HT29_100vF9_3_NoGC        8 115200000 142499999     274  2.73e+07  3.33  1.00
##Estimated cellularity:1.0
##Estimated ratio:1.041
##Version:2.0
