Sample       Chr FirstProbe LastProbe   NbSnp  length_min    Type Avg_certainty
HT29_100vF1_3_GC        3 78548999 89549003      12  1.10e+07 0.333  1.00
HT29_100vF1_3_GC        2 242749002 242749002       1   0.00 0.667  1.00
HT29_100vF1_3_GC        3  548999 77549003      78  7.70e+07 0.667  1.00
HT29_100vF1_3_GC        4 157526004 189526002      33  3.20e+07 0.667  1.00
HT29_100vF1_3_GC        6 76455000 162455004      87  8.60e+07 0.667  1.00
HT29_100vF1_3_GC        8  199998 41200001      42  4.10e+07 0.667  1.00
HT29_100vF1_3_GC       14 19057001 106057002      88  8.70e+07 0.667  1.00
HT29_100vF1_3_GC       17 1820003 21820001      21  2.00e+07 0.667  1.00
HT29_100vF1_3_GC       18 17624003 77624004      61  6.00e+07 0.667  1.00
HT29_100vF1_3_GC       19  545999 23546004      24  2.30e+07 0.667  1.00
HT29_100vF1_3_GC       21 14390999 46390998      33  3.20e+07 0.667  1.00
HT29_100vF1_3_GC       22 30261000 51261000      22  2.10e+07 0.667  1.00
HT29_100vF1_3_GC        X  956003 40956000      41  4.00e+07 0.667  1.00
HT29_100vF1_3_GC        X 57956004 65956002       7  8.00e+06 0.667  1.00
HT29_100vF1_3_GC        1 122000004 141000000      20  1.90e+07  1.33  1.00
HT29_100vF1_3_GC        3 90548999 129549000      40  3.90e+07  1.33  1.00
HT29_100vF1_3_GC        4 190526003 190526003       1   0.00  1.33  1.00
HT29_100vF1_3_GC        5  371003 17371002      18  1.70e+07  1.33  1.00
HT29_100vF1_3_GC        7 21339000 158339003     138  1.37e+08  1.33  1.00
HT29_100vF1_3_GC       10 133621002 134621003       2  1.00e+06  1.33  1.00
HT29_100vF1_3_GC       11   86004 47086001      48  4.70e+07  1.33  1.00
HT29_100vF1_3_GC       11 52085999 134086002      83  8.20e+07  1.33  1.00
HT29_100vF1_3_GC       12   79002   79002       1   0.00  1.33  1.00
HT29_100vF1_3_GC       12 132079001 133079004       2  1.00e+06  1.33  1.00
HT29_100vF1_3_GC       13  227004 18227004      19  1.80e+07  1.33  1.00
HT29_100vF1_3_GC       13 34226999 53227002      20  1.90e+07  1.33  1.00
HT29_100vF1_3_GC       13 94227000 114227003      21  2.00e+07  1.33  1.00
HT29_100vF1_3_GC       14   56999 18057000      19  1.80e+07  1.33  1.00
HT29_100vF1_3_GC       14 107057003 107057003       1   0.00  1.33  1.00
HT29_100vF1_3_GC       15  707004 101707002     102  1.01e+08  1.33  1.00
HT29_100vF1_3_GC       16  175001 4175004       5  4.00e+06  1.33  1.00
HT29_100vF1_3_GC       17 22820004 42820001      21  2.00e+07  1.33  1.00
HT29_100vF1_3_GC       17 72820002 80820000       9  8.00e+06  1.33  1.00
HT29_100vF1_3_GC       18  623999 16624002      17  1.60e+07  1.33  1.00
HT29_100vF1_3_GC       21 47390999 47390999       1   0.00  1.33  1.00
HT29_100vF1_3_GC       22  260999 14261004      15  1.40e+07  1.33  1.00
HT29_100vF1_3_GC        X 147956004 153956004       7  6.00e+06  1.33  1.00
HT29_100vF1_3_GC        7  338999 6339000       7  6.00e+06  1.67  1.00
HT29_100vF1_3_GC       13 72227004 76226999       5  4.00e+06  1.67  1.00
HT29_100vF1_3_GC       20 30416999 62417003      33  3.20e+07  1.67  1.00
HT29_100vF1_3_GC        8 115200000 145200000      31  3.00e+07  2.00  1.00
HT29_100vF1_3_GC       13 19227000 33227003      15  1.40e+07  2.00  1.00
HT29_100vF1_3_GC       19 32546003 58546002      27  2.60e+07  2.00  1.00
##Estimated cellularity:1.0
##Estimated ratio:1.0390024170511902
##Version:2.0
