Sample       Chr FirstProbe LastProbe   NbSnp  length_min    Type Avg_certainty
HT29_100vMiSeq_3_GC        3 59798999 60799001       5  1.00e+06 0.333  1.00
HT29_100vMiSeq_3_GC        3 78548999 90299003      48  1.18e+07 0.333  1.00
HT29_100vMiSeq_3_GC       16 6425004 6674999       2  2.50e+05 0.333  1.00
HT29_100vMiSeq_3_GC       20 14417003 15667002       6  1.25e+06 0.333  1.00
HT29_100vMiSeq_3_GC        3   49001 59549003     239  5.95e+07 0.667  1.00
HT29_100vMiSeq_3_GC        3 61049004 78299003      70  1.72e+07 0.667  1.00
HT29_100vMiSeq_3_GC        4 130526004 138275999      32  7.75e+06 0.667  1.00
HT29_100vMiSeq_3_GC        4 157276001 190775999     135  3.35e+07 0.667  1.00
HT29_100vMiSeq_3_GC        6 62204999 162455004     402  1.00e+08 0.667  1.00
HT29_100vMiSeq_3_GC        8  199998 43700003     175  4.35e+07 0.667  1.00
HT29_100vMiSeq_3_GC        8 105449999 106950000       7  1.50e+06 0.667  1.00
HT29_100vMiSeq_3_GC        9 36334998 47085000      44  1.08e+07 0.667  1.00
HT29_100vMiSeq_3_GC       14 18806999 107057003     354  8.83e+07 0.667  1.00
HT29_100vMiSeq_3_GC       17 1570002 22070003      83  2.05e+07 0.667  1.00
HT29_100vMiSeq_3_GC       17 66320003 70570002      18  4.25e+06 0.667  1.00
HT29_100vMiSeq_3_GC       18 18624000 77873999     238  5.92e+07 0.667  1.00
HT29_100vMiSeq_3_GC       19   46002 24296003      98  2.43e+07 0.667  1.00
HT29_100vMiSeq_3_GC       21 9391002 10391003       5  1.00e+06 0.667  1.00
HT29_100vMiSeq_3_GC       21 14390999 47641001     134  3.33e+07 0.667  1.00
HT29_100vMiSeq_3_GC       22 16011000 18761004      12  2.75e+06 0.667  1.00
HT29_100vMiSeq_3_GC       22 21260999 28261001      29  7.00e+06 0.667  1.00
HT29_100vMiSeq_3_GC       22 30261000 51261000      85  2.10e+07 0.667  1.00
HT29_100vMiSeq_3_GC        X  206004 15956003      64  1.57e+07 0.667  1.00
HT29_100vMiSeq_3_GC        X 23206001 41705999      75  1.85e+07 0.667  1.00
HT29_100vMiSeq_3_GC        1 121500000 142250004      84  2.08e+07  1.33  1.00
HT29_100vMiSeq_3_GC        2 92249003 94999001      12  2.75e+06  1.33  1.00
HT29_100vMiSeq_3_GC        3 90548999 130299000     160  3.98e+07  1.33  1.00
HT29_100vMiSeq_3_GC        3 167549004 176049000      35  8.50e+06  1.33  1.00
HT29_100vMiSeq_3_GC        5 3371003 17621003      58  1.43e+07  1.33  1.00
HT29_100vMiSeq_3_GC        5 31621001 54121001      91  2.25e+07  1.33  1.00
HT29_100vMiSeq_3_GC        6 170705003 170954999       2  2.50e+05  1.33  1.00
HT29_100vMiSeq_3_GC        7   89003 7088999      29  7.00e+06  1.33  1.00
HT29_100vMiSeq_3_GC        7 21339000 159089004     552  1.38e+08  1.33  1.00
HT29_100vMiSeq_3_GC        8 43949999 46450001      11  2.50e+06  1.33  1.00
HT29_100vMiSeq_3_GC        8 94200000 105200003      45  1.10e+07  1.33  1.00
HT29_100vMiSeq_3_GC        8 142700003 146200001      15  3.50e+06  1.33  1.00
HT29_100vMiSeq_3_GC        9 47335001 67085003      80  1.98e+07  1.33  1.00
HT29_100vMiSeq_3_GC       10 133870998 135371003       7  1.50e+06  1.33  1.00
HT29_100vMiSeq_3_GC       11   86004 134836001     540  1.35e+08  1.33  1.00
HT29_100vMiSeq_3_GC       12 24829001 37579002      52  1.28e+07  1.33  1.00
HT29_100vMiSeq_3_GC       12 133579002 133829004       2  2.50e+05  1.33  1.00
HT29_100vMiSeq_3_GC       13  227004 18977004      76  1.88e+07  1.33  1.00
HT29_100vMiSeq_3_GC       13 33977003 53477004      79  1.95e+07  1.33  1.00
HT29_100vMiSeq_3_GC       13 94727003 114977004      82  2.03e+07  1.33  1.00
HT29_100vMiSeq_3_GC       14   56999 18557004      75  1.85e+07  1.33  1.00
HT29_100vMiSeq_3_GC       14 107306999 107306999       1   0.00  1.33  1.00
HT29_100vMiSeq_3_GC       15  207000 102457002     410  1.02e+08  1.33  1.00
HT29_100vMiSeq_3_GC       16 35425001 46175003      44  1.08e+07  1.33  1.00
HT29_100vMiSeq_3_GC       17 22320000 32569998      42  1.02e+07  1.33  1.00
HT29_100vMiSeq_3_GC       17 70820004 81070002      42  1.02e+07  1.33  1.00
HT29_100vMiSeq_3_GC       18  124002 18374004      74  1.83e+07  1.33  1.00
HT29_100vMiSeq_3_GC       19 28046004 33046002      21  5.00e+06  1.33  1.00
HT29_100vMiSeq_3_GC       20 24667001 29416998      20  4.75e+06  1.33  1.00
HT29_100vMiSeq_3_GC       20 62917002 62917002       1   0.00  1.33  1.00
HT29_100vMiSeq_3_GC       21  140999 9141000      37  9.00e+06  1.33  1.00
HT29_100vMiSeq_3_GC       21 10641000 14141004      15  3.50e+06  1.33  1.00
HT29_100vMiSeq_3_GC       21 47891003 47891003       1   0.00  1.33  1.00
HT29_100vMiSeq_3_GC       22   11004 15761003      64  1.57e+07  1.33  1.00
HT29_100vMiSeq_3_GC       22 28511003 30011003       7  1.50e+06  1.33  1.00
HT29_100vMiSeq_3_GC        X 147956004 154955999      29  7.00e+06  1.33  1.00
HT29_100vMiSeq_3_GC        4 191026002 191026002       1   0.00  1.67  1.00
HT29_100vMiSeq_3_GC        5  121002 3121001      13  3.00e+06  1.67  1.00
HT29_100vMiSeq_3_GC       10 38621003 41871000      14  3.25e+06  1.67  1.00
HT29_100vMiSeq_3_GC       13 72727002 76727003      17  4.00e+06  1.67  1.00
HT29_100vMiSeq_3_GC       17 63320003 66070002      12  2.75e+06  1.67  1.00
HT29_100vMiSeq_3_GC       20 29667000 62667000     133  3.30e+07  1.67  1.00
HT29_100vMiSeq_3_GC       22 19010999 21011004       9  2.00e+06  1.67  1.00
HT29_100vMiSeq_3_GC        1       0  500004       3  5.00e+05  2.00  1.00
HT29_100vMiSeq_3_GC        8 115200000 142450002     110  2.73e+07  2.00  1.00
HT29_100vMiSeq_3_GC       13 19227000 33727001      59  1.45e+07  2.00  1.00
HT29_100vMiSeq_3_GC       17 32820000 36820001      17  4.00e+06  2.00  1.00
HT29_100vMiSeq_3_GC       19 33296003 59045999     104  2.57e+07  2.00  1.00
##Estimated cellularity:1.0
##Estimated ratio:1.0481017526509282
##Version:2.0
