Sample       Chr FirstProbe LastProbe   NbSnp  length_min    Type Avg_certainty
HT29_100vF3_3_NoGC        3 79549001 89549003      11  1.00e+07 0.333  1.00
HT29_100vF3_3_NoGC        1 121000002 142000001       2  2.10e+07 0.667  1.00
HT29_100vF3_3_NoGC        2 242749002 242749002       1   0.00 0.667  1.00
HT29_100vF3_3_NoGC        3  548999 78548999      79  7.80e+07 0.667  1.00
HT29_100vF3_3_NoGC        4 157526004 189526002      33  3.20e+07 0.667  1.00
HT29_100vF3_3_NoGC        6 58454999 62455001       3  4.00e+06 0.667  1.00
HT29_100vF3_3_NoGC        6 76455000 162455004      87  8.60e+07 0.667  1.00
HT29_100vF3_3_NoGC        8  199998 46199999      45  4.60e+07 0.667  1.00
HT29_100vF3_3_NoGC       14 18057000 102056999      85  8.40e+07 0.667  1.00
HT29_100vF3_3_NoGC       16 90175001 90175001       1   0.00 0.667  1.00
HT29_100vF3_3_NoGC       17  820001 21820001      22  2.10e+07 0.667  1.00
HT29_100vF3_3_NoGC       17 66820002 69820001       4  3.00e+06 0.667  1.00
HT29_100vF3_3_NoGC       18 17624003 76624002      60  5.90e+07 0.667  1.00
HT29_100vF3_3_NoGC       19 19546001 27545999       7  8.00e+06 0.667  1.00
HT29_100vF3_3_NoGC       21 9391002 47390999      37  3.80e+07 0.667  1.00
HT29_100vF3_3_NoGC       22 15260999 18261000       4  3.00e+06 0.667  1.00
HT29_100vF3_3_NoGC       22 21260999 27260999       7  6.00e+06 0.667  1.00
HT29_100vF3_3_NoGC       22 30261000 51261000      22  2.10e+07 0.667  1.00
HT29_100vF3_3_NoGC        X  956003 14956001      15  1.40e+07 0.667  1.00
HT29_100vF3_3_NoGC        X 22955999 40956000      19  1.80e+07 0.667  1.00
HT29_100vF3_3_NoGC        1       0 32000004      33  3.20e+07  1.33  1.00
HT29_100vF3_3_NoGC        3 92549004 129549000      38  3.70e+07  1.33  1.00
HT29_100vF3_3_NoGC        5 4370999 53371002      48  4.90e+07  1.33  1.00
HT29_100vF3_3_NoGC        7 21339000 56339003      36  3.50e+07  1.33  1.00
HT29_100vF3_3_NoGC        7 62339004 146339003      85  8.40e+07  1.33  1.00
HT29_100vF3_3_NoGC        8 47200001 104200002      58  5.70e+07  1.33  1.00
HT29_100vF3_3_NoGC        9 129835002 140835000      12  1.10e+07  1.33  1.00
HT29_100vF3_3_NoGC       10  620999  620999       1   0.00  1.33  1.00
HT29_100vF3_3_NoGC       11 3086004 47086001      45  4.40e+07  1.33  1.00
HT29_100vF3_3_NoGC       11 76085999 134086002      59  5.80e+07  1.33  1.00
HT29_100vF3_3_NoGC       12   79002   79002       1   0.00  1.33  1.00
HT29_100vF3_3_NoGC       13 34226999 53227002      20  1.90e+07  1.33  1.00
HT29_100vF3_3_NoGC       13 71227001 109226999      39  3.80e+07  1.33  1.00
HT29_100vF3_3_NoGC       15 22706999 101707002      80  7.90e+07  1.33  1.00
HT29_100vF3_3_NoGC       16  175001 4175004       5  4.00e+06  1.33  1.00
HT29_100vF3_3_NoGC       16 84175001 89174999       6  5.00e+06  1.33  1.00
HT29_100vF3_3_NoGC       17 24820002 47820000      24  2.30e+07  1.33  1.00
HT29_100vF3_3_NoGC       17 70820004 80820000      11  1.00e+07  1.33  1.00
HT29_100vF3_3_NoGC       18  623999 14624004      15  1.40e+07  1.33  1.00
HT29_100vF3_3_NoGC       19 28546001 32546003       5  4.00e+06  1.33  1.00
HT29_100vF3_3_NoGC       22 28261001 29261004       2  1.00e+06  1.33  1.00
HT29_100vF3_3_NoGC        X 147956004 153956004       7  6.00e+06  1.33  1.00
HT29_100vF3_3_NoGC        4 190526003 190526003       1   0.00  1.67  1.00
HT29_100vF3_3_NoGC        5  371003 3371003       4  3.00e+06  1.67  1.00
HT29_100vF3_3_NoGC        7  338999 6339000       7  6.00e+06  1.67  1.00
HT29_100vF3_3_NoGC        7 147339000 158339003      12  1.10e+07  1.67  1.00
HT29_100vF3_3_NoGC       10 133621002 134621003       2  1.00e+06  1.67  1.00
HT29_100vF3_3_NoGC       11   86004 2086002       3  2.00e+06  1.67  1.00
HT29_100vF3_3_NoGC       11 57086003 75086004      19  1.80e+07  1.67  1.00
HT29_100vF3_3_NoGC       13 110227002 114227003       5  4.00e+06  1.67  1.00
HT29_100vF3_3_NoGC       17 62819999 65820000       4  3.00e+06  1.67  1.00
HT29_100vF3_3_NoGC       20 30416999 59417004      30  2.90e+07  1.67  1.00
HT29_100vF3_3_NoGC        8 115200000 145200000      31  3.00e+07  2.00  1.00
HT29_100vF3_3_NoGC       13 18227004 33227003      16  1.50e+07  2.00  1.00
HT29_100vF3_3_NoGC       19 33546000 58546002      26  2.50e+07  2.00  1.00
HT29_100vF3_3_NoGC       20 60416999 62417003       3  2.00e+06  2.00  1.00
HT29_100vF3_3_NoGC       22 19261001 20261003       2  1.00e+06  2.00  1.00
##Estimated cellularity:1.0
##Estimated ratio:1.0558452091298725
##Version:2.0
