Sample	Chr	FirstProbe	LastProbe	NbSnp	length_bp	Type	Avg_certainty
HT29_100vF3_3_NoGC	3	59948999	60849000	10	900001	0.666	1.00
HT29_100vF3_3_NoGC	3	79448999	90449004	111	11000005	0.666	1.00
HT29_100vF3_3_NoGC	16	6274998	6875004	7	600006	0.666	1.00
HT29_100vF3_3_NoGC	1	121199999	143500002	13	22300003	1.334	1.00
HT29_100vF3_3_NoGC	3	49001	59849004	599	59800003	1.334	1.00
HT29_100vF3_3_NoGC	3	60949002	79349004	185	18400002	1.334	1.00
HT29_100vF3_3_NoGC	4	157226003	190826004	337	33600001	1.334	1.00
HT29_100vF3_3_NoGC	6	76855001	162955001	862	86100000	1.334	1.00
HT29_100vF3_3_NoGC	8	0	46800000	440	46800000	1.334	1.00
HT29_100vF3_3_NoGC	8	105400002	107500001	22	2099999	1.334	1.00
HT29_100vF3_3_NoGC	10	42320999	42521003	3	200004	1.334	1.00
HT29_100vF3_3_NoGC	14	18957000	99757001	809	80800001	1.334	1.00
HT29_100vF3_3_NoGC	17	8320002	25319999	142	16999997	1.334	1.00
HT29_100vF3_3_NoGC	18	18424002	77023998	587	58599996	1.334	1.00
HT29_100vF3_3_NoGC	19	19946004	27845999	50	7899995	1.334	1.00
HT29_100vF3_3_NoGC	21	14591004	48091001	336	33499997	1.334	1.00
HT29_100vF3_3_NoGC	22	15961001	18861000	30	2899999	1.334	1.00
HT29_100vF3_3_NoGC	23	756000	16055999	154	15299999	1.334	1.00
HT29_100vF3_3_NoGC	23	23056001	41856000	189	18799999	1.334	1.00
HT29_100vF3_3_NoGC	1	0	42100001	420	42100001	2.66	1.00
HT29_100vF3_3_NoGC	3	93449003	130549001	372	37099998	2.66	1.00
HT29_100vF3_3_NoGC	3	166149000	176149002	101	10000002	2.66	1.00
HT29_100vF3_3_NoGC	5	3371003	54370997	482	50999994	2.66	1.00
HT29_100vF3_3_NoGC	7	21439002	57439002	361	36000000	2.66	1.00
HT29_100vF3_3_NoGC	7	62539001	147539004	851	85000003	2.66	1.00
HT29_100vF3_3_NoGC	8	46900001	105300000	584	58399999	2.66	1.00
HT29_100vF3_3_NoGC	8	107600004	115100003	76	7499999	2.66	1.00
HT29_100vF3_3_NoGC	9	130135001	141134999	111	10999998	2.66	1.00
HT29_100vF3_3_NoGC	10	20999	1421004	15	1400005	2.66	1.00
HT29_100vF3_3_NoGC	10	39020999	39121002	2	100003	2.66	1.00
HT29_100vF3_3_NoGC	11	3286002	48586002	454	45300000	2.66	1.00
HT29_100vF3_3_NoGC	11	76886004	134986002	581	58099998	2.66	1.00
HT29_100vF3_3_NoGC	12	79002	3379001	34	3299999	2.66	1.00
HT29_100vF3_3_NoGC	12	22679004	33979001	114	11299997	2.66	1.00
HT29_100vF3_3_NoGC	13	33926999	53227002	194	19300003	2.66	1.00
HT29_100vF3_3_NoGC	13	71426999	109927002	386	38500003	2.66	1.00
HT29_100vF3_3_NoGC	15	22407000	102506999	802	80099999	2.66	1.00
HT29_100vF3_3_NoGC	16	75000	6175002	62	6100002	2.66	1.00
HT29_100vF3_3_NoGC	17	25420001	32820000	75	7399999	2.66	1.00
HT29_100vF3_3_NoGC	17	37120002	49420002	124	12300000	2.66	1.00
HT29_100vF3_3_NoGC	17	70919999	81119999	103	10200000	2.66	1.00
HT29_100vF3_3_NoGC	18	24000	15323999	154	15299999	2.66	1.00
HT29_100vF3_3_NoGC	19	27946002	33246000	54	5299998	2.66	1.00
HT29_100vF3_3_NoGC	23	148356000	155156003	69	6800003	2.66	1.00
HT29_100vF3_3_NoGC	6	171055001	171055001	1	0	3.34	1.00
HT29_100vF3_3_NoGC	7	39000	7239000	73	7200000	3.34	1.00
HT29_100vF3_3_NoGC	7	147639000	159038999	115	11399999	3.34	1.00
HT29_100vF3_3_NoGC	10	133921001	135521003	17	1600002	3.34	1.00
HT29_100vF3_3_NoGC	11	86004	3185999	32	3099995	3.34	1.00
HT29_100vF3_3_NoGC	11	56986002	76786001	199	19799999	3.34	1.00
HT29_100vF3_3_NoGC	13	110027003	115027002	50	4999999	3.34	1.00
HT29_100vF3_3_NoGC	17	63320003	66120000	29	2799997	3.34	1.00
HT29_100vF3_3_NoGC	20	29917002	60116999	303	30199997	3.34	1.00
HT29_100vF3_3_NoGC	4	190926000	191126004	3	200004	4	1.00
HT29_100vF3_3_NoGC	5	70997	3271001	33	3200004	4	1.00
HT29_100vF3_3_NoGC	8	142700003	146300004	37	3600001	4	1.00
HT29_100vF3_3_NoGC	17	32920001	37020000	42	4099999	4	1.00
HT29_100vF3_3_NoGC	22	18961002	20261003	14	1300001	4	1.00
HT29_100vF3_3_NoGC	12	133779000	133779000	1	0	4.66	1.00
HT29_100vF3_3_NoGC	13	18927000	33827004	150	14900004	4.66	1.00
HT29_100vF3_3_NoGC	19	33346002	59045999	258	25699997	4.66	1.00
HT29_100vF3_3_NoGC	20	60217001	62917002	28	2700001	4.66	1.00
HT29_100vF3_3_NoGC	8	115200000	142600002	275	27400002	6.66	1.00
##Estimated cellularity:1.0
##Estimated ratio:1.055
##Version:2.0
