Sample	Chr	FirstProbe	LastProbe	NbSnp	length_bp	Type	Avg_certainty
HT29_00vF1_3_NoGC	1	186000000	199000002	14	13000002	0.666	1.00
HT29_00vF1_3_NoGC	13	54227004	72227004	19	18000000	0.666	1.00
HT29_00vF1_3_NoGC	15	19707000	21707004	3	2000004	0.666	1.00
HT29_00vF1_3_NoGC	1	65999999	121000002	56	55000003	1.334	1.00
HT29_00vF1_3_NoGC	2	49749000	83749002	35	34000002	1.334	1.00
HT29_00vF1_3_NoGC	2	137749001	215749002	79	78000001	1.334	1.00
HT29_00vF1_3_NoGC	3	74549004	120548999	45	45999995	1.334	1.00
HT29_00vF1_3_NoGC	3	141549000	192549000	52	51000000	1.334	1.00
HT29_00vF1_3_NoGC	4	10526004	47525999	38	36999995	1.334	1.00
HT29_00vF1_3_NoGC	4	52526003	182525999	131	129999996	1.334	1.00
HT29_00vF1_3_NoGC	5	18371004	129371003	110	110999999	1.334	1.00
HT29_00vF1_3_NoGC	6	44455002	147455004	102	103000002	1.334	1.00
HT29_00vF1_3_NoGC	7	7339001	21339000	15	13999999	1.334	1.00
HT29_00vF1_3_NoGC	7	77339004	96339000	20	18999996	1.334	1.00
HT29_00vF1_3_NoGC	7	102338999	126338999	25	24000000	1.334	1.00
HT29_00vF1_3_NoGC	8	43200000	122200001	78	79000001	1.334	1.00
HT29_00vF1_3_NoGC	8	146200001	146200001	1	0	1.334	1.00
HT29_00vF1_3_NoGC	9	835002	30835002	31	30000000	1.334	1.00
HT29_00vF1_3_NoGC	10	51620999	68621004	18	17000005	1.334	1.00
HT29_00vF1_3_NoGC	11	20086001	42086004	23	22000003	1.334	1.00
HT29_00vF1_3_NoGC	11	79085999	108086003	30	29000004	1.334	1.00
HT29_00vF1_3_NoGC	12	15079002	47078999	31	31999997	1.334	1.00
HT29_00vF1_3_NoGC	12	58079004	103079003	46	44999999	1.334	1.00
HT29_00vF1_3_NoGC	13	73226999	109226999	37	36000000	1.334	1.00
HT29_00vF1_3_NoGC	14	25057001	49057001	25	24000000	1.334	1.00
HT29_00vF1_3_NoGC	14	79057002	88057002	10	9000000	1.334	1.00
HT29_00vF1_3_NoGC	18	23624003	74624004	52	51000001	1.334	1.00
HT29_00vF1_3_NoGC	21	14390999	31391003	18	17000004	1.334	1.00
HT29_00vF1_3_NoGC	23	3956004	37955999	35	33999995	1.334	1.00
HT29_00vF1_3_NoGC	23	73956000	146956001	74	73000001	1.334	1.00
HT29_00vF1_3_NoGC	1	0	46000002	47	46000002	2.66	1.00
HT29_00vF1_3_NoGC	3	193549001	197549003	5	4000002	2.66	1.00
HT29_00vF1_3_NoGC	4	526001	9526001	10	9000000	2.66	1.00
HT29_00vF1_3_NoGC	4	48526001	49526003	2	1000002	2.66	1.00
HT29_00vF1_3_NoGC	6	30455003	43454999	14	12999996	2.66	1.00
HT29_00vF1_3_NoGC	6	166455000	170455002	5	4000002	2.66	1.00
HT29_00vF1_3_NoGC	7	338999	6339000	7	6000001	2.66	1.00
HT29_00vF1_3_NoGC	10	41621003	50621004	10	9000001	2.66	1.00
HT29_00vF1_3_NoGC	11	60086003	78086004	19	18000001	2.66	1.00
HT29_00vF1_3_NoGC	12	48079002	57079001	10	8999999	2.66	1.00
HT29_00vF1_3_NoGC	12	104079000	133079004	30	29000004	2.66	1.00
HT29_00vF1_3_NoGC	13	110227002	114227003	5	4000001	2.66	1.00
HT29_00vF1_3_NoGC	14	18057000	24056999	7	5999999	2.66	1.00
HT29_00vF1_3_NoGC	14	89057003	107057003	19	18000000	2.66	1.00
HT29_00vF1_3_NoGC	15	100706999	101707002	2	1000003	2.66	1.00
HT29_00vF1_3_NoGC	16	175001	30175002	31	30000001	2.66	1.00
HT29_00vF1_3_NoGC	16	84175001	90175001	7	6000000	2.66	1.00
HT29_00vF1_3_NoGC	17	820001	47820000	46	46999999	2.66	1.00
HT29_00vF1_3_NoGC	19	19546001	58546002	38	39000001	2.66	1.00
HT29_00vF1_3_NoGC	20	417000	3416999	4	2999999	2.66	1.00
HT29_00vF1_3_NoGC	20	30416999	62417003	33	32000004	2.66	1.00
HT29_00vF1_3_NoGC	21	9391002	13391003	3	4000001	2.66	1.00
HT29_00vF1_3_NoGC	21	32391000	47390999	16	14999999	2.66	1.00
HT29_00vF1_3_NoGC	22	15260999	51261000	37	36000001	2.66	1.00
HT29_00vF1_3_NoGC	23	956003	2956001	3	1999998	2.66	1.00
HT29_00vF1_3_NoGC	7	97339002	101339004	5	4000002	3.34	1.00
HT29_00vF1_3_NoGC	8	140200001	145200000	6	4999999	3.34	1.00
HT29_00vF1_3_NoGC	9	129835002	139835004	11	10000002	3.34	1.00
HT29_00vF1_3_NoGC	10	131621003	134621003	4	3000000	3.34	1.00
HT29_00vF1_3_NoGC	11	86004	3086004	4	3000000	3.34	1.00
HT29_00vF1_3_NoGC	17	70820004	80820000	11	9999996	3.34	1.00
HT29_00vF1_3_NoGC	18	75623999	77624004	3	2000005	3.34	1.00
HT29_00vF1_3_NoGC	19	545999	18546000	19	18000001	3.34	1.00
##Estimated cellularity:0.66
##Estimated ratio:0.9124087591240887
##Version:2.0
