Sample       Chr FirstProbe LastProbe   NbSnp  length_min    Type Avg_certainty
HT29_100vF6_3_NoGC        3 79299000 90299003      45  1.10e+07 0.333  1.00
HT29_100vF6_3_NoGC       16 6175002 6674999       3  5.00e+05 0.333  1.00
HT29_100vF6_3_NoGC        3   49001 79049003     317  7.90e+07 0.667  1.00
HT29_100vF6_3_NoGC        4 157276001 190526003     134  3.33e+07 0.667  1.00
HT29_100vF6_3_NoGC        6 76705002 162455004     344  8.58e+07 0.667  1.00
HT29_100vF6_3_NoGC        8  199998 46700003     176  4.65e+07 0.667  1.00
HT29_100vF6_3_NoGC        8 105449999 106950000       7  1.50e+06 0.667  1.00
HT29_100vF6_3_NoGC        9 36085002 66835001      52  3.07e+07 0.667  1.00
HT29_100vF6_3_NoGC       14 18806999 107057003     354  8.83e+07 0.667  1.00
HT29_100vF6_3_NoGC       17   70002 25070004      90  2.50e+07 0.667  1.00
HT29_100vF6_3_NoGC       17 66570000 70820004      18  4.25e+06 0.667  1.00
HT29_100vF6_3_NoGC       18 18624000 77873999     238  5.92e+07 0.667  1.00
HT29_100vF6_3_NoGC       21 14641001 47891003     134  3.33e+07 0.667  1.00
HT29_100vF6_3_NoGC       22 16011000 18761004      12  2.75e+06 0.667  1.00
HT29_100vF6_3_NoGC       22 21260999 28261001      29  7.00e+06 0.667  1.00
HT29_100vF6_3_NoGC       22 30261000 51261000      85  2.10e+07 0.667  1.00
HT29_100vF6_3_NoGC        X  206004 41705999     167  4.15e+07 0.667  1.00
HT29_100vF6_3_NoGC        X 58456002 62206002       5  3.75e+06 0.667  1.00
HT29_100vF6_3_NoGC        1       0 3749999      16  3.75e+06  1.33  1.00
HT29_100vF6_3_NoGC        3 93299004 130299000     149  3.70e+07  1.33  1.00
HT29_100vF6_3_NoGC        4 190775999 191026002       2  2.50e+05  1.33  1.00
HT29_100vF6_3_NoGC        5  121002 54121001     206  5.40e+07  1.33  1.00
HT29_100vF6_3_NoGC        7 21339000 159089004     541  1.38e+08  1.33  1.00
HT29_100vF6_3_NoGC        8 46949999 105200003     234  5.83e+07  1.33  1.00
HT29_100vF6_3_NoGC        8 107200002 114950004      32  7.75e+06  1.33  1.00
HT29_100vF6_3_NoGC       10 133870998 135371003       7  1.50e+06  1.33  1.00
HT29_100vF6_3_NoGC       11   86004 48336000     194  4.82e+07  1.33  1.00
HT29_100vF6_3_NoGC       11 55085999 134836001     320  7.98e+07  1.33  1.00
HT29_100vF6_3_NoGC       12   79002  829001       4  7.50e+05  1.33  1.00
HT29_100vF6_3_NoGC       13 33977003 53477004      79  1.95e+07  1.33  1.00
HT29_100vF6_3_NoGC       13 71477003 114977004     175  4.35e+07  1.33  1.00
HT29_100vF6_3_NoGC       15 19957001 102457002     330  8.25e+07  1.33  1.00
HT29_100vF6_3_NoGC       16  175001 5924999      24  5.75e+06  1.33  1.00
HT29_100vF6_3_NoGC       17 25319999 44570003      78  1.93e+07  1.33  1.00
HT29_100vF6_3_NoGC       17 71069999 81070002      41  1.00e+07  1.33  1.00
HT29_100vF6_3_NoGC       18  124002 15374003      62  1.53e+07  1.33  1.00
HT29_100vF6_3_NoGC       19 28046004 32796000      20  4.75e+06  1.33  1.00
HT29_100vF6_3_NoGC       22 28511003 30011003       7  1.50e+06  1.33  1.00
HT29_100vF6_3_NoGC        X 147956004 154955999      29  7.00e+06  1.33  1.00
HT29_100vF6_3_NoGC        7   89003 7088999      29  7.00e+06  1.67  1.00
HT29_100vF6_3_NoGC       17 63320003 66320003      13  3.00e+06  1.67  1.00
HT29_100vF6_3_NoGC       20 29917002 62917002     133  3.30e+07  1.67  1.00
HT29_100vF6_3_NoGC       22 19010999 21011004       9  2.00e+06  1.67  1.00
HT29_100vF6_3_NoGC        8 115200000 146200001     125  3.10e+07  2.00  1.00
HT29_100vF6_3_NoGC       12 133579002 133829004       2  2.50e+05  2.00  1.00
HT29_100vF6_3_NoGC       13 18977004 33727001      60  1.47e+07  2.00  1.00
HT29_100vF6_3_NoGC       19 33046002 59045999     105  2.60e+07  2.00  1.00
##Estimated cellularity:1.0
##Estimated ratio:1.044724335986434
##Version:2.0
