Sample       Chr FirstProbe LastProbe   NbSnp  length_min    Type Avg_certainty
HT29_20vMiSeq_3_NoGC        3 73549001 92549004      18  1.90e+07 0.333  1.00
HT29_20vMiSeq_3_NoGC        4 157526004 183526001      27  2.60e+07 0.333  1.00
HT29_20vMiSeq_3_NoGC       21 13391003 34391004      22  2.10e+07 0.333  1.00
HT29_20vMiSeq_3_NoGC        1 55999997 249000000     174  1.93e+08 0.667  1.00
HT29_20vMiSeq_3_NoGC        2  749004 82749000      83  8.20e+07 0.667  1.00
HT29_20vMiSeq_3_NoGC        2 114749004 242749002     129  1.28e+08 0.667  1.00
HT29_20vMiSeq_3_NoGC        3  548999 72549000      73  7.20e+07 0.667  1.00
HT29_20vMiSeq_3_NoGC        3 141549000 181549001      41  4.00e+07 0.667  1.00
HT29_20vMiSeq_3_NoGC        4 10526004 156526002     145  1.46e+08 0.667  1.00
HT29_20vMiSeq_3_NoGC        5 18371004 166371000     147  1.48e+08 0.667  1.00
HT29_20vMiSeq_3_NoGC        6 45455004 169454999     123  1.24e+08 0.667  1.00
HT29_20vMiSeq_3_NoGC        7 7339001 21339000      15  1.40e+07 0.667  1.00
HT29_20vMiSeq_3_NoGC        8  199998 114200003     113  1.14e+08 0.667  1.00
HT29_20vMiSeq_3_NoGC        8 146200001 146200001       1   0.00 0.667  1.00
HT29_20vMiSeq_3_NoGC        9  835002 120835001     104  1.20e+08 0.667  1.00
HT29_20vMiSeq_3_NoGC       10 7621002 37621002      31  3.00e+07 0.667  1.00
HT29_20vMiSeq_3_NoGC       10 42621000 112621002      71  7.00e+07 0.667  1.00
HT29_20vMiSeq_3_NoGC       12 9079001 103079003      93  9.40e+07 0.667  1.00
HT29_20vMiSeq_3_NoGC       13 53227002 94227000      42  4.10e+07 0.667  1.00
HT29_20vMiSeq_3_NoGC       14 18057000 103057002      86  8.50e+07 0.667  1.00
HT29_20vMiSeq_3_NoGC       18 18624000 77624004      60  5.90e+07 0.667  1.00
HT29_20vMiSeq_3_NoGC       19  545999 27545999      26  2.70e+07 0.667  1.00
HT29_20vMiSeq_3_NoGC       20 1417002 22417001      22  2.10e+07 0.667  1.00
HT29_20vMiSeq_3_NoGC        X 1955999 153956004     151  1.52e+08 0.667  1.00
HT29_20vMiSeq_3_NoGC        6 170455002 170455002       1   0.00  1.33  1.00
HT29_20vMiSeq_3_NoGC        7  338999 6339000       7  6.00e+06  1.33  1.00
HT29_20vMiSeq_3_NoGC       20 23416998 62417003      37  3.90e+07  1.33  1.00
HT29_20vMiSeq_3_NoGC       21 9391002 10391003       2  1.00e+06  1.33  1.00
HT29_20vMiSeq_3_NoGC       13 24227004 32227002       9  8.00e+06  1.67  1.00
HT29_20vMiSeq_3_NoGC       19 28546001 58546002      31  3.00e+07  1.67  1.00
HT29_20vMiSeq_3_NoGC       20  417000  417000       1   0.00  1.67  1.00
HT29_20vMiSeq_3_NoGC        8 115200000 145200000      31  3.00e+07  2.00  1.00
HT29_20vMiSeq_3_NoGC       10 113621003 114621000       2  1.00e+06  2.00  1.00
##Estimated cellularity:0.357
##Estimated ratio:0.822152705364386
##Version:2.0
