Sample	Chr	FirstProbe	LastProbe	NbSnp	length_bp	Type	Avg_certainty
HT29_100vF2_3_NoGC	3	79549001	90299003	44	10750002	0.666	1.00
HT29_100vF2_3_NoGC	2	242749002	242999003	2	250001	1.334	1.00
HT29_100vF2_3_NoGC	3	49001	79299000	318	79249999	1.334	1.00
HT29_100vF2_3_NoGC	4	49026000	49526003	3	500003	1.334	1.00
HT29_100vF2_3_NoGC	4	157276001	190526003	134	33250002	1.334	1.00
HT29_100vF2_3_NoGC	6	77204999	170455002	374	93250003	1.334	1.00
HT29_100vF2_3_NoGC	7	159089004	159089004	1	0	1.334	1.00
HT29_100vF2_3_NoGC	8	199998	46700003	176	46500005	1.334	1.00
HT29_100vF2_3_NoGC	14	18806999	107057003	354	88250004	1.334	1.00
HT29_100vF2_3_NoGC	17	70002	25070004	90	25000002	1.334	1.00
HT29_100vF2_3_NoGC	18	18374004	77873999	239	59499995	1.334	1.00
HT29_100vF2_3_NoGC	19	46002	24546000	99	24499998	1.334	1.00
HT29_100vF2_3_NoGC	21	9391002	47891003	144	38500001	1.334	1.00
HT29_100vF2_3_NoGC	22	16011000	18761004	12	2750004	1.334	1.00
HT29_100vF2_3_NoGC	22	21260999	51261000	121	30000001	1.334	1.00
HT29_100vF2_3_NoGC	23	206004	41705999	167	41499995	1.334	1.00
HT29_100vF2_3_NoGC	3	93299004	130049004	148	36750000	2.66	1.00
HT29_100vF2_3_NoGC	3	145549002	176049000	123	30499998	2.66	1.00
HT29_100vF2_3_NoGC	4	190775999	191026002	2	250003	2.66	1.00
HT29_100vF2_3_NoGC	5	121002	54370997	207	54249995	2.66	1.00
HT29_100vF2_3_NoGC	6	170705003	170954999	2	249996	2.66	1.00
HT29_100vF2_3_NoGC	7	89003	158839002	625	158749999	2.66	1.00
HT29_100vF2_3_NoGC	8	46949999	114950004	273	68000005	2.66	1.00
HT29_100vF2_3_NoGC	11	86004	134836001	528	134749997	2.66	1.00
HT29_100vF2_3_NoGC	12	79002	79002	1	0	2.66	1.00
HT29_100vF2_3_NoGC	13	36977004	114977004	313	78000000	2.66	1.00
HT29_100vF2_3_NoGC	15	19957001	102457002	330	82500001	2.66	1.00
HT29_100vF2_3_NoGC	17	25319999	38570003	54	13250004	2.66	1.00
HT29_100vF2_3_NoGC	18	124002	15374003	62	15250001	2.66	1.00
HT29_100vF2_3_NoGC	19	27545999	33296003	24	5750004	2.66	1.00
HT29_100vF2_3_NoGC	22	19010999	21011004	9	2000005	2.66	1.00
HT29_100vF2_3_NoGC	20	29917002	62917002	133	33000000	3.34	1.00
HT29_100vF2_3_NoGC	8	115200000	142450002	110	27250002	4	1.00
HT29_100vF2_3_NoGC	12	133829004	133829004	1	0	4	1.00
HT29_100vF2_3_NoGC	13	18977004	36727001	72	17749997	4	1.00
HT29_100vF2_3_NoGC	19	33546000	58796004	102	25250004	4	1.00
##Estimated cellularity:0.972
##Estimated ratio:1.0438205195486276
##Version:2.0
