Sample       Chr FirstProbe LastProbe   NbSnp  length_min    Type Avg_certainty
HT29_100vF2_3_NoGC        3 79549001 90299003      44  1.08e+07 0.333  1.00
HT29_100vF2_3_NoGC        2 242749002 242999003       2  2.50e+05 0.667  1.00
HT29_100vF2_3_NoGC        3   49001 79299000     318  7.92e+07 0.667  1.00
HT29_100vF2_3_NoGC        4 49026000 49526003       3  5.00e+05 0.667  1.00
HT29_100vF2_3_NoGC        4 157276001 190526003     134  3.33e+07 0.667  1.00
HT29_100vF2_3_NoGC        6 77204999 170455002     374  9.33e+07 0.667  1.00
HT29_100vF2_3_NoGC        7 159089004 159089004       1   0.00 0.667  1.00
HT29_100vF2_3_NoGC        8  199998 46700003     176  4.65e+07 0.667  1.00
HT29_100vF2_3_NoGC       14 18806999 107057003     354  8.83e+07 0.667  1.00
HT29_100vF2_3_NoGC       17   70002 25070004      90  2.50e+07 0.667  1.00
HT29_100vF2_3_NoGC       18 18374004 77873999     239  5.95e+07 0.667  1.00
HT29_100vF2_3_NoGC       19   46002 24546000      99  2.45e+07 0.667  1.00
HT29_100vF2_3_NoGC       21 9391002 47891003     144  3.85e+07 0.667  1.00
HT29_100vF2_3_NoGC       22 16011000 18761004      12  2.75e+06 0.667  1.00
HT29_100vF2_3_NoGC       22 21260999 51261000     121  3.00e+07 0.667  1.00
HT29_100vF2_3_NoGC        X  206004 41705999     167  4.15e+07 0.667  1.00
HT29_100vF2_3_NoGC        3 93299004 130049004     148  3.68e+07  1.33  1.00
HT29_100vF2_3_NoGC        3 145549002 176049000     123  3.05e+07  1.33  1.00
HT29_100vF2_3_NoGC        4 190775999 191026002       2  2.50e+05  1.33  1.00
HT29_100vF2_3_NoGC        5  121002 54370997     207  5.42e+07  1.33  1.00
HT29_100vF2_3_NoGC        6 170705003 170954999       2  2.50e+05  1.33  1.00
HT29_100vF2_3_NoGC        7   89003 158839002     625  1.59e+08  1.33  1.00
HT29_100vF2_3_NoGC        8 46949999 114950004     273  6.80e+07  1.33  1.00
HT29_100vF2_3_NoGC       11   86004 134836001     528  1.35e+08  1.33  1.00
HT29_100vF2_3_NoGC       12   79002   79002       1   0.00  1.33  1.00
HT29_100vF2_3_NoGC       13 36977004 114977004     313  7.80e+07  1.33  1.00
HT29_100vF2_3_NoGC       15 19957001 102457002     330  8.25e+07  1.33  1.00
HT29_100vF2_3_NoGC       17 25319999 38570003      54  1.33e+07  1.33  1.00
HT29_100vF2_3_NoGC       18  124002 15374003      62  1.53e+07  1.33  1.00
HT29_100vF2_3_NoGC       19 27545999 33296003      24  5.75e+06  1.33  1.00
HT29_100vF2_3_NoGC       22 19010999 21011004       9  2.00e+06  1.33  1.00
HT29_100vF2_3_NoGC       20 29917002 62917002     133  3.30e+07  1.67  1.00
HT29_100vF2_3_NoGC        8 115200000 142450002     110  2.73e+07  2.00  1.00
HT29_100vF2_3_NoGC       12 133829004 133829004       1   0.00  2.00  1.00
HT29_100vF2_3_NoGC       13 18977004 36727001      72  1.77e+07  2.00  1.00
HT29_100vF2_3_NoGC       19 33546000 58796004     102  2.53e+07  2.00  1.00
##Estimated cellularity:0.972
##Estimated ratio:1.0438205195486276
##Version:2.0
