Sample	Chr	FirstProbe	LastProbe	NbSnp	length_bp	Type	Avg_certainty
HT29_100vMiSeq_3_NoGC	3	59849004	60849000	11	999996	0.666	1.00
HT29_100vMiSeq_3_NoGC	3	79448999	90449004	111	11000005	0.666	1.00
HT29_100vMiSeq_3_NoGC	16	6374999	6775002	5	400003	0.666	1.00
HT29_100vMiSeq_3_NoGC	20	14517000	15716999	13	1199999	0.666	1.00
HT29_100vMiSeq_3_NoGC	3	149003	59749002	597	59599999	1.334	1.00
HT29_100vMiSeq_3_NoGC	3	60949002	79349004	185	18400002	1.334	1.00
HT29_100vMiSeq_3_NoGC	4	130526004	138226002	78	7699998	1.334	1.00
HT29_100vMiSeq_3_NoGC	4	157226003	191026002	339	33799999	1.334	1.00
HT29_100vMiSeq_3_NoGC	6	61855001	162755004	1010	100900003	1.334	1.00
HT29_100vMiSeq_3_NoGC	8	199998	46800000	438	46600002	1.334	1.00
HT29_100vMiSeq_3_NoGC	8	105400002	107300003	20	1900001	1.334	1.00
HT29_100vMiSeq_3_NoGC	9	36334998	66635003	123	30300005	1.334	1.00
HT29_100vMiSeq_3_NoGC	10	42320999	42421002	2	100003	1.334	1.00
HT29_100vMiSeq_3_NoGC	14	18957000	107257002	884	88300002	1.334	1.00
HT29_100vMiSeq_3_NoGC	15	19907004	20107002	3	199998	1.334	1.00
HT29_100vMiSeq_3_NoGC	17	20003	22220004	223	22200001	1.334	1.00
HT29_100vMiSeq_3_NoGC	17	66419999	70720001	44	4300002	1.334	1.00
HT29_100vMiSeq_3_NoGC	18	18524003	77923998	595	59399995	1.334	1.00
HT29_100vMiSeq_3_NoGC	19	46002	27845999	249	27799997	1.334	1.00
HT29_100vMiSeq_3_NoGC	21	9391002	48091001	357	38699999	1.334	1.00
HT29_100vMiSeq_3_NoGC	22	15961001	18861000	30	2899999	1.334	1.00
HT29_100vMiSeq_3_NoGC	22	21361002	28361004	71	7000002	1.334	1.00
HT29_100vMiSeq_3_NoGC	22	30261000	51161004	210	20900004	1.334	1.00
HT29_100vMiSeq_3_NoGC	23	56003	16055999	161	15999996	1.334	1.00
HT29_100vMiSeq_3_NoGC	23	23056001	41856000	189	18799999	1.334	1.00
HT29_100vMiSeq_3_NoGC	3	93449003	130448999	371	36999996	2.66	1.00
HT29_100vMiSeq_3_NoGC	3	167549004	176149002	87	8599998	2.66	1.00
HT29_100vMiSeq_3_NoGC	5	1871003	17671001	159	15799998	2.66	1.00
HT29_100vMiSeq_3_NoGC	5	31671000	45770999	142	14099999	2.66	1.00
HT29_100vMiSeq_3_NoGC	6	170755002	171055001	4	299999	2.66	1.00
HT29_100vMiSeq_3_NoGC	7	39000	7339001	74	7300001	2.66	1.00
HT29_100vMiSeq_3_NoGC	7	21339000	56439000	352	35100000	2.66	1.00
HT29_100vMiSeq_3_NoGC	7	64039001	148439004	845	84400003	2.66	1.00
HT29_100vMiSeq_3_NoGC	7	151639002	159038999	75	7399997	2.66	1.00
HT29_100vMiSeq_3_NoGC	8	0	100001	2	100001	2.66	1.00
HT29_100vMiSeq_3_NoGC	8	94399998	105300000	110	10900002	2.66	1.00
HT29_100vMiSeq_3_NoGC	10	133821000	135521003	18	1700003	2.66	1.00
HT29_100vMiSeq_3_NoGC	11	86004	134986002	1317	134899998	2.66	1.00
HT29_100vMiSeq_3_NoGC	12	79002	878999	9	799997	2.66	1.00
HT29_100vMiSeq_3_NoGC	12	25179000	33379002	83	8200002	2.66	1.00
HT29_100vMiSeq_3_NoGC	13	34027002	53327003	194	19300001	2.66	1.00
HT29_100vMiSeq_3_NoGC	13	94727003	109927002	153	15199999	2.66	1.00
HT29_100vMiSeq_3_NoGC	15	20207003	102506999	820	82299996	2.66	1.00
HT29_100vMiSeq_3_NoGC	16	75000	6274998	63	6199998	2.66	1.00
HT29_100vMiSeq_3_NoGC	17	25219998	32820000	77	7600002	2.66	1.00
HT29_100vMiSeq_3_NoGC	17	70820004	81119999	104	10299995	2.66	1.00
HT29_100vMiSeq_3_NoGC	18	24000	18424002	155	18400002	2.66	1.00
HT29_100vMiSeq_3_NoGC	19	27946002	32945999	51	4999997	2.66	1.00
HT29_100vMiSeq_3_NoGC	22	28461000	30161004	18	1700004	2.66	1.00
HT29_100vMiSeq_3_NoGC	23	148356000	155156003	69	6800003	2.66	1.00
HT29_100vMiSeq_3_NoGC	8	142700003	146300004	37	3600001	3.34	1.00
HT29_100vMiSeq_3_NoGC	9	66735000	67235003	6	500003	3.34	1.00
HT29_100vMiSeq_3_NoGC	13	72626999	76727003	42	4100004	3.34	1.00
HT29_100vMiSeq_3_NoGC	13	110027003	115027002	50	4999999	3.34	1.00
HT29_100vMiSeq_3_NoGC	17	63320003	66320003	31	3000000	3.34	1.00
HT29_100vMiSeq_3_NoGC	20	29816999	62917002	332	33100003	3.34	1.00
HT29_100vMiSeq_3_NoGC	22	18961002	21260999	24	2299997	3.34	1.00
HT29_100vMiSeq_3_NoGC	4	191126004	191126004	1	0	4	1.00
HT29_100vMiSeq_3_NoGC	5	70997	1771001	18	1700004	4	1.00
HT29_100vMiSeq_3_NoGC	7	148538999	151539000	31	3000001	4	1.00
HT29_100vMiSeq_3_NoGC	12	133779000	133779000	1	0	4	1.00
HT29_100vMiSeq_3_NoGC	13	18927000	26327004	75	7400004	4	1.00
HT29_100vMiSeq_3_NoGC	17	32920001	37020000	42	4099999	4	1.00
HT29_100vMiSeq_3_NoGC	19	33046002	59045999	261	25999997	4	1.00
HT29_100vMiSeq_3_NoGC	1	0	500004	6	500004	4.66	1.00
HT29_100vMiSeq_3_NoGC	13	26426999	33926999	76	7500000	4.66	1.00
HT29_100vMiSeq_3_NoGC	8	115200000	142600002	275	27400002	6.66	1.00
##Estimated cellularity:1.0
##Estimated ratio:1.027
##Version:2.0
