Sample	Chr	FirstProbe	LastProbe	NbSnp	length_bp	Type	Avg_certainty
HT29_100vF9_3_NoGC	3	79549001	89549003	11	10000002	0.666	1.00
HT29_100vF9_3_NoGC	2	242749002	242749002	1	0	1.334	1.00
HT29_100vF9_3_NoGC	3	548999	78548999	79	78000000	1.334	1.00
HT29_100vF9_3_NoGC	4	48526001	49526003	2	1000002	1.334	1.00
HT29_100vF9_3_NoGC	4	157526004	189526002	33	31999998	1.334	1.00
HT29_100vF9_3_NoGC	6	76455000	162455004	87	86000004	1.334	1.00
HT29_100vF9_3_NoGC	8	199998	41200001	42	41000003	1.334	1.00
HT29_100vF9_3_NoGC	8	105200003	106199999	2	999996	1.334	1.00
HT29_100vF9_3_NoGC	9	36835001	65835000	13	28999999	1.334	1.00
HT29_100vF9_3_NoGC	14	18057000	107057003	90	89000003	1.334	1.00
HT29_100vF9_3_NoGC	16	90175001	90175001	1	0	1.334	1.00
HT29_100vF9_3_NoGC	17	820001	24820002	23	24000001	1.334	1.00
HT29_100vF9_3_NoGC	18	17624003	77624004	61	60000001	1.334	1.00
HT29_100vF9_3_NoGC	19	545999	24546000	25	24000001	1.334	1.00
HT29_100vF9_3_NoGC	21	14390999	47390999	34	33000000	1.334	1.00
HT29_100vF9_3_NoGC	22	15260999	18261000	4	3000001	1.334	1.00
HT29_100vF9_3_NoGC	22	21260999	27260999	7	6000000	1.334	1.00
HT29_100vF9_3_NoGC	22	30261000	51261000	22	21000000	1.334	1.00
HT29_100vF9_3_NoGC	23	956003	14956001	15	13999998	1.334	1.00
HT29_100vF9_3_NoGC	23	22955999	40956000	19	18000001	1.334	1.00
HT29_100vF9_3_NoGC	23	57956004	60956004	2	3000000	1.334	1.00
HT29_100vF9_3_NoGC	3	92549004	129549000	38	36999996	2.66	1.00
HT29_100vF9_3_NoGC	3	164549004	175549001	12	10999997	2.66	1.00
HT29_100vF9_3_NoGC	4	190526003	190526003	1	0	2.66	1.00
HT29_100vF9_3_NoGC	5	371003	53371002	52	52999999	2.66	1.00
HT29_100vF9_3_NoGC	7	338999	6339000	7	6000001	2.66	1.00
HT29_100vF9_3_NoGC	7	21339000	56339003	36	35000003	2.66	1.00
HT29_100vF9_3_NoGC	7	63338999	158339003	96	95000004	2.66	1.00
HT29_100vF9_3_NoGC	8	47200001	104200002	58	57000001	2.66	1.00
HT29_100vF9_3_NoGC	8	107200002	114200003	8	7000001	2.66	1.00
HT29_100vF9_3_NoGC	8	143200001	145200000	3	1999999	2.66	1.00
HT29_100vF9_3_NoGC	10	133621002	134621003	2	1000001	2.66	1.00
HT29_100vF9_3_NoGC	11	86004	134086002	133	133999998	2.66	1.00
HT29_100vF9_3_NoGC	12	79002	79002	1	0	2.66	1.00
HT29_100vF9_3_NoGC	12	25079003	33079001	9	7999998	2.66	1.00
HT29_100vF9_3_NoGC	13	34226999	53227002	20	19000003	2.66	1.00
HT29_100vF9_3_NoGC	13	71227001	114227003	44	43000002	2.66	1.00
HT29_100vF9_3_NoGC	15	22706999	101707002	80	79000003	2.66	1.00
HT29_100vF9_3_NoGC	16	175001	2174999	3	1999998	2.66	1.00
HT29_100vF9_3_NoGC	17	25820003	37820004	13	12000001	2.66	1.00
HT29_100vF9_3_NoGC	17	62819999	65820000	4	3000001	2.66	1.00
HT29_100vF9_3_NoGC	17	78820002	80820000	3	1999998	2.66	1.00
HT29_100vF9_3_NoGC	18	623999	14624004	15	14000005	2.66	1.00
HT29_100vF9_3_NoGC	19	28546001	32546003	5	4000002	2.66	1.00
HT29_100vF9_3_NoGC	22	28261001	29261004	2	1000003	2.66	1.00
HT29_100vF9_3_NoGC	23	148956000	153956004	6	5000004	2.66	1.00
HT29_100vF9_3_NoGC	20	30416999	62417003	33	32000004	3.34	1.00
HT29_100vF9_3_NoGC	22	19261001	20261003	2	1000002	3.34	1.00
HT29_100vF9_3_NoGC	8	115200000	142200000	28	27000000	4	1.00
HT29_100vF9_3_NoGC	13	18227004	33227003	16	14999999	4	1.00
HT29_100vF9_3_NoGC	15	19707000	21707004	3	2000004	4	1.00
HT29_100vF9_3_NoGC	19	33546000	58546002	26	25000002	4	1.00
##Estimated cellularity:1.0
##Estimated ratio:1.0418259761325335
##Version:2.0
