Sample       Chr FirstProbe LastProbe   NbSnp  length_min    Type Avg_certainty
HT29_100vF4_3_NoGC        3 78548999 89549003      12  1.10e+07 0.333  1.00
HT29_100vF4_3_NoGC        2 242749002 242749002       1   0.00 0.667  1.00
HT29_100vF4_3_NoGC        3  548999 77549003      78  7.70e+07 0.667  1.00
HT29_100vF4_3_NoGC        4 157526004 189526002      33  3.20e+07 0.667  1.00
HT29_100vF4_3_NoGC        6 57455004 162455004     104  1.05e+08 0.667  1.00
HT29_100vF4_3_NoGC        8  199998 46199999      45  4.60e+07 0.667  1.00
HT29_100vF4_3_NoGC       14 18057000 107057003      90  8.90e+07 0.667  1.00
HT29_100vF4_3_NoGC       17 8819999 24820002      15  1.60e+07 0.667  1.00
HT29_100vF4_3_NoGC       17 66820002 69820001       4  3.00e+06 0.667  1.00
HT29_100vF4_3_NoGC       18 17624003 76624002      60  5.90e+07 0.667  1.00
HT29_100vF4_3_NoGC       21 9391002 47390999      37  3.80e+07 0.667  1.00
HT29_100vF4_3_NoGC       22 15260999 18261000       4  3.00e+06 0.667  1.00
HT29_100vF4_3_NoGC        X  956003 41956001      42  4.10e+07 0.667  1.00
HT29_100vF4_3_NoGC        1       0 33000000      34  3.30e+07  1.33  1.00
HT29_100vF4_3_NoGC        3 92549004 129549000      38  3.70e+07  1.33  1.00
HT29_100vF4_3_NoGC        4 190526003 190526003       1   0.00  1.33  1.00
HT29_100vF4_3_NoGC        5  371003 16371000      17  1.60e+07  1.33  1.00
HT29_100vF4_3_NoGC        7 21339000 146339003     124  1.25e+08  1.33  1.00
HT29_100vF4_3_NoGC        9 127835003 140835000      14  1.30e+07  1.33  1.00
HT29_100vF4_3_NoGC       10  620999  620999       1   0.00  1.33  1.00
HT29_100vF4_3_NoGC       11 3086004 47086001      45  4.40e+07  1.33  1.00
HT29_100vF4_3_NoGC       11 77086002 134086002      58  5.70e+07  1.33  1.00
HT29_100vF4_3_NoGC       12   79002   79002       1   0.00  1.33  1.00
HT29_100vF4_3_NoGC       13 34226999 52226999      19  1.80e+07  1.33  1.00
HT29_100vF4_3_NoGC       13 94227000 109226999      16  1.50e+07  1.33  1.00
HT29_100vF4_3_NoGC       15 19707000 101707002      83  8.20e+07  1.33  1.00
HT29_100vF4_3_NoGC       16  175001 4175004       5  4.00e+06  1.33  1.00
HT29_100vF4_3_NoGC       17 25820003 48820001      24  2.30e+07  1.33  1.00
HT29_100vF4_3_NoGC       17 70820004 80820000      11  1.00e+07  1.33  1.00
HT29_100vF4_3_NoGC       18  623999 14624004      15  1.40e+07  1.33  1.00
HT29_100vF4_3_NoGC        6 170455002 170455002       1   0.00  1.67  1.00
HT29_100vF4_3_NoGC        7  338999 6339000       7  6.00e+06  1.67  1.00
HT29_100vF4_3_NoGC        7 147339000 158339003      12  1.10e+07  1.67  1.00
HT29_100vF4_3_NoGC       11 57086003 76085999      20  1.90e+07  1.67  1.00
HT29_100vF4_3_NoGC       17 62819999 65820000       4  3.00e+06  1.67  1.00
HT29_100vF4_3_NoGC        X 151955999 153956004       3  2.00e+06  1.67  1.00
HT29_100vF4_3_NoGC        8 115200000 145200000      31  3.00e+07  2.00  1.00
HT29_100vF4_3_NoGC       10 133621002 134621003       2  1.00e+06  2.00  1.00
HT29_100vF4_3_NoGC       11   86004 2086002       3  2.00e+06  2.00  1.00
HT29_100vF4_3_NoGC       13 18227004 33227003      16  1.50e+07  2.00  1.00
HT29_100vF4_3_NoGC       13 110227002 114227003       5  4.00e+06  2.00  1.00
HT29_100vF4_3_NoGC       19 32546003 58546002      27  2.60e+07  2.00  1.00
HT29_100vF4_3_NoGC       20 30416999 62417003      33  3.20e+07  2.00  1.00
##Estimated cellularity:1.0
##Estimated ratio:1.0483142161974222
##Version:2.0
