Sample	Chr	FirstProbe	LastProbe	NbSnp	length_bp	Type	Avg_certainty
HT29_100vF4_3_NoGC	3	78548999	89549003	12	11000004	0.666	1.00
HT29_100vF4_3_NoGC	2	242749002	242749002	1	0	1.334	1.00
HT29_100vF4_3_NoGC	3	548999	77549003	78	77000004	1.334	1.00
HT29_100vF4_3_NoGC	4	157526004	189526002	33	31999998	1.334	1.00
HT29_100vF4_3_NoGC	6	57455004	162455004	104	105000000	1.334	1.00
HT29_100vF4_3_NoGC	8	199998	46199999	45	46000001	1.334	1.00
HT29_100vF4_3_NoGC	14	18057000	107057003	90	89000003	1.334	1.00
HT29_100vF4_3_NoGC	17	8819999	24820002	15	16000003	1.334	1.00
HT29_100vF4_3_NoGC	17	66820002	69820001	4	2999999	1.334	1.00
HT29_100vF4_3_NoGC	18	17624003	76624002	60	58999999	1.334	1.00
HT29_100vF4_3_NoGC	21	9391002	47390999	37	37999997	1.334	1.00
HT29_100vF4_3_NoGC	22	15260999	18261000	4	3000001	1.334	1.00
HT29_100vF4_3_NoGC	23	956003	41956001	42	40999998	1.334	1.00
HT29_100vF4_3_NoGC	1	0	33000000	34	33000000	2.66	1.00
HT29_100vF4_3_NoGC	3	92549004	129549000	38	36999996	2.66	1.00
HT29_100vF4_3_NoGC	4	190526003	190526003	1	0	2.66	1.00
HT29_100vF4_3_NoGC	5	371003	16371000	17	15999997	2.66	1.00
HT29_100vF4_3_NoGC	7	21339000	146339003	124	125000003	2.66	1.00
HT29_100vF4_3_NoGC	9	127835003	140835000	14	12999997	2.66	1.00
HT29_100vF4_3_NoGC	10	620999	620999	1	0	2.66	1.00
HT29_100vF4_3_NoGC	11	3086004	47086001	45	43999997	2.66	1.00
HT29_100vF4_3_NoGC	11	77086002	134086002	58	57000000	2.66	1.00
HT29_100vF4_3_NoGC	12	79002	79002	1	0	2.66	1.00
HT29_100vF4_3_NoGC	13	34226999	52226999	19	18000000	2.66	1.00
HT29_100vF4_3_NoGC	13	94227000	109226999	16	14999999	2.66	1.00
HT29_100vF4_3_NoGC	15	19707000	101707002	83	82000002	2.66	1.00
HT29_100vF4_3_NoGC	16	175001	4175004	5	4000003	2.66	1.00
HT29_100vF4_3_NoGC	17	25820003	48820001	24	22999998	2.66	1.00
HT29_100vF4_3_NoGC	17	70820004	80820000	11	9999996	2.66	1.00
HT29_100vF4_3_NoGC	18	623999	14624004	15	14000005	2.66	1.00
HT29_100vF4_3_NoGC	6	170455002	170455002	1	0	3.34	1.00
HT29_100vF4_3_NoGC	7	338999	6339000	7	6000001	3.34	1.00
HT29_100vF4_3_NoGC	7	147339000	158339003	12	11000003	3.34	1.00
HT29_100vF4_3_NoGC	11	57086003	76085999	20	18999996	3.34	1.00
HT29_100vF4_3_NoGC	17	62819999	65820000	4	3000001	3.34	1.00
HT29_100vF4_3_NoGC	23	151955999	153956004	3	2000005	3.34	1.00
HT29_100vF4_3_NoGC	8	115200000	145200000	31	30000000	4	1.00
HT29_100vF4_3_NoGC	10	133621002	134621003	2	1000001	4	1.00
HT29_100vF4_3_NoGC	11	86004	2086002	3	1999998	4	1.00
HT29_100vF4_3_NoGC	13	18227004	33227003	16	14999999	4	1.00
HT29_100vF4_3_NoGC	13	110227002	114227003	5	4000001	4	1.00
HT29_100vF4_3_NoGC	19	32546003	58546002	27	25999999	4	1.00
HT29_100vF4_3_NoGC	20	30416999	62417003	33	32000004	4	1.00
##Estimated cellularity:1.0
##Estimated ratio:1.0483142161974222
##Version:2.0
