Sample       Chr FirstProbe LastProbe   NbSnp  length_min    Type Avg_certainty
HT29_100vF1_3_NoGC        3 79448999 90449004     111  1.10e+07 0.333  1.00
HT29_100vF1_3_NoGC       16 6374999 6775002       5  4.00e+05 0.333  1.00
HT29_100vF1_3_NoGC        1 121300002 143100000       8  2.18e+07 0.667  1.00
HT29_100vF1_3_NoGC        3   49001 79349004     794  7.93e+07 0.667  1.00
HT29_100vF1_3_NoGC        4 157226003 191026002     339  3.38e+07 0.667  1.00
HT29_100vF1_3_NoGC        6 58655003 162755004    1012  1.04e+08 0.667  1.00
HT29_100vF1_3_NoGC        8       0 46800000     440  4.68e+07 0.667  1.00
HT29_100vF1_3_NoGC       10 42320999 42621000       4  3.00e+05 0.667  1.00
HT29_100vF1_3_NoGC       14 18957000 107257002     884  8.83e+07 0.667  1.00
HT29_100vF1_3_NoGC       15 19907004 20407001       6  5.00e+05 0.667  1.00
HT29_100vF1_3_NoGC       16 35174999 46375001       3  1.12e+07 0.667  1.00
HT29_100vF1_3_NoGC       17 3920004 25420001     187  2.15e+07 0.667  1.00
HT29_100vF1_3_NoGC       17 66520002 71020002      46  4.50e+06 0.667  1.00
HT29_100vF1_3_NoGC       18 18424002 76924002     586  5.85e+07 0.667  1.00
HT29_100vF1_3_NoGC       19 19946004 27845999      50  7.90e+06 0.667  1.00
HT29_100vF1_3_NoGC       21 9391002 48091001     357  3.87e+07 0.667  1.00
HT29_100vF1_3_NoGC       22 15961001 18861000      30  2.90e+06 0.667  1.00
HT29_100vF1_3_NoGC       22 31061004 51161004     202  2.01e+07 0.667  1.00
HT29_100vF1_3_NoGC        X  156000 42056003     420  4.19e+07 0.667  1.00
HT29_100vF1_3_NoGC        X 58456002 66956004      56  8.50e+06 0.667  1.00
HT29_100vF1_3_NoGC        3 93449003 130549001     372  3.71e+07  1.33  1.00
HT29_100vF1_3_NoGC        5 3071004 45770999     428  4.27e+07  1.33  1.00
HT29_100vF1_3_NoGC        7 21239003 56939003     358  3.57e+07  1.33  1.00
HT29_100vF1_3_NoGC        7 62739000 159038999     964  9.63e+07  1.33  1.00
HT29_100vF1_3_NoGC        8 46900001 104500001     576  5.76e+07  1.33  1.00
HT29_100vF1_3_NoGC       10 133621002 135521003      20  1.90e+06  1.33  1.00
HT29_100vF1_3_NoGC       11   86004 48586002     486  4.85e+07  1.33  1.00
HT29_100vF1_3_NoGC       11 77586000 134986002     574  5.74e+07  1.33  1.00
HT29_100vF1_3_NoGC       12   79002 3578999      36  3.50e+06  1.33  1.00
HT29_100vF1_3_NoGC       13 33926999 53827001     200  1.99e+07  1.33  1.00
HT29_100vF1_3_NoGC       13 71426999 110027003     387  3.86e+07  1.33  1.00
HT29_100vF1_3_NoGC       15 20507004 102506999     817  8.20e+07  1.33  1.00
HT29_100vF1_3_NoGC       16   75000 6274998      63  6.20e+06  1.33  1.00
HT29_100vF1_3_NoGC       17 25520004 49320000     239  2.38e+07  1.33  1.00
HT29_100vF1_3_NoGC       17 71120004 81119999     101  1.00e+07  1.33  1.00
HT29_100vF1_3_NoGC       18   24000 15323999     154  1.53e+07  1.33  1.00
HT29_100vF1_3_NoGC       19 27946002 32945999      51  5.00e+06  1.33  1.00
HT29_100vF1_3_NoGC        X 148556003 155156003      67  6.60e+06  1.33  1.00
HT29_100vF1_3_NoGC        6 171055001 171055001       1   0.00  1.67  1.00
HT29_100vF1_3_NoGC        7   39000 7339001      74  7.30e+06  1.67  1.00
HT29_100vF1_3_NoGC        8 142700003 146000004      34  3.30e+06  1.67  1.00
HT29_100vF1_3_NoGC       11 56885999 77486003     207  2.06e+07  1.67  1.00
HT29_100vF1_3_NoGC       13 110126999 115027002      49  4.90e+06  1.67  1.00
HT29_100vF1_3_NoGC       17 63320003 66419999      32  3.10e+06  1.67  1.00
HT29_100vF1_3_NoGC       20 29917002 62917002     331  3.30e+07  1.67  1.00
HT29_100vF1_3_NoGC        4 191126004 191126004       1   0.00  2.00  1.00
HT29_100vF1_3_NoGC        5   70997 2971002      30  2.90e+06  2.00  1.00
HT29_100vF1_3_NoGC       19 33046002 59045999     261  2.60e+07  2.00  1.00
HT29_100vF1_3_NoGC       22 18961002 20261003      14  1.30e+06  2.00  1.00
HT29_100vF1_3_NoGC       12 133779000 133779000       1   0.00  2.33  1.00
HT29_100vF1_3_NoGC       13 19027001 33827004     149  1.48e+07  2.33  1.00
HT29_100vF1_3_NoGC        8 115200000 142600002     275  2.74e+07  3.33  1.00
##Estimated cellularity:1.0
##Estimated ratio:1.026
##Version:2.0
