Sample       Chr FirstProbe LastProbe   NbSnp  length_min    Type Avg_certainty
HT29_100vMiSeq_3_NoGC        3 78548999 89549003      12  1.10e+07 0.333  1.00
HT29_100vMiSeq_3_NoGC        2 242749002 242749002       1   0.00 0.667  1.00
HT29_100vMiSeq_3_NoGC        3  548999 77549003      78  7.70e+07 0.667  1.00
HT29_100vMiSeq_3_NoGC        4 27526002 34526004       8  7.00e+06 0.667  1.00
HT29_100vMiSeq_3_NoGC        4 130526004 137526000       8  7.00e+06 0.667  1.00
HT29_100vMiSeq_3_NoGC        4 157526004 189526002      33  3.20e+07 0.667  1.00
HT29_100vMiSeq_3_NoGC        6 61455000 164455001     104  1.03e+08 0.667  1.00
HT29_100vMiSeq_3_NoGC        8  199998 46199999      45  4.60e+07 0.667  1.00
HT29_100vMiSeq_3_NoGC        8 105200003 106199999       2  1.00e+06 0.667  1.00
HT29_100vMiSeq_3_NoGC        9 36835001 64835004      12  2.80e+07 0.667  1.00
HT29_100vMiSeq_3_NoGC       14 18057000 107057003      90  8.90e+07 0.667  1.00
HT29_100vMiSeq_3_NoGC       17 1820003 21820001      21  2.00e+07 0.667  1.00
HT29_100vMiSeq_3_NoGC       17 66820002 69820001       4  3.00e+06 0.667  1.00
HT29_100vMiSeq_3_NoGC       18 18624000 77624004      60  5.90e+07 0.667  1.00
HT29_100vMiSeq_3_NoGC       19  545999 24546000      25  2.40e+07 0.667  1.00
HT29_100vMiSeq_3_NoGC       21 14390999 47390999      34  3.30e+07 0.667  1.00
HT29_100vMiSeq_3_NoGC       22 15260999 18261000       4  3.00e+06 0.667  1.00
HT29_100vMiSeq_3_NoGC       22 21260999 27260999       7  6.00e+06 0.667  1.00
HT29_100vMiSeq_3_NoGC       22 30261000 51261000      22  2.10e+07 0.667  1.00
HT29_100vMiSeq_3_NoGC        X  956003 14956001      15  1.40e+07 0.667  1.00
HT29_100vMiSeq_3_NoGC        X 22955999 40956000      19  1.80e+07 0.667  1.00
HT29_100vMiSeq_3_NoGC        3 92549004 129549000      38  3.70e+07  1.33  1.00
HT29_100vMiSeq_3_NoGC        4 190526003 190526003       1   0.00  1.33  1.00
HT29_100vMiSeq_3_NoGC        5  371003 17371002      18  1.70e+07  1.33  1.00
HT29_100vMiSeq_3_NoGC        5 31370999 44371002      14  1.30e+07  1.33  1.00
HT29_100vMiSeq_3_NoGC        6 170455002 170455002       1   0.00  1.33  1.00
HT29_100vMiSeq_3_NoGC        7  338999 6339000       7  6.00e+06  1.33  1.00
HT29_100vMiSeq_3_NoGC        7 21339000 56339003      36  3.50e+07  1.33  1.00
HT29_100vMiSeq_3_NoGC        7 64339002 158339003      95  9.40e+07  1.33  1.00
HT29_100vMiSeq_3_NoGC        8 94200000 104200002      11  1.00e+07  1.33  1.00
HT29_100vMiSeq_3_NoGC       10 133621002 134621003       2  1.00e+06  1.33  1.00
HT29_100vMiSeq_3_NoGC       11   86004 134086002     133  1.34e+08  1.33  1.00
HT29_100vMiSeq_3_NoGC       12   79002   79002       1   0.00  1.33  1.00
HT29_100vMiSeq_3_NoGC       12 25079003 32079000       8  7.00e+06  1.33  1.00
HT29_100vMiSeq_3_NoGC       13 34226999 52226999      19  1.80e+07  1.33  1.00
HT29_100vMiSeq_3_NoGC       13 72227004 76226999       5  4.00e+06  1.33  1.00
HT29_100vMiSeq_3_NoGC       13 94227000 109226999      16  1.50e+07  1.33  1.00
HT29_100vMiSeq_3_NoGC       15 19707000 101707002      83  8.20e+07  1.33  1.00
HT29_100vMiSeq_3_NoGC       16  175001 1175003       2  1.00e+06  1.33  1.00
HT29_100vMiSeq_3_NoGC       17 24820002 31820004       8  7.00e+06  1.33  1.00
HT29_100vMiSeq_3_NoGC       17 62819999 65820000       4  3.00e+06  1.33  1.00
HT29_100vMiSeq_3_NoGC       17 70820004 80820000      11  1.00e+07  1.33  1.00
HT29_100vMiSeq_3_NoGC       18  623999 17624003      16  1.70e+07  1.33  1.00
HT29_100vMiSeq_3_NoGC       19 28546001 32546003       5  4.00e+06  1.33  1.00
HT29_100vMiSeq_3_NoGC       22 28261001 29261004       2  1.00e+06  1.33  1.00
HT29_100vMiSeq_3_NoGC        X 147956004 153956004       7  6.00e+06  1.33  1.00
HT29_100vMiSeq_3_NoGC        8 143200001 145200000       3  2.00e+06  1.67  1.00
HT29_100vMiSeq_3_NoGC       13 110227002 114227003       5  4.00e+06  1.67  1.00
HT29_100vMiSeq_3_NoGC       17 32820000 37820004       6  5.00e+06  1.67  1.00
HT29_100vMiSeq_3_NoGC       20 29416998 62417003      34  3.30e+07  1.67  1.00
HT29_100vMiSeq_3_NoGC       22 19261001 20261003       2  1.00e+06  1.67  1.00
HT29_100vMiSeq_3_NoGC        8 115200000 142200000      28  2.70e+07  2.00  1.00
HT29_100vMiSeq_3_NoGC       13 18227004 33227003      16  1.50e+07  2.00  1.00
HT29_100vMiSeq_3_NoGC       19 33546000 58546002      26  2.50e+07  2.00  1.00
##Estimated cellularity:1.0
##Estimated ratio:1.0275750202757383
##Version:2.0
