Sample	Chr	FirstProbe	LastProbe	NbSnp	length_bp	Type	Avg_certainty
HT29_100vF5_3_NoGC	3	79299000	90299003	45	11000003	0.666	1.00
HT29_100vF5_3_NoGC	16	6175002	6674999	3	499997	0.666	1.00
HT29_100vF5_3_NoGC	3	49001	79049003	317	79000002	1.334	1.00
HT29_100vF5_3_NoGC	4	157276001	190775999	135	33499998	1.334	1.00
HT29_100vF5_3_NoGC	6	76705002	162704999	345	85999997	1.334	1.00
HT29_100vF5_3_NoGC	8	199998	46700003	176	46500005	1.334	1.00
HT29_100vF5_3_NoGC	14	18806999	107057003	354	88250004	1.334	1.00
HT29_100vF5_3_NoGC	15	19957001	19957001	1	0	1.334	1.00
HT29_100vF5_3_NoGC	17	4070004	25319999	75	21249995	1.334	1.00
HT29_100vF5_3_NoGC	17	66570000	70570002	17	4000002	1.334	1.00
HT29_100vF5_3_NoGC	18	15374003	77873999	240	62499996	1.334	1.00
HT29_100vF5_3_NoGC	19	20045999	27796001	21	7750002	1.334	1.00
HT29_100vF5_3_NoGC	21	9391002	47891003	144	38500001	1.334	1.00
HT29_100vF5_3_NoGC	22	16011000	18761004	12	2750004	1.334	1.00
HT29_100vF5_3_NoGC	22	21260999	51261000	121	30000001	1.334	1.00
HT29_100vF5_3_NoGC	23	206004	41705999	167	41499995	1.334	1.00
HT29_100vF5_3_NoGC	1	0	12000000	49	12000000	2.66	1.00
HT29_100vF5_3_NoGC	3	93299004	130299000	149	36999996	2.66	1.00
HT29_100vF5_3_NoGC	5	1871003	17621003	64	15750000	2.66	1.00
HT29_100vF5_3_NoGC	7	21089004	57339000	146	36249996	2.66	1.00
HT29_100vF5_3_NoGC	7	62589000	159089004	387	96500004	2.66	1.00
HT29_100vF5_3_NoGC	10	38621003	42121002	4	3499999	2.66	1.00
HT29_100vF5_3_NoGC	10	133621002	135371003	8	1750001	2.66	1.00
HT29_100vF5_3_NoGC	11	86004	48336000	194	48249996	2.66	1.00
HT29_100vF5_3_NoGC	11	76085999	134836001	236	58750002	2.66	1.00
HT29_100vF5_3_NoGC	12	79002	829001	4	749999	2.66	1.00
HT29_100vF5_3_NoGC	13	33977003	53227002	78	19249999	2.66	1.00
HT29_100vF5_3_NoGC	13	71477003	114977004	175	43500001	2.66	1.00
HT29_100vF5_3_NoGC	15	20207003	102457002	329	82249999	2.66	1.00
HT29_100vF5_3_NoGC	16	175001	5924999	24	5749998	2.66	1.00
HT29_100vF5_3_NoGC	17	25570001	49070003	95	23500002	2.66	1.00
HT29_100vF5_3_NoGC	17	70820004	81070002	42	10249998	2.66	1.00
HT29_100vF5_3_NoGC	18	124002	15124001	61	14999999	2.66	1.00
HT29_100vF5_3_NoGC	19	28046004	32796000	20	4749996	2.66	1.00
HT29_100vF5_3_NoGC	23	148456001	154955999	27	6499998	2.66	1.00
HT29_100vF5_3_NoGC	6	170954999	170954999	1	0	3.34	1.00
HT29_100vF5_3_NoGC	7	89003	7088999	29	6999996	3.34	1.00
HT29_100vF5_3_NoGC	11	58836000	75836003	69	17000003	3.34	1.00
HT29_100vF5_3_NoGC	17	63320003	66320003	13	3000000	3.34	1.00
HT29_100vF5_3_NoGC	20	29917002	62917002	133	33000000	3.34	1.00
HT29_100vF5_3_NoGC	4	191026002	191026002	1	0	4	1.00
HT29_100vF5_3_NoGC	5	121002	1621001	7	1499999	4	1.00
HT29_100vF5_3_NoGC	8	115200000	145949999	124	30749999	4	1.00
HT29_100vF5_3_NoGC	13	19227000	33727001	59	14500001	4	1.00
HT29_100vF5_3_NoGC	19	33046002	59045999	105	25999997	4	1.00
HT29_100vF5_3_NoGC	22	19010999	21011004	9	2000005	4	1.00
##Estimated cellularity:1.0
##Estimated ratio:1.0371763470958404
##Version:2.0
