HT29_20vF1_3_NoGC	1.0:1.2100000200000003E8	2	1.0
HT29_20vF1_3_NoGC	11.0:6.108600000000024E7	4	1.0
HT29_20vF1_3_NoGC	11.0:6.208600200000003E7	4	1.0
HT29_20vF1_3_NoGC	11.0:6.308600399999982E7	4	1.0
HT29_20vF1_3_NoGC	11.0:6.408600000000018E7	4	1.0
HT29_20vF1_3_NoGC	11.0:6.508600199999996E7	4	1.0
HT29_20vF1_3_NoGC	11.0:6.6086003999999754E7	4	1.0
HT29_20vF1_3_NoGC	11.0:6.708600000000011E7	4	1.0
HT29_20vF1_3_NoGC	11.0:6.80860019999999E7	4	1.0
HT29_20vF1_3_NoGC	11.0:6.908600400000022E7	4	1.0
HT29_20vF1_3_NoGC	11.0:7.008600000000004E7	4	1.0
HT29_20vF1_3_NoGC	11.0:7.108600199999984E7	4	1.0
HT29_20vF1_3_NoGC	11.0:7.208600400000016E7	4	1.0
HT29_20vF1_3_NoGC	11.0:7.308599999999999E7	4	1.0
HT29_20vF1_3_NoGC	11.0:7.408600199999978E7	4	1.0
HT29_20vF1_3_NoGC	11.0:7.508600400000009E7	4	1.0
HT29_20vF1_3_NoGC	11.0:7.608599999999993E7	4	1.0
HT29_20vF1_3_NoGC	12.0:1.3107900000000007E8	4	1.0
HT29_20vF1_3_NoGC	12.0:1.3207900199999987E8	4	1.0
HT29_20vF1_3_NoGC	12.0:1.330790040000002E8	4	1.0
HT29_20vF1_3_NoGC	13.0:1.8227004000000235E7	4	1.0
HT29_20vF1_3_NoGC	13.0:1.922700000000006E7	4	1.0
HT29_20vF1_3_NoGC	13.0:2.022700199999985E7	4	1.0
HT29_20vF1_3_NoGC	13.0:2.122700400000017E7	4	1.0
HT29_20vF1_3_NoGC	13.0:2.2226999999999996E7	4	1.0
HT29_20vF1_3_NoGC	13.0:2.3227001999999784E7	4	1.0
HT29_20vF1_3_NoGC	13.0:2.4227004000000108E7	4	1.0
HT29_20vF1_3_NoGC	13.0:2.5226999999999933E7	4	1.0
HT29_20vF1_3_NoGC	13.0:2.6227002000000253E7	4	1.0
HT29_20vF1_3_NoGC	13.0:2.7227004000000045E7	4	1.0
HT29_20vF1_3_NoGC	13.0:2.822699999999987E7	4	1.0
HT29_20vF1_3_NoGC	13.0:2.922700200000019E7	4	1.0
HT29_20vF1_3_NoGC	13.0:3.022700399999998E7	4	1.0
HT29_20vF1_3_NoGC	13.0:3.1226999999999806E7	4	1.0
HT29_20vF1_3_NoGC	13.0:3.2227002000000127E7	4	1.0
HT29_20vF1_3_NoGC	13.0:3.3227003999999914E7	4	1.0
HT29_20vF1_3_NoGC	13.0:3.422699999999974E7	4	1.0
HT29_20vF1_3_NoGC	13.0:3.522700200000006E7	4	1.0
HT29_20vF1_3_NoGC	13.0:3.622700399999985E7	4	1.0
HT29_20vF1_3_NoGC	19.0:2.854600199999986E7	4	1.0
HT29_20vF1_3_NoGC	19.0:2.9546004000000183E7	4	1.0
HT29_20vF1_3_NoGC	19.0:3.0546000000000007E7	4	1.0
HT29_20vF1_3_NoGC	19.0:3.1546002000000328E7	4	1.0
HT29_20vF1_3_NoGC	19.0:3.2546003999999583E7	4	1.0
HT29_20vF1_3_NoGC	19.0:3.3546000000000477E7	4	1.0
HT29_20vF1_3_NoGC	19.0:3.454600199999973E7	4	1.0
HT29_20vF1_3_NoGC	19.0:3.554600400000005E7	4	1.0
HT29_20vF1_3_NoGC	19.0:3.654599999999988E7	4	1.0
HT29_20vF1_3_NoGC	19.0:3.75460020000002E7	4	1.0
HT29_20vF1_3_NoGC	19.0:3.854600400000052E7	4	1.0
HT29_20vF1_3_NoGC	19.0:3.954600000000035E7	4	1.0
HT29_20vF1_3_NoGC	19.0:4.0546001999999605E7	4	1.0
HT29_20vF1_3_NoGC	19.0:4.1546003999999925E7	4	1.0
HT29_20vF1_3_NoGC	19.0:4.2545999999999754E7	4	1.0
HT29_20vF1_3_NoGC	19.0:4.3546002000000075E7	4	1.0
HT29_20vF1_3_NoGC	19.0:4.4546004000000395E7	4	1.0
HT29_20vF1_3_NoGC	19.0:4.5546000000000216E7	4	1.0
HT29_20vF1_3_NoGC	19.0:4.654600199999948E7	4	1.0
HT29_20vF1_3_NoGC	19.0:4.7545998000000365E7	4	1.0
HT29_20vF1_3_NoGC	19.0:4.854599999999962E7	4	1.0
HT29_20vF1_3_NoGC	19.0:4.954600199999995E7	4	1.0
HT29_20vF1_3_NoGC	19.0:5.054600400000027E7	4	1.0
HT29_20vF1_3_NoGC	19.0:5.154600000000009E7	4	1.0
HT29_20vF1_3_NoGC	19.0:5.254600200000042E7	4	1.0
HT29_20vF1_3_NoGC	19.0:5.354600399999967E7	4	1.0
HT29_20vF1_3_NoGC	19.0:5.454599999999949E7	4	1.0
HT29_20vF1_3_NoGC	19.0:5.5546001999999814E7	4	1.0
HT29_20vF1_3_NoGC	19.0:5.654600400000014E7	4	1.0
HT29_20vF1_3_NoGC	19.0:5.754599999999996E7	4	1.0
HT29_20vF1_3_NoGC	19.0:5.854600200000028E7	4	1.0
HT29_20vF1_3_NoGC	20.0:417000.0000002005	4	1.0
HT29_20vF1_3_NoGC	20.0:3.041699999999956E7	4	1.0
HT29_20vF1_3_NoGC	20.0:3.1417001999999885E7	4	1.0
HT29_20vF1_3_NoGC	20.0:3.2417004000000205E7	4	1.0
HT29_20vF1_3_NoGC	20.0:3.341700000000003E7	4	1.0
HT29_20vF1_3_NoGC	20.0:3.441700200000035E7	4	1.0
HT29_20vF1_3_NoGC	20.0:3.5417003999999605E7	4	1.0
HT29_20vF1_3_NoGC	20.0:3.64170000000005E7	4	1.0
HT29_20vF1_3_NoGC	20.0:3.7417001999999754E7	4	1.0
HT29_20vF1_3_NoGC	20.0:3.8417004000000075E7	4	1.0
HT29_20vF1_3_NoGC	20.0:3.94169999999999E7	4	1.0
HT29_20vF1_3_NoGC	20.0:4.041700200000022E7	4	1.0
HT29_20vF1_3_NoGC	20.0:4.141700399999948E7	4	1.0
HT29_20vF1_3_NoGC	20.0:4.241700000000037E7	4	1.0
HT29_20vF1_3_NoGC	20.0:4.341700199999963E7	4	1.0
HT29_20vF1_3_NoGC	20.0:4.441700399999995E7	4	1.0
HT29_20vF1_3_NoGC	20.0:4.541699999999978E7	4	1.0
HT29_20vF1_3_NoGC	20.0:4.64170020000001E7	4	1.0
HT29_20vF1_3_NoGC	20.0:4.741700400000042E7	4	1.0
HT29_20vF1_3_NoGC	20.0:4.8417000000000246E7	4	1.0
HT29_20vF1_3_NoGC	20.0:4.94170019999995E7	4	1.0
HT29_20vF1_3_NoGC	20.0:5.041699800000039E7	4	1.0
HT29_20vF1_3_NoGC	20.0:5.141699999999965E7	4	1.0
HT29_20vF1_3_NoGC	20.0:5.241700199999997E7	4	1.0
HT29_20vF1_3_NoGC	20.0:5.341700400000029E7	4	1.0
HT29_20vF1_3_NoGC	20.0:5.441700000000011E7	4	1.0
HT29_20vF1_3_NoGC	20.0:5.541700200000044E7	4	1.0
HT29_20vF1_3_NoGC	20.0:5.6417003999999695E7	4	1.0
HT29_20vF1_3_NoGC	20.0:5.7416999999999516E7	4	1.0
HT29_20vF1_3_NoGC	20.0:5.841700199999984E7	4	1.0
HT29_20vF1_3_NoGC	20.0:5.9417004000000164E7	4	1.0
HT29_20vF1_3_NoGC	20.0:6.0416999999999985E7	4	1.0
HT29_20vF1_3_NoGC	20.0:6.1417002000000305E7	4	1.0
HT29_20vF1_3_NoGC	20.0:6.241700399999957E7	4	1.0
HT29_20vF1_3_NoGC	8.0:1.152000000000001E8	5	1.0
HT29_20vF1_3_NoGC	8.0:1.162000019999999E8	5	1.0
HT29_20vF1_3_NoGC	8.0:1.1720000400000021E8	5	1.0
HT29_20vF1_3_NoGC	8.0:1.1820000000000004E8	5	1.0
HT29_20vF1_3_NoGC	8.0:1.1920000199999982E8	5	1.0
HT29_20vF1_3_NoGC	8.0:1.2020000400000015E8	5	1.0
HT29_20vF1_3_NoGC	8.0:1.2119999999999997E8	5	1.0
HT29_20vF1_3_NoGC	8.0:1.2220000199999976E8	5	1.0
HT29_20vF1_3_NoGC	8.0:1.2320000400000009E8	5	1.0
HT29_20vF1_3_NoGC	8.0:1.2419999999999991E8	5	1.0
HT29_20vF1_3_NoGC	8.0:1.2520000200000024E8	5	1.0
HT29_20vF1_3_NoGC	8.0:1.2619999800000006E8	5	1.0
HT29_20vF1_3_NoGC	8.0:1.2719999999999985E8	5	1.0
HT29_20vF1_3_NoGC	8.0:1.2820000200000016E8	5	1.0
HT29_20vF1_3_NoGC	8.0:1.2920000399999996E8	5	1.0
HT29_20vF1_3_NoGC	8.0:1.3019999999999978E8	5	1.0
HT29_20vF1_3_NoGC	8.0:1.312000020000001E8	5	1.0
HT29_20vF1_3_NoGC	8.0:1.322000039999999E8	5	1.0
HT29_20vF1_3_NoGC	8.0:1.3320000000000025E8	5	1.0
HT29_20vF1_3_NoGC	8.0:1.3420000200000004E8	5	1.0
HT29_20vF1_3_NoGC	8.0:1.3520000399999982E8	5	1.0
HT29_20vF1_3_NoGC	8.0:1.3620000000000018E8	5	1.0
HT29_20vF1_3_NoGC	8.0:1.3720000199999997E8	5	1.0
HT29_20vF1_3_NoGC	8.0:1.3820000399999976E8	5	1.0
HT29_20vF1_3_NoGC	8.0:1.3920000000000012E8	5	1.0
HT29_20vF1_3_NoGC	8.0:1.402000019999999E8	5	1.0
HT29_20vF1_3_NoGC	8.0:1.4120000400000024E8	5	1.0
HT29_20vF1_3_NoGC	8.0:1.4220000000000006E8	5	1.0
HT29_20vF1_3_NoGC	8.0:1.4320000199999985E8	5	1.0
HT29_20vF1_3_NoGC	8.0:1.4420000400000018E8	5	1.0
HT29_20vF1_3_NoGC	8.0:1.452E8	5	1.0
