Sample	Chr	FirstProbe	LastProbe	NbSnp	length_bp	Type	Avg_certainty
HT29_100vMiSeq_3_GC	3	59849004	60849000	11	999996	0.666	1.00
HT29_100vMiSeq_3_GC	3	79448999	90449004	111	11000005	0.666	1.00
HT29_100vMiSeq_3_GC	16	6374999	6775002	5	400003	0.666	1.00
HT29_100vMiSeq_3_GC	20	14517000	15716999	13	1199999	0.666	1.00
HT29_100vMiSeq_3_GC	3	149003	59749002	597	59599999	1.334	1.00
HT29_100vMiSeq_3_GC	3	60949002	79349004	185	18400002	1.334	1.00
HT29_100vMiSeq_3_GC	4	130526004	138226002	78	7699998	1.334	1.00
HT29_100vMiSeq_3_GC	4	157226003	190926000	338	33699997	1.334	1.00
HT29_100vMiSeq_3_GC	6	61855001	162755004	1010	100900003	1.334	1.00
HT29_100vMiSeq_3_GC	8	199998	43800000	437	43600002	1.334	1.00
HT29_100vMiSeq_3_GC	8	105400002	106900002	16	1500000	1.334	1.00
HT29_100vMiSeq_3_GC	9	36334998	47235000	110	10900002	1.334	1.00
HT29_100vMiSeq_3_GC	10	42320999	42421002	2	100003	1.334	1.00
HT29_100vMiSeq_3_GC	14	18957000	107156999	883	88199999	1.334	1.00
HT29_100vMiSeq_3_GC	17	1720001	22220004	206	20500003	1.334	1.00
HT29_100vMiSeq_3_GC	17	66419999	70720001	44	4300002	1.334	1.00
HT29_100vMiSeq_3_GC	18	18524003	78023999	596	59499996	1.334	1.00
HT29_100vMiSeq_3_GC	19	46002	24546000	246	24499998	1.334	1.00
HT29_100vMiSeq_3_GC	21	9391002	10591001	13	1199999	1.334	1.00
HT29_100vMiSeq_3_GC	21	14291004	47891003	337	33599999	1.334	1.00
HT29_100vMiSeq_3_GC	22	16061004	18861000	29	2799996	1.334	1.00
HT29_100vMiSeq_3_GC	22	21361002	28361004	71	7000002	1.334	1.00
HT29_100vMiSeq_3_GC	22	30261000	51261000	211	21000000	1.334	1.00
HT29_100vMiSeq_3_GC	23	56003	16055999	161	15999996	1.334	1.00
HT29_100vMiSeq_3_GC	23	23056001	41856000	189	18799999	1.334	1.00
HT29_100vMiSeq_3_GC	1	121500000	142400003	210	20900003	2.66	1.00
HT29_100vMiSeq_3_GC	2	92249003	95949000	38	3699997	2.66	1.00
HT29_100vMiSeq_3_GC	3	90548999	130448999	400	39900000	2.66	1.00
HT29_100vMiSeq_3_GC	3	167549004	176149002	87	8599998	2.66	1.00
HT29_100vMiSeq_3_GC	5	4271003	17671001	135	13399998	2.66	1.00
HT29_100vMiSeq_3_GC	5	31671000	54370997	228	22699997	2.66	1.00
HT29_100vMiSeq_3_GC	6	58855002	61754999	30	2899997	2.66	1.00
HT29_100vMiSeq_3_GC	7	39000	7339001	74	7300001	2.66	1.00
HT29_100vMiSeq_3_GC	7	21339000	159038999	1378	137699999	2.66	1.00
HT29_100vMiSeq_3_GC	8	0	100001	2	100001	2.66	1.00
HT29_100vMiSeq_3_GC	8	43900001	46700003	29	2800002	2.66	1.00
HT29_100vMiSeq_3_GC	8	94399998	105300000	110	10900002	2.66	1.00
HT29_100vMiSeq_3_GC	8	142700003	146300004	37	3600001	2.66	1.00
HT29_100vMiSeq_3_GC	9	47335001	67435002	202	20100001	2.66	1.00
HT29_100vMiSeq_3_GC	10	133821000	135521003	18	1700003	2.66	1.00
HT29_100vMiSeq_3_GC	11	86004	134986002	1350	134899998	2.66	1.00
HT29_100vMiSeq_3_GC	12	79002	878999	9	799997	2.66	1.00
HT29_100vMiSeq_3_GC	12	25179000	37679003	126	12500003	2.66	1.00
HT29_100vMiSeq_3_GC	12	133579002	133779000	3	199998	2.66	1.00
HT29_100vMiSeq_3_GC	13	27000	19027001	191	19000001	2.66	1.00
HT29_100vMiSeq_3_GC	13	34027002	53327003	194	19300001	2.66	1.00
HT29_100vMiSeq_3_GC	13	94727003	115127003	205	20400000	2.66	1.00
HT29_100vMiSeq_3_GC	14	56999	18857003	189	18800004	2.66	1.00
HT29_100vMiSeq_3_GC	14	107257002	107257002	1	0	2.66	1.00
HT29_100vMiSeq_3_GC	15	7002	102506999	1026	102499997	2.66	1.00
HT29_100vMiSeq_3_GC	16	75000	475001	5	400001	2.66	1.00
HT29_100vMiSeq_3_GC	16	35375004	46375001	111	10999997	2.66	1.00
HT29_100vMiSeq_3_GC	17	22320000	32820000	106	10500000	2.66	1.00
HT29_100vMiSeq_3_GC	17	70820004	81119999	104	10299995	2.66	1.00
HT29_100vMiSeq_3_GC	18	24000	18424002	185	18400002	2.66	1.00
HT29_100vMiSeq_3_GC	19	24646002	27545999	30	2899997	2.66	1.00
HT29_100vMiSeq_3_GC	19	28246001	32945999	48	4699998	2.66	1.00
HT29_100vMiSeq_3_GC	20	24617004	29717004	52	5100000	2.66	1.00
HT29_100vMiSeq_3_GC	20	63017004	63017004	1	0	2.66	1.00
HT29_100vMiSeq_3_GC	21	91001	9290999	93	9199998	2.66	1.00
HT29_100vMiSeq_3_GC	21	10691003	14191001	36	3499998	2.66	1.00
HT29_100vMiSeq_3_GC	21	47991000	48091001	2	100001	2.66	1.00
HT29_100vMiSeq_3_GC	22	61001	15961001	160	15900000	2.66	1.00
HT29_100vMiSeq_3_GC	22	28461000	30161004	18	1700004	2.66	1.00
HT29_100vMiSeq_3_GC	23	147956004	155156003	73	7199999	2.66	1.00
HT29_100vMiSeq_3_GC	4	191026002	191126004	2	100002	3.34	1.00
HT29_100vMiSeq_3_GC	5	70997	4171001	42	4100004	3.34	1.00
HT29_100vMiSeq_3_GC	10	39020999	42221003	33	3200004	3.34	1.00
HT29_100vMiSeq_3_GC	13	72626999	76727003	42	4100004	3.34	1.00
HT29_100vMiSeq_3_GC	17	63320003	66320003	31	3000000	3.34	1.00
HT29_100vMiSeq_3_GC	20	29816999	62917002	332	33100003	3.34	1.00
HT29_100vMiSeq_3_GC	22	18961002	21260999	24	2299997	3.34	1.00
HT29_100vMiSeq_3_GC	1	0	500004	6	500004	4	1.00
HT29_100vMiSeq_3_GC	13	19127003	26327004	73	7200001	4	1.00
HT29_100vMiSeq_3_GC	17	32920001	37020000	42	4099999	4	1.00
HT29_100vMiSeq_3_GC	19	33046002	59045999	261	25999997	4	1.00
HT29_100vMiSeq_3_GC	13	26426999	33926999	76	7500000	4.66	1.00
HT29_100vMiSeq_3_GC	8	115200000	142600002	275	27400002	6.66	1.00
##Estimated cellularity:1.0
##Estimated ratio:1.048
##Version:2.0
