Sample	Chr	FirstProbe	LastProbe	NbSnp	length_bp	Type	Avg_certainty
HT29_100vF6_3_NoGC	3	79448999	90449004	111	11000005	1	1.00
HT29_100vF6_3_NoGC	16	6374999	6775002	5	400003	1	1.00
HT29_100vF6_3_NoGC	3	149003	79349004	793	79200001	2	1.00
HT29_100vF6_3_NoGC	4	157126001	190625999	336	33499998	2	1.00
HT29_100vF6_3_NoGC	6	76855001	162555000	858	85699999	2	1.00
HT29_100vF6_3_NoGC	8	199998	42800003	427	42600005	2	1.00
HT29_100vF6_3_NoGC	8	43200000	46800000	8	3600000	2	1.00
HT29_100vF6_3_NoGC	8	105400002	107099999	18	1699997	2	1.00
HT29_100vF6_3_NoGC	9	36434999	67034999	126	30600000	2	1.00
HT29_100vF6_3_NoGC	10	42320999	42521003	3	200004	2	1.00
HT29_100vF6_3_NoGC	14	18957000	107257002	884	88300002	2	1.00
HT29_100vF6_3_NoGC	15	19907004	19907004	1	0	2	1.00
HT29_100vF6_3_NoGC	17	8320002	25219998	141	16899996	2	1.00
HT29_100vF6_3_NoGC	17	66520002	71020002	46	4500000	2	1.00
HT29_100vF6_3_NoGC	18	18524003	77923998	595	59399995	2	1.00
HT29_100vF6_3_NoGC	21	14591004	48091001	336	33499997	2	1.00
HT29_100vF6_3_NoGC	22	15961001	18861000	30	2899999	2	1.00
HT29_100vF6_3_NoGC	22	21361002	28361004	71	7000002	2	1.00
HT29_100vF6_3_NoGC	22	30361002	51161004	209	20800002	2	1.00
HT29_100vF6_3_NoGC	23	56003	15956003	160	15900000	2	1.00
HT29_100vF6_3_NoGC	23	23056001	41856000	189	18799999	2	1.00
HT29_100vF6_3_NoGC	23	58556003	61655999	2	3099996	2	1.00
HT29_100vF6_3_NoGC	3	93449003	130448999	371	36999996	4	1.00
HT29_100vF6_3_NoGC	4	190726001	191126004	5	400003	4	1.00
HT29_100vF6_3_NoGC	5	70997	54370997	515	54300000	4	1.00
HT29_100vF6_3_NoGC	7	21239003	159038999	1350	137799996	4	1.00
HT29_100vF6_3_NoGC	8	0	100001	2	100001	4	1.00
HT29_100vF6_3_NoGC	8	46900001	105300000	584	58399999	4	1.00
HT29_100vF6_3_NoGC	8	107200002	115100003	80	7900001	4	1.00
HT29_100vF6_3_NoGC	10	133921001	135521003	17	1600002	4	1.00
HT29_100vF6_3_NoGC	11	86004	48586002	486	48499998	4	1.00
HT29_100vF6_3_NoGC	11	55085999	134986002	799	79900003	4	1.00
HT29_100vF6_3_NoGC	12	22579001	34478999	120	11899998	4	1.00
HT29_100vF6_3_NoGC	13	33926999	53827001	200	19900002	4	1.00
HT29_100vF6_3_NoGC	13	71426999	115027002	436	43600003	4	1.00
HT29_100vF6_3_NoGC	15	20006999	102506999	822	82500000	4	1.00
HT29_100vF6_3_NoGC	16	75000	6274998	63	6199998	4	1.00
HT29_100vF6_3_NoGC	17	25319999	49019999	238	23700000	4	1.00
HT29_100vF6_3_NoGC	17	71120004	81119999	101	9999995	4	1.00
HT29_100vF6_3_NoGC	18	24000	15323999	154	15299999	4	1.00
HT29_100vF6_3_NoGC	19	27946002	32945999	51	4999997	4	1.00
HT29_100vF6_3_NoGC	22	28461000	30261000	19	1800000	4	1.00
HT29_100vF6_3_NoGC	23	147956004	155156003	73	7199999	4	1.00
HT29_100vF6_3_NoGC	6	171055001	171055001	1	0	5	1.00
HT29_100vF6_3_NoGC	7	39000	7239000	73	7200000	5	1.00
HT29_100vF6_3_NoGC	8	142700003	146300004	37	3600001	5	1.00
HT29_100vF6_3_NoGC	17	62920001	66419999	36	3499998	5	1.00
HT29_100vF6_3_NoGC	20	29917002	62917002	331	33000000	5	1.00
HT29_100vF6_3_NoGC	22	18961002	21260999	24	2299997	5	1.00
HT29_100vF6_3_NoGC	19	33046002	59045999	261	25999997	6	1.00
HT29_100vF6_3_NoGC	13	19127003	33827004	148	14700001	7	1.00
HT29_100vF6_3_NoGC	8	115200000	142600002	275	27400002	10	1.00
##Estimated cellularity:1.0
##Estimated ratio:1.045
##Version:2.0
