Sample	Chr	FirstProbe	LastProbe	NbSnp	length_bp	Type	Avg_certainty
HT29_100vF5_3_NoGC	3	79448999	90449004	111	11000005	0.666	1.00
HT29_100vF5_3_NoGC	16	6374999	6875004	6	500005	0.666	1.00
HT29_100vF5_3_NoGC	3	149003	79349004	793	79200001	1.334	1.00
HT29_100vF5_3_NoGC	4	157126001	191026002	340	33900001	1.334	1.00
HT29_100vF5_3_NoGC	6	76855001	162755004	860	85900003	1.334	1.00
HT29_100vF5_3_NoGC	8	199998	46800000	438	46600002	1.334	1.00
HT29_100vF5_3_NoGC	10	42320999	42521003	3	200004	1.334	1.00
HT29_100vF5_3_NoGC	14	18957000	107257002	884	88300002	1.334	1.00
HT29_100vF5_3_NoGC	15	19907004	20107002	3	199998	1.334	1.00
HT29_100vF5_3_NoGC	17	8420003	25420001	142	16999998	1.334	1.00
HT29_100vF5_3_NoGC	17	66520002	70720001	43	4199999	1.334	1.00
HT29_100vF5_3_NoGC	18	15323999	77324004	591	62000005	1.334	1.00
HT29_100vF5_3_NoGC	21	9391002	48091001	357	38699999	1.334	1.00
HT29_100vF5_3_NoGC	22	15961001	18861000	30	2899999	1.334	1.00
HT29_100vF5_3_NoGC	23	656004	41856000	413	41199996	1.334	1.00
HT29_100vF5_3_NoGC	1	0	33700001	336	33700001	2.66	1.00
HT29_100vF5_3_NoGC	3	93449003	130549001	372	37099998	2.66	1.00
HT29_100vF5_3_NoGC	5	2971002	45770999	429	42799997	2.66	1.00
HT29_100vF5_3_NoGC	7	21139001	57439002	364	36300001	2.66	1.00
HT29_100vF5_3_NoGC	7	62438999	147639000	853	85200001	2.66	1.00
HT29_100vF5_3_NoGC	8	46900001	104600003	577	57700002	2.66	1.00
HT29_100vF5_3_NoGC	10	133621002	135521003	20	1900001	2.66	1.00
HT29_100vF5_3_NoGC	11	86004	48586002	486	48499998	2.66	1.00
HT29_100vF5_3_NoGC	11	76486002	134986002	585	58500000	2.66	1.00
HT29_100vF5_3_NoGC	12	79002	878999	9	799997	2.66	1.00
HT29_100vF5_3_NoGC	13	33926999	53426999	196	19500000	2.66	1.00
HT29_100vF5_3_NoGC	13	71426999	110027003	387	38600004	2.66	1.00
HT29_100vF5_3_NoGC	15	20207003	102506999	820	82299996	2.66	1.00
HT29_100vF5_3_NoGC	16	75000	6274998	63	6199998	2.66	1.00
HT29_100vF5_3_NoGC	17	25520004	49220004	238	23700000	2.66	1.00
HT29_100vF5_3_NoGC	17	70820004	81119999	104	10299995	2.66	1.00
HT29_100vF5_3_NoGC	18	24000	15223998	153	15199998	2.66	1.00
HT29_100vF5_3_NoGC	19	28146000	33246000	52	5100000	2.66	1.00
HT29_100vF5_3_NoGC	23	148056000	155156003	72	7100003	2.66	1.00
HT29_100vF5_3_NoGC	6	170755002	171055001	4	299999	3.34	1.00
HT29_100vF5_3_NoGC	7	39000	7239000	73	7200000	3.34	1.00
HT29_100vF5_3_NoGC	7	147739001	159038999	114	11299998	3.34	1.00
HT29_100vF5_3_NoGC	8	0	100001	2	100001	3.34	1.00
HT29_100vF5_3_NoGC	8	142700003	146100000	35	3399997	3.34	1.00
HT29_100vF5_3_NoGC	10	39020999	39121002	2	100003	3.34	1.00
HT29_100vF5_3_NoGC	11	56885999	76385999	196	19500000	3.34	1.00
HT29_100vF5_3_NoGC	13	110126999	115027002	49	4900003	3.34	1.00
HT29_100vF5_3_NoGC	17	63320003	66419999	32	3099996	3.34	1.00
HT29_100vF5_3_NoGC	20	29917002	60116999	303	30199997	3.34	1.00
HT29_100vF5_3_NoGC	4	191126004	191126004	1	0	4	1.00
HT29_100vF5_3_NoGC	5	70997	2871000	29	2800003	4	1.00
HT29_100vF5_3_NoGC	22	18961002	21260999	24	2299997	4	1.00
HT29_100vF5_3_NoGC	13	19127003	33827004	148	14700001	4.66	1.00
HT29_100vF5_3_NoGC	19	33346002	59045999	258	25699997	4.66	1.00
HT29_100vF5_3_NoGC	20	60217001	62917002	28	2700001	4.66	1.00
HT29_100vF5_3_NoGC	8	115200000	142600002	275	27400002	6.66	1.00
##Estimated cellularity:1.0
##Estimated ratio:1.036
##Version:2.0
