Sample	Chr	FirstProbe	LastProbe	NbSnp	length_bp	Type	Avg_certainty
HT29_100vF4_3_NoGC	3	79448999	90449004	111	11000005	0.666	1.00
HT29_100vF4_3_NoGC	16	6374999	6775002	5	400003	0.666	1.00
HT29_100vF4_3_NoGC	3	49001	79349004	794	79300003	1.334	1.00
HT29_100vF4_3_NoGC	4	157126001	190826004	338	33700003	1.334	1.00
HT29_100vF4_3_NoGC	6	76855001	162755004	860	85900003	1.334	1.00
HT29_100vF4_3_NoGC	8	0	46800000	440	46800000	1.334	1.00
HT29_100vF4_3_NoGC	14	18957000	99457002	806	80500002	1.334	1.00
HT29_100vF4_3_NoGC	17	8420003	25420001	142	16999998	1.334	1.00
HT29_100vF4_3_NoGC	18	18424002	76924002	586	58500000	1.334	1.00
HT29_100vF4_3_NoGC	21	9391002	48091001	357	38699999	1.334	1.00
HT29_100vF4_3_NoGC	22	15961001	18861000	30	2899999	1.334	1.00
HT29_100vF4_3_NoGC	23	2255999	16055999	139	13800000	1.334	1.00
HT29_100vF4_3_NoGC	23	23056001	42056003	191	19000002	1.334	1.00
HT29_100vF4_3_NoGC	1	0	47800002	477	47800002	2.66	1.00
HT29_100vF4_3_NoGC	3	93449003	130549001	372	37099998	2.66	1.00
HT29_100vF4_3_NoGC	5	2971002	54370997	486	51399995	2.66	1.00
HT29_100vF4_3_NoGC	7	21339000	147639000	1234	126300000	2.66	1.00
HT29_100vF4_3_NoGC	8	46900001	104400000	575	57499999	2.66	1.00
HT29_100vF4_3_NoGC	9	126035003	141134999	152	15099996	2.66	1.00
HT29_100vF4_3_NoGC	10	20999	6520998	66	6499999	2.66	1.00
HT29_100vF4_3_NoGC	11	3986004	48586002	447	44599998	2.66	1.00
HT29_100vF4_3_NoGC	11	77386002	134986002	576	57600000	2.66	1.00
HT29_100vF4_3_NoGC	12	79002	7279001	73	7199999	2.66	1.00
HT29_100vF4_3_NoGC	13	33727001	53627003	200	19900002	2.66	1.00
HT29_100vF4_3_NoGC	13	71426999	110227002	389	38800003	2.66	1.00
HT29_100vF4_3_NoGC	15	20207003	102506999	820	82299996	2.66	1.00
HT29_100vF4_3_NoGC	16	75000	6274998	63	6199998	2.66	1.00
HT29_100vF4_3_NoGC	17	25520004	81119999	557	55599995	2.66	1.00
HT29_100vF4_3_NoGC	18	24000	15323999	154	15299999	2.66	1.00
HT29_100vF4_3_NoGC	19	28146000	33246000	52	5100000	2.66	1.00
HT29_100vF4_3_NoGC	23	148156002	155156003	71	7000001	2.66	1.00
HT29_100vF4_3_NoGC	6	171055001	171055001	1	0	3.34	1.00
HT29_100vF4_3_NoGC	7	39000	7139004	72	7100004	3.34	1.00
HT29_100vF4_3_NoGC	7	147739001	159038999	114	11299998	3.34	1.00
HT29_100vF4_3_NoGC	11	56885999	77285999	205	20400000	3.34	1.00
HT29_100vF4_3_NoGC	4	190926000	191126004	3	200004	4	1.00
HT29_100vF4_3_NoGC	5	70997	2871000	29	2800003	4	1.00
HT29_100vF4_3_NoGC	8	142700003	146300004	37	3600001	4	1.00
HT29_100vF4_3_NoGC	10	133921001	135521003	17	1600002	4	1.00
HT29_100vF4_3_NoGC	11	86004	3886001	39	3799997	4	1.00
HT29_100vF4_3_NoGC	13	110327003	115027002	47	4699999	4	1.00
HT29_100vF4_3_NoGC	20	29917002	62917002	331	33000000	4	1.00
HT29_100vF4_3_NoGC	12	133779000	133779000	1	0	4.66	1.00
HT29_100vF4_3_NoGC	13	19027001	33627000	147	14599999	4.66	1.00
HT29_100vF4_3_NoGC	19	33346002	59045999	258	25699997	4.66	1.00
HT29_100vF4_3_NoGC	22	18961002	20261003	14	1300001	4.66	1.00
HT29_100vF4_3_NoGC	8	115200000	142600002	275	27400002	6.66	1.00
##Estimated cellularity:1.0
##Estimated ratio:1.063
##Version:2.0
