Sample       Chr FirstProbe LastProbe   NbSnp  length_min    Type Avg_certainty
HT29_50vMiSeq_2_NoGC        3 79549001 89549003      11  1.00e+07  0.00  1.00
HT29_50vMiSeq_2_NoGC        3  548999 78548999      79  7.80e+07 0.500  1.00
HT29_50vMiSeq_2_NoGC        4 130526004 189526002      60  5.90e+07 0.500  1.00
HT29_50vMiSeq_2_NoGC        6 61455000 166455000     106  1.05e+08 0.500  1.00
HT29_50vMiSeq_2_NoGC        8  199998 46199999      45  4.60e+07 0.500  1.00
HT29_50vMiSeq_2_NoGC       14 18057000 107057003      90  8.90e+07 0.500  1.00
HT29_50vMiSeq_2_NoGC       17 7819998 21820001      15  1.40e+07 0.500  1.00
HT29_50vMiSeq_2_NoGC       18 18624000 76624002      59  5.80e+07 0.500  1.00
HT29_50vMiSeq_2_NoGC       21 14390999 41390999      28  2.70e+07 0.500  1.00
HT29_50vMiSeq_2_NoGC        X 1955999 40956000      40  3.90e+07 0.500  1.00
HT29_50vMiSeq_2_NoGC        3 118549001 128549003      11  1.00e+07  1.50  1.00
HT29_50vMiSeq_2_NoGC        4 190526003 190526003       1   0.00  1.50  1.00
HT29_50vMiSeq_2_NoGC        5  371003 3371003       4  3.00e+06  1.50  1.00
HT29_50vMiSeq_2_NoGC        6 167455002 170455002       4  3.00e+06  1.50  1.00
HT29_50vMiSeq_2_NoGC        7  338999 6339000       7  6.00e+06  1.50  1.00
HT29_50vMiSeq_2_NoGC        7 22339002 47339003      26  2.50e+07  1.50  1.00
HT29_50vMiSeq_2_NoGC        7 127339001 158339003      32  3.10e+07  1.50  1.00
HT29_50vMiSeq_2_NoGC       10 133621002 134621003       2  1.00e+06  1.50  1.00
HT29_50vMiSeq_2_NoGC       11   86004 19086000      20  1.90e+07  1.50  1.00
HT29_50vMiSeq_2_NoGC       11 43086000 78086004      34  3.50e+07  1.50  1.00
HT29_50vMiSeq_2_NoGC       11 107086002 134086002      28  2.70e+07  1.50  1.00
HT29_50vMiSeq_2_NoGC       12   79002   79002       1   0.00  1.50  1.00
HT29_50vMiSeq_2_NoGC       13 34226999 52226999      19  1.80e+07  1.50  1.00
HT29_50vMiSeq_2_NoGC       13 95227001 114227003      20  1.90e+07  1.50  1.00
HT29_50vMiSeq_2_NoGC       15 19707000 101707002      83  8.20e+07  1.50  1.00
HT29_50vMiSeq_2_NoGC       16  175001 4175004       5  4.00e+06  1.50  1.00
HT29_50vMiSeq_2_NoGC       17 24820002 40820003      17  1.60e+07  1.50  1.00
HT29_50vMiSeq_2_NoGC       17 70820004 80820000      11  1.00e+07  1.50  1.00
HT29_50vMiSeq_2_NoGC       18  623999 17624003      16  1.70e+07  1.50  1.00
HT29_50vMiSeq_2_NoGC        X 147956004 153956004       7  6.00e+06  1.50  1.00
HT29_50vMiSeq_2_NoGC        8 115200000 145200000      31  3.00e+07  2.00  1.00
HT29_50vMiSeq_2_NoGC       13 18227004 33227003      16  1.50e+07  2.00  1.00
HT29_50vMiSeq_2_NoGC       19 29546004 58546002      30  2.90e+07  2.00  1.00
HT29_50vMiSeq_2_NoGC       20 29416998 62417003      34  3.30e+07  2.00  1.00
##Estimated cellularity:0.507
##Estimated ratio:1.0050399721932568
##Version:2.0
