Sample       Chr FirstProbe LastProbe   NbSnp  length_min    Type Avg_certainty
HT29_100vF2_3_NoGC        3 79549001 89549003      11  1.00e+07 0.333  1.00
HT29_100vF2_3_NoGC        2 242749002 242749002       1   0.00 0.667  1.00
HT29_100vF2_3_NoGC        3  548999 78548999      79  7.80e+07 0.667  1.00
HT29_100vF2_3_NoGC        4 48526001 49526003       2  1.00e+06 0.667  1.00
HT29_100vF2_3_NoGC        4 157526004 189526002      33  3.20e+07 0.667  1.00
HT29_100vF2_3_NoGC        6 77455002 161455001      85  8.40e+07 0.667  1.00
HT29_100vF2_3_NoGC        8  199998 46199999      45  4.60e+07 0.667  1.00
HT29_100vF2_3_NoGC       14 18057000 107057003      90  8.90e+07 0.667  1.00
HT29_100vF2_3_NoGC       16 90175001 90175001       1   0.00 0.667  1.00
HT29_100vF2_3_NoGC       17  820001 24820002      23  2.40e+07 0.667  1.00
HT29_100vF2_3_NoGC       18 17624003 77624004      61  6.00e+07 0.667  1.00
HT29_100vF2_3_NoGC       19  545999 24546000      25  2.40e+07 0.667  1.00
HT29_100vF2_3_NoGC       21 9391002 47390999      37  3.80e+07 0.667  1.00
HT29_100vF2_3_NoGC       22 15260999 18261000       4  3.00e+06 0.667  1.00
HT29_100vF2_3_NoGC       22 21260999 51261000      31  3.00e+07 0.667  1.00
HT29_100vF2_3_NoGC        X  956003 40956000      41  4.00e+07 0.667  1.00
HT29_100vF2_3_NoGC        3 92549004 129549000      38  3.70e+07  1.33  1.00
HT29_100vF2_3_NoGC        3 162549000 175549001      14  1.30e+07  1.33  1.00
HT29_100vF2_3_NoGC        4 190526003 190526003       1   0.00  1.33  1.00
HT29_100vF2_3_NoGC        5  371003 53371002      52  5.30e+07  1.33  1.00
HT29_100vF2_3_NoGC        7 21339000 158339003     136  1.37e+08  1.33  1.00
HT29_100vF2_3_NoGC        8 47200001 114200003      68  6.70e+07  1.33  1.00
HT29_100vF2_3_NoGC       11   86004 134086002     133  1.34e+08  1.33  1.00
HT29_100vF2_3_NoGC       13 35227002 114227003      80  7.90e+07  1.33  1.00
HT29_100vF2_3_NoGC       15 19707000 101707002      83  8.20e+07  1.33  1.00
HT29_100vF2_3_NoGC       17 25820003 37820004      13  1.20e+07  1.33  1.00
HT29_100vF2_3_NoGC       18  623999 14624004      15  1.40e+07  1.33  1.00
HT29_100vF2_3_NoGC       19 27545999 32546003       6  5.00e+06  1.33  1.00
HT29_100vF2_3_NoGC       19 33546000 58546002      26  2.50e+07  1.67  1.00
HT29_100vF2_3_NoGC       20 30416999 62417003      33  3.20e+07  1.67  1.00
HT29_100vF2_3_NoGC       22 19261001 20261003       2  1.00e+06  1.67  1.00
HT29_100vF2_3_NoGC        8 115200000 142200000      28  2.70e+07  2.00  1.00
HT29_100vF2_3_NoGC       13 18227004 34226999      17  1.60e+07  2.00  1.00
##Estimated cellularity:1.0
##Estimated ratio:1.0369597960838701
##Version:2.0
