Sample       Chr FirstProbe LastProbe   NbSnp  length_min    Type Avg_certainty
HT29_00vMiSeq_2_NoGC        1 102000000 107000004       6  5.00e+06  0.00  1.00
HT29_00vMiSeq_2_NoGC        1 186000000 199000002      14  1.30e+07  0.00  1.00
HT29_00vMiSeq_2_NoGC        3 76549002 86549004      11  1.00e+07  0.00  1.00
HT29_00vMiSeq_2_NoGC        4 130526004 137526000       8  7.00e+06  0.00  1.00
HT29_00vMiSeq_2_NoGC        5 18371004 29371002      12  1.10e+07  0.00  1.00
HT29_00vMiSeq_2_NoGC       13 54227004 72227004      19  1.80e+07  0.00  1.00
HT29_00vMiSeq_2_NoGC       13 81227003 90227003      10  9.00e+06  0.00  1.00
HT29_00vMiSeq_2_NoGC        1 65999999 101000004      36  3.50e+07 0.500  1.00
HT29_00vMiSeq_2_NoGC        2 31749000 40748999      10  9.00e+06 0.500  1.00
HT29_00vMiSeq_2_NoGC        2 49749000 58748999      10  9.00e+06 0.500  1.00
HT29_00vMiSeq_2_NoGC        2 75749004 83749002       9  8.00e+06 0.500  1.00
HT29_00vMiSeq_2_NoGC        2 137749001 215749002      79  7.80e+07 0.500  1.00
HT29_00vMiSeq_2_NoGC        2 242749002 242749002       1   0.00 0.500  1.00
HT29_00vMiSeq_2_NoGC        3  548999 7549002       8  7.00e+06 0.500  1.00
HT29_00vMiSeq_2_NoGC        3 15548999 35549003      21  2.00e+07 0.500  1.00
HT29_00vMiSeq_2_NoGC        3 87549000 120548999      32  3.30e+07 0.500  1.00
HT29_00vMiSeq_2_NoGC        3 143549004 181549001      39  3.80e+07 0.500  1.00
HT29_00vMiSeq_2_NoGC        3 188549004 192549000       5  4.00e+06 0.500  1.00
HT29_00vMiSeq_2_NoGC        4 11526000 47525999      37  3.60e+07 0.500  1.00
HT29_00vMiSeq_2_NoGC        4 58526004 129526002      72  7.10e+07 0.500  1.00
HT29_00vMiSeq_2_NoGC        4 138526001 182525999      45  4.40e+07 0.500  1.00
HT29_00vMiSeq_2_NoGC        5 30370997 129371003      98  9.90e+07 0.500  1.00
HT29_00vMiSeq_2_NoGC        5 160371000 166371000       7  6.00e+06 0.500  1.00
HT29_00vMiSeq_2_NoGC        6 44455002 147455004     102  1.03e+08 0.500  1.00
HT29_00vMiSeq_2_NoGC        7 7339001 21339000      15  1.40e+07 0.500  1.00
HT29_00vMiSeq_2_NoGC        7 76339002 96339000      21  2.00e+07 0.500  1.00
HT29_00vMiSeq_2_NoGC        7 102338999 126338999      25  2.40e+07 0.500  1.00
HT29_00vMiSeq_2_NoGC        7 144339000 147339000       4  3.00e+06 0.500  1.00
HT29_00vMiSeq_2_NoGC        8 2200002 5200002       4  3.00e+06 0.500  1.00
HT29_00vMiSeq_2_NoGC        8 13200000 17200001       5  4.00e+06 0.500  1.00
HT29_00vMiSeq_2_NoGC        8 50200002 122200001      73  7.20e+07 0.500  1.00
HT29_00vMiSeq_2_NoGC        9  835002 30835002      31  3.00e+07 0.500  1.00
HT29_00vMiSeq_2_NoGC        9 102835002 108835002       7  6.00e+06 0.500  1.00
HT29_00vMiSeq_2_NoGC       10 52621002 68621004      17  1.60e+07 0.500  1.00
HT29_00vMiSeq_2_NoGC       11 21086004 42086004      22  2.10e+07 0.500  1.00
HT29_00vMiSeq_2_NoGC       11 54086004 59086002       6  5.00e+06 0.500  1.00
HT29_00vMiSeq_2_NoGC       11 79085999 109085999      31  3.00e+07 0.500  1.00
HT29_00vMiSeq_2_NoGC       12 14078999 47078999      32  3.30e+07 0.500  1.00
HT29_00vMiSeq_2_NoGC       12 58079004 103079003      46  4.50e+07 0.500  1.00
HT29_00vMiSeq_2_NoGC       13 32227002 39227003       8  7.00e+06 0.500  1.00
HT29_00vMiSeq_2_NoGC       13 73226999 80227002       8  7.00e+06 0.500  1.00
HT29_00vMiSeq_2_NoGC       13 91227000 108227003      18  1.70e+07 0.500  1.00
HT29_00vMiSeq_2_NoGC       14 25057001 50057004      26  2.50e+07 0.500  1.00
HT29_00vMiSeq_2_NoGC       14 79057002 88057002      10  9.00e+06 0.500  1.00
HT29_00vMiSeq_2_NoGC       16 59175000 64175004       6  5.00e+06 0.500  1.00
HT29_00vMiSeq_2_NoGC       17 49820004 51820002       3  2.00e+06 0.500  1.00
HT29_00vMiSeq_2_NoGC       18 18624000 40624001      23  2.20e+07 0.500  1.00
HT29_00vMiSeq_2_NoGC       18 57624000 70624002      14  1.30e+07 0.500  1.00
HT29_00vMiSeq_2_NoGC       21 13391003 31391003      19  1.80e+07 0.500  1.00
HT29_00vMiSeq_2_NoGC        X 20956002 37955999      18  1.70e+07 0.500  1.00
HT29_00vMiSeq_2_NoGC        X 76955999 145955999      70  6.90e+07 0.500  1.00
HT29_00vMiSeq_2_NoGC        1       0 47999999      49  4.80e+07  1.50  1.00
HT29_00vMiSeq_2_NoGC        1 200000004 206000004       7  6.00e+06  1.50  1.00
HT29_00vMiSeq_2_NoGC        2 84749003 96749004      11  1.20e+07  1.50  1.00
HT29_00vMiSeq_2_NoGC        2 231749004 241748999      11  1.00e+07  1.50  1.00
HT29_00vMiSeq_2_NoGC        3 8549003 14549003       7  6.00e+06  1.50  1.00
HT29_00vMiSeq_2_NoGC        3 193549001 197549003       5  4.00e+06  1.50  1.00
HT29_00vMiSeq_2_NoGC        4  526001 10526004      11  1.00e+07  1.50  1.00
HT29_00vMiSeq_2_NoGC        5 167371002 178371000      12  1.10e+07  1.50  1.00
HT29_00vMiSeq_2_NoGC        6 29455002 43454999      15  1.40e+07  1.50  1.00
HT29_00vMiSeq_2_NoGC        6 167455002 170455002       4  3.00e+06  1.50  1.00
HT29_00vMiSeq_2_NoGC        7  338999 6339000       7  6.00e+06  1.50  1.00
HT29_00vMiSeq_2_NoGC        7 70339001 75338999       6  5.00e+06  1.50  1.00
HT29_00vMiSeq_2_NoGC        7 97339002 101339004       5  4.00e+06  1.50  1.00
HT29_00vMiSeq_2_NoGC        7 148339002 158339003      11  1.00e+07  1.50  1.00
HT29_00vMiSeq_2_NoGC        8  199998 1199999       2  1.00e+06  1.50  1.00
HT29_00vMiSeq_2_NoGC        8 6200003 12200003       7  6.00e+06  1.50  1.00
HT29_00vMiSeq_2_NoGC        8 139200000 146200001       8  7.00e+06  1.50  1.00
HT29_00vMiSeq_2_NoGC        9 126835002 140835000      15  1.40e+07  1.50  1.00
HT29_00vMiSeq_2_NoGC       10  620999  620999       1   0.00  1.50  1.00
HT29_00vMiSeq_2_NoGC       10 120621000 134621003      15  1.40e+07  1.50  1.00
HT29_00vMiSeq_2_NoGC       11   86004 3086004       4  3.00e+06  1.50  1.00
HT29_00vMiSeq_2_NoGC       11 60086003 78086004      19  1.80e+07  1.50  1.00
HT29_00vMiSeq_2_NoGC       12 48079002 57079001      10  9.00e+06  1.50  1.00
HT29_00vMiSeq_2_NoGC       12 104079000 133079004      30  2.90e+07  1.50  1.00
HT29_00vMiSeq_2_NoGC       14 89057003 106057002      18  1.70e+07  1.50  1.00
HT29_00vMiSeq_2_NoGC       15 100706999 101707002       2  1.00e+06  1.50  1.00
HT29_00vMiSeq_2_NoGC       16  175001 58175004      49  5.80e+07  1.50  1.00
HT29_00vMiSeq_2_NoGC       16 65174999 70175004       6  5.00e+06  1.50  1.00
HT29_00vMiSeq_2_NoGC       16 81175002 90175001      10  9.00e+06  1.50  1.00
HT29_00vMiSeq_2_NoGC       17  820001 48820001      47  4.80e+07  1.50  1.00
HT29_00vMiSeq_2_NoGC       18 71624003 77624004       7  6.00e+06  1.50  1.00
HT29_00vMiSeq_2_NoGC       19  545999 58546002      57  5.80e+07  1.50  1.00
HT29_00vMiSeq_2_NoGC       20  417000 3416999       4  3.00e+06  1.50  1.00
HT29_00vMiSeq_2_NoGC       20 29416998 62417003      34  3.30e+07  1.50  1.00
HT29_00vMiSeq_2_NoGC       21 9391002 10391003       2  1.00e+06  1.50  1.00
HT29_00vMiSeq_2_NoGC       21 42391002 47390999       6  5.00e+06  1.50  1.00
HT29_00vMiSeq_2_NoGC       22 15260999 51261000      37  3.60e+07  1.50  1.00
HT29_00vMiSeq_2_NoGC        X  956003 1955999       2  1.00e+06  1.50  1.00
HT29_00vMiSeq_2_NoGC       10 38621003 41621003       2  3.00e+06  2.00  1.00
HT29_00vMiSeq_2_NoGC       17 70820004 80820000      11  1.00e+07  2.00  1.00
##Estimated cellularity:0.458
##Estimated ratio:0.870177267987487
##Version:2.0
