Sample       Chr FirstProbe LastProbe   NbSnp  length_min    Type Avg_certainty
HT29_100vF5_3_NoGC        3 79448999 90449004     111  1.10e+07 0.333  1.00
HT29_100vF5_3_NoGC       16 6374999 6875004       6  5.00e+05 0.333  1.00
HT29_100vF5_3_NoGC        3  149003 79349004     793  7.92e+07 0.667  1.00
HT29_100vF5_3_NoGC        4 157126001 191026002     340  3.39e+07 0.667  1.00
HT29_100vF5_3_NoGC        6 76855001 162755004     860  8.59e+07 0.667  1.00
HT29_100vF5_3_NoGC        8  199998 46800000     438  4.66e+07 0.667  1.00
HT29_100vF5_3_NoGC       10 42320999 42521003       3  2.00e+05 0.667  1.00
HT29_100vF5_3_NoGC       14 18957000 107257002     884  8.83e+07 0.667  1.00
HT29_100vF5_3_NoGC       15 19907004 20107002       3  2.00e+05 0.667  1.00
HT29_100vF5_3_NoGC       17 8420003 25420001     142  1.70e+07 0.667  1.00
HT29_100vF5_3_NoGC       17 66520002 70720001      43  4.20e+06 0.667  1.00
HT29_100vF5_3_NoGC       18 15323999 77324004     591  6.20e+07 0.667  1.00
HT29_100vF5_3_NoGC       21 9391002 48091001     357  3.87e+07 0.667  1.00
HT29_100vF5_3_NoGC       22 15961001 18861000      30  2.90e+06 0.667  1.00
HT29_100vF5_3_NoGC        X  656004 41856000     413  4.12e+07 0.667  1.00
HT29_100vF5_3_NoGC        1       0 33700001     336  3.37e+07  1.33  1.00
HT29_100vF5_3_NoGC        3 93449003 130549001     372  3.71e+07  1.33  1.00
HT29_100vF5_3_NoGC        5 2971002 45770999     429  4.28e+07  1.33  1.00
HT29_100vF5_3_NoGC        7 21139001 57439002     364  3.63e+07  1.33  1.00
HT29_100vF5_3_NoGC        7 62438999 147639000     853  8.52e+07  1.33  1.00
HT29_100vF5_3_NoGC        8 46900001 104600003     577  5.77e+07  1.33  1.00
HT29_100vF5_3_NoGC        9 128734998 141134999     124  1.24e+07  1.33  1.00
HT29_100vF5_3_NoGC       10   20999 1421004      15  1.40e+06  1.33  1.00
HT29_100vF5_3_NoGC       10 133621002 135521003      20  1.90e+06  1.33  1.00
HT29_100vF5_3_NoGC       11   86004 48586002     486  4.85e+07  1.33  1.00
HT29_100vF5_3_NoGC       11 76486002 134986002     585  5.85e+07  1.33  1.00
HT29_100vF5_3_NoGC       12   79002  878999       9  8.00e+05  1.33  1.00
HT29_100vF5_3_NoGC       13 33926999 53426999     196  1.95e+07  1.33  1.00
HT29_100vF5_3_NoGC       13 71426999 110027003     387  3.86e+07  1.33  1.00
HT29_100vF5_3_NoGC       15 20207003 102506999     820  8.23e+07  1.33  1.00
HT29_100vF5_3_NoGC       16   75000 6274998      63  6.20e+06  1.33  1.00
HT29_100vF5_3_NoGC       17 25520004 49220004     238  2.37e+07  1.33  1.00
HT29_100vF5_3_NoGC       17 70820004 81119999     104  1.03e+07  1.33  1.00
HT29_100vF5_3_NoGC       18   24000 15223998     153  1.52e+07  1.33  1.00
HT29_100vF5_3_NoGC       19 28146000 33246000      52  5.10e+06  1.33  1.00
HT29_100vF5_3_NoGC        X 148056000 155156003      72  7.10e+06  1.33  1.00
HT29_100vF5_3_NoGC        6 170755002 171055001       4  3.00e+05  1.67  1.00
HT29_100vF5_3_NoGC        7   39000 7239000      73  7.20e+06  1.67  1.00
HT29_100vF5_3_NoGC        7 147739001 159038999     114  1.13e+07  1.67  1.00
HT29_100vF5_3_NoGC        8       0  100001       2  1.00e+05  1.67  1.00
HT29_100vF5_3_NoGC        8 142700003 146100000      35  3.40e+06  1.67  1.00
HT29_100vF5_3_NoGC       10 39020999 39121002       2  1.00e+05  1.67  1.00
HT29_100vF5_3_NoGC       11 56885999 76385999     196  1.95e+07  1.67  1.00
HT29_100vF5_3_NoGC       13 110126999 115027002      49  4.90e+06  1.67  1.00
HT29_100vF5_3_NoGC       17 63320003 66419999      32  3.10e+06  1.67  1.00
HT29_100vF5_3_NoGC       20 29917002 60116999     303  3.02e+07  1.67  1.00
HT29_100vF5_3_NoGC        4 191126004 191126004       1   0.00  2.00  1.00
HT29_100vF5_3_NoGC        5   70997 2871000      29  2.80e+06  2.00  1.00
HT29_100vF5_3_NoGC       22 18961002 21260999      24  2.30e+06  2.00  1.00
HT29_100vF5_3_NoGC       13 19127003 33827004     148  1.47e+07  2.33  1.00
HT29_100vF5_3_NoGC       19 33346002 59045999     258  2.57e+07  2.33  1.00
HT29_100vF5_3_NoGC       20 60217001 62917002      28  2.70e+06  2.33  1.00
HT29_100vF5_3_NoGC        8 115200000 142600002     275  2.74e+07  3.33  1.00
##Estimated cellularity:1.0
##Estimated ratio:1.037
##Version:2.0
