Sample       Chr FirstProbe LastProbe   NbSnp  length_min    Type Avg_certainty
HT29_100vF3_3_NoGC        3 59948999 60849000      10  9.00e+05 0.333  1.00
HT29_100vF3_3_NoGC        3 79448999 90449004     111  1.10e+07 0.333  1.00
HT29_100vF3_3_NoGC       16 6374999 6875004       6  5.00e+05 0.333  1.00
HT29_100vF3_3_NoGC        3   49001 59849004     599  5.98e+07 0.667  1.00
HT29_100vF3_3_NoGC        3 60949002 79349004     185  1.84e+07 0.667  1.00
HT29_100vF3_3_NoGC        4 157226003 190826004     337  3.36e+07 0.667  1.00
HT29_100vF3_3_NoGC        6 76855001 162955001     862  8.61e+07 0.667  1.00
HT29_100vF3_3_NoGC        8       0 46800000     440  4.68e+07 0.667  1.00
HT29_100vF3_3_NoGC        8 105400002 107500001      22  2.10e+06 0.667  1.00
HT29_100vF3_3_NoGC       10 42320999 42521003       3  2.00e+05 0.667  1.00
HT29_100vF3_3_NoGC       14 18957000 99457002     806  8.05e+07 0.667  1.00
HT29_100vF3_3_NoGC       17 8320002 25319999     142  1.70e+07 0.667  1.00
HT29_100vF3_3_NoGC       18 18424002 77023998     587  5.86e+07 0.667  1.00
HT29_100vF3_3_NoGC       19 19946004 27845999      50  7.90e+06 0.667  1.00
HT29_100vF3_3_NoGC       21 14591004 48091001     336  3.35e+07 0.667  1.00
HT29_100vF3_3_NoGC       22 15961001 18861000      30  2.90e+06 0.667  1.00
HT29_100vF3_3_NoGC        X  756000 16055999     154  1.53e+07 0.667  1.00
HT29_100vF3_3_NoGC        X 23056001 41856000     189  1.88e+07 0.667  1.00
HT29_100vF3_3_NoGC        1       0 48199997     481  4.82e+07  1.33  1.00
HT29_100vF3_3_NoGC        3 93449003 130549001     372  3.71e+07  1.33  1.00
HT29_100vF3_3_NoGC        3 164249004 176149002     120  1.19e+07  1.33  1.00
HT29_100vF3_3_NoGC        5 3371003 54370997     482  5.10e+07  1.33  1.00
HT29_100vF3_3_NoGC        7 21439002 57439002     361  3.60e+07  1.33  1.00
HT29_100vF3_3_NoGC        7 62539001 147539004     851  8.50e+07  1.33  1.00
HT29_100vF3_3_NoGC        8 46900001 105300000     584  5.84e+07  1.33  1.00
HT29_100vF3_3_NoGC        8 107600004 115100003      76  7.50e+06  1.33  1.00
HT29_100vF3_3_NoGC        9 130135001 141134999     111  1.10e+07  1.33  1.00
HT29_100vF3_3_NoGC       10   20999 1421004      15  1.40e+06  1.33  1.00
HT29_100vF3_3_NoGC       10 39020999 39121002       2  1.00e+05  1.33  1.00
HT29_100vF3_3_NoGC       11 3286002 48586002     454  4.53e+07  1.33  1.00
HT29_100vF3_3_NoGC       11 77586000 134986002     574  5.74e+07  1.33  1.00
HT29_100vF3_3_NoGC       12   79002 3379001      34  3.30e+06  1.33  1.00
HT29_100vF3_3_NoGC       12 22679004 33979001     114  1.13e+07  1.33  1.00
HT29_100vF3_3_NoGC       13 33926999 54227004     204  2.03e+07  1.33  1.00
HT29_100vF3_3_NoGC       13 71426999 109927002     386  3.85e+07  1.33  1.00
HT29_100vF3_3_NoGC       15 22407000 102506999     802  8.01e+07  1.33  1.00
HT29_100vF3_3_NoGC       16   75000 6274998      63  6.20e+06  1.33  1.00
HT29_100vF3_3_NoGC       17 25420001 32820000      75  7.40e+06  1.33  1.00
HT29_100vF3_3_NoGC       17 37120002 49420002     124  1.23e+07  1.33  1.00
HT29_100vF3_3_NoGC       17 70919999 81119999     103  1.02e+07  1.33  1.00
HT29_100vF3_3_NoGC       18   24000 15323999     154  1.53e+07  1.33  1.00
HT29_100vF3_3_NoGC       19 27946002 33246000      54  5.30e+06  1.33  1.00
HT29_100vF3_3_NoGC        X 146656001 155156003      86  8.50e+06  1.33  1.00
HT29_100vF3_3_NoGC        6 171055001 171055001       1   0.00  1.67  1.00
HT29_100vF3_3_NoGC        7   39000 7239000      73  7.20e+06  1.67  1.00
HT29_100vF3_3_NoGC        7 147639000 159038999     115  1.14e+07  1.67  1.00
HT29_100vF3_3_NoGC       10 133921001 135521003      17  1.60e+06  1.67  1.00
HT29_100vF3_3_NoGC       11   86004 3185999      32  3.10e+06  1.67  1.00
HT29_100vF3_3_NoGC       11 56986002 77486003     206  2.05e+07  1.67  1.00
HT29_100vF3_3_NoGC       13 110027003 115027002      50  5.00e+06  1.67  1.00
HT29_100vF3_3_NoGC       17 63320003 66120000      29  2.80e+06  1.67  1.00
HT29_100vF3_3_NoGC        4 190926000 191126004       3  2.00e+05  2.00  1.00
HT29_100vF3_3_NoGC        5   70997 3271001      33  3.20e+06  2.00  1.00
HT29_100vF3_3_NoGC        8 142700003 146300004      37  3.60e+06  2.00  1.00
HT29_100vF3_3_NoGC       17 32920001 37020000      42  4.10e+06  2.00  1.00
HT29_100vF3_3_NoGC       20 30017004 62917002     330  3.29e+07  2.00  1.00
HT29_100vF3_3_NoGC       22 18961002 20261003      14  1.30e+06  2.00  1.00
HT29_100vF3_3_NoGC       12 133779000 133779000       1   0.00  2.33  1.00
HT29_100vF3_3_NoGC       13 18927000 33827004     150  1.49e+07  2.33  1.00
HT29_100vF3_3_NoGC       19 33346002 59045999     258  2.57e+07  2.33  1.00
HT29_100vF3_3_NoGC        8 115200000 142600002     275  2.74e+07  3.67  1.00
##Estimated cellularity:1.0
##Estimated ratio:1.068
##Version:2.0
