Sample       Chr FirstProbe LastProbe   NbSnp  length_min    Type Avg_certainty
HT29_100vF8_3_NoGC        3 79299000 90299003      45  1.10e+07 0.333  1.00
HT29_100vF8_3_NoGC       16 6175002 6674999       3  5.00e+05 0.333  1.00
HT29_100vF8_3_NoGC        3   49001 79049003     317  7.90e+07 0.667  1.00
HT29_100vF8_3_NoGC        4 49026000 49526003       3  5.00e+05 0.667  1.00
HT29_100vF8_3_NoGC        4 157276001 190775999     135  3.35e+07 0.667  1.00
HT29_100vF8_3_NoGC        6 76705002 163205004     347  8.65e+07 0.667  1.00
HT29_100vF8_3_NoGC        7 159089004 159089004       1   0.00 0.667  1.00
HT29_100vF8_3_NoGC        8  199998 46700003     176  4.65e+07 0.667  1.00
HT29_100vF8_3_NoGC       14 18806999 107057003     354  8.83e+07 0.667  1.00
HT29_100vF8_3_NoGC       16 31925003 46424999      16  1.45e+07 0.667  1.00
HT29_100vF8_3_NoGC       17   70002 25070004      90  2.50e+07 0.667  1.00
HT29_100vF8_3_NoGC       17 66570000 70570002      17  4.00e+06 0.667  1.00
HT29_100vF8_3_NoGC       18 15374003 77873999     240  6.25e+07 0.667  1.00
HT29_100vF8_3_NoGC       19   46002 24546000      99  2.45e+07 0.667  1.00
HT29_100vF8_3_NoGC       21 9391002 47891003     144  3.85e+07 0.667  1.00
HT29_100vF8_3_NoGC       22 16011000 18761004      12  2.75e+06 0.667  1.00
HT29_100vF8_3_NoGC       22 21260999 51261000     121  3.00e+07 0.667  1.00
HT29_100vF8_3_NoGC        X  206004 41705999     167  4.15e+07 0.667  1.00
HT29_100vF8_3_NoGC        3 93299004 130299000     149  3.70e+07  1.33  1.00
HT29_100vF8_3_NoGC        5 1871003 54121001     199  5.22e+07  1.33  1.00
HT29_100vF8_3_NoGC        7 21339000 158839002     540  1.38e+08  1.33  1.00
HT29_100vF8_3_NoGC        8 46949999 104450004     231  5.75e+07  1.33  1.00
HT29_100vF8_3_NoGC       10 133621002 135371003       8  1.75e+06  1.33  1.00
HT29_100vF8_3_NoGC       11   86004 134836001     528  1.35e+08  1.33  1.00
HT29_100vF8_3_NoGC       12   79002  829001       4  7.50e+05  1.33  1.00
HT29_100vF8_3_NoGC       13 33977003 52727003      76  1.88e+07  1.33  1.00
HT29_100vF8_3_NoGC       13 71477003 114977004     175  4.35e+07  1.33  1.00
HT29_100vF8_3_NoGC       15 19957001 102457002     330  8.25e+07  1.33  1.00
HT29_100vF8_3_NoGC       16  175001 5924999      24  5.75e+06  1.33  1.00
HT29_100vF8_3_NoGC       17 25319999 49070003      96  2.38e+07  1.33  1.00
HT29_100vF8_3_NoGC       17 70820004 81070002      42  1.02e+07  1.33  1.00
HT29_100vF8_3_NoGC       18  124002 15124001      61  1.50e+07  1.33  1.00
HT29_100vF8_3_NoGC       19 27545999 33046002      23  5.50e+06  1.33  1.00
HT29_100vF8_3_NoGC        7   89003 7088999      29  7.00e+06  1.67  1.00
HT29_100vF8_3_NoGC       17 63320003 66320003      13  3.00e+06  1.67  1.00
HT29_100vF8_3_NoGC       20 29917002 62917002     133  3.30e+07  1.67  1.00
HT29_100vF8_3_NoGC        4 191026002 191026002       1   0.00  2.00  1.00
HT29_100vF8_3_NoGC        5  121002 1621001       7  1.50e+06  2.00  1.00
HT29_100vF8_3_NoGC        8 114950004 145949999     125  3.10e+07  2.00  1.00
HT29_100vF8_3_NoGC       12 133829004 133829004       1   0.00  2.00  1.00
HT29_100vF8_3_NoGC       13 18977004 33727001      60  1.47e+07  2.00  1.00
HT29_100vF8_3_NoGC       19 33296003 59045999     104  2.57e+07  2.00  1.00
HT29_100vF8_3_NoGC       22 19010999 21011004       9  2.00e+06  2.00  1.00
##Estimated cellularity:0.997
##Estimated ratio:1.041458934662772
##Version:2.0
