Sample       Chr FirstProbe LastProbe   NbSnp  length_min    Type Avg_certainty
HT29_100vMiSeq_3_GC        3 78548999 89549003      12  1.10e+07 0.333  1.00
HT29_100vMiSeq_3_GC        2 242749002 242749002       1   0.00 0.667  1.00
HT29_100vMiSeq_3_GC        3  548999 77549003      78  7.70e+07 0.667  1.00
HT29_100vMiSeq_3_GC        4 130526004 137526000       8  7.00e+06 0.667  1.00
HT29_100vMiSeq_3_GC        4 157526004 189526002      33  3.20e+07 0.667  1.00
HT29_100vMiSeq_3_GC        6 62455001 162455004     101  1.00e+08 0.667  1.00
HT29_100vMiSeq_3_GC        8  199998 43200000      44  4.30e+07 0.667  1.00
HT29_100vMiSeq_3_GC        8 105200003 106199999       2  1.00e+06 0.667  1.00
HT29_100vMiSeq_3_GC        9 36835001 45835001      10  9.00e+06 0.667  1.00
HT29_100vMiSeq_3_GC       14 19057001 106057002      88  8.70e+07 0.667  1.00
HT29_100vMiSeq_3_GC       17 1820003 21820001      21  2.00e+07 0.667  1.00
HT29_100vMiSeq_3_GC       17 66820002 69820001       4  3.00e+06 0.667  1.00
HT29_100vMiSeq_3_GC       18 18624000 77624004      60  5.90e+07 0.667  1.00
HT29_100vMiSeq_3_GC       19  545999 23546004      24  2.30e+07 0.667  1.00
HT29_100vMiSeq_3_GC       21 14390999 47390999      34  3.30e+07 0.667  1.00
HT29_100vMiSeq_3_GC       22 16261002 18261000       3  2.00e+06 0.667  1.00
HT29_100vMiSeq_3_GC       22 21260999 27260999       7  6.00e+06 0.667  1.00
HT29_100vMiSeq_3_GC       22 30261000 51261000      22  2.10e+07 0.667  1.00
HT29_100vMiSeq_3_GC        X  956003 14956001      15  1.40e+07 0.667  1.00
HT29_100vMiSeq_3_GC        X 22955999 40956000      19  1.80e+07 0.667  1.00
HT29_100vMiSeq_3_GC        1 122000004 141000000      20  1.90e+07  1.33  1.00
HT29_100vMiSeq_3_GC        3 90548999 129549000      40  3.90e+07  1.33  1.00
HT29_100vMiSeq_3_GC        4 190526003 190526003       1   0.00  1.33  1.00
HT29_100vMiSeq_3_GC        5  371003 17371002      18  1.70e+07  1.33  1.00
HT29_100vMiSeq_3_GC        5 31370999 53371002      23  2.20e+07  1.33  1.00
HT29_100vMiSeq_3_GC        6 170455002 170455002       1   0.00  1.33  1.00
HT29_100vMiSeq_3_GC        7  338999 6339000       7  6.00e+06  1.33  1.00
HT29_100vMiSeq_3_GC        7 21339000 158339003     138  1.37e+08  1.33  1.00
HT29_100vMiSeq_3_GC        8 94200000 104200002      11  1.00e+07  1.33  1.00
HT29_100vMiSeq_3_GC        8 143200001 145200000       3  2.00e+06  1.33  1.00
HT29_100vMiSeq_3_GC        9 46834998 66835001      21  2.00e+07  1.33  1.00
HT29_100vMiSeq_3_GC       10 133621002 134621003       2  1.00e+06  1.33  1.00
HT29_100vMiSeq_3_GC       11   86004 134086002     135  1.34e+08  1.33  1.00
HT29_100vMiSeq_3_GC       12   79002   79002       1   0.00  1.33  1.00
HT29_100vMiSeq_3_GC       12 25079003 36079001      12  1.10e+07  1.33  1.00
HT29_100vMiSeq_3_GC       12 133079004 133079004       1   0.00  1.33  1.00
HT29_100vMiSeq_3_GC       13  227004 18227004      19  1.80e+07  1.33  1.00
HT29_100vMiSeq_3_GC       13 34226999 52226999      19  1.80e+07  1.33  1.00
HT29_100vMiSeq_3_GC       13 72227004 76226999       5  4.00e+06  1.33  1.00
HT29_100vMiSeq_3_GC       13 94227000 114227003      21  2.00e+07  1.33  1.00
HT29_100vMiSeq_3_GC       14   56999 18057000      19  1.80e+07  1.33  1.00
HT29_100vMiSeq_3_GC       14 107057003 107057003       1   0.00  1.33  1.00
HT29_100vMiSeq_3_GC       15  707004 101707002     102  1.01e+08  1.33  1.00
HT29_100vMiSeq_3_GC       16 36175001 46175003      11  1.00e+07  1.33  1.00
HT29_100vMiSeq_3_GC       17 22820004 31820004      10  9.00e+06  1.33  1.00
HT29_100vMiSeq_3_GC       17 70820004 80820000      11  1.00e+07  1.33  1.00
HT29_100vMiSeq_3_GC       18  623999 17624003      18  1.70e+07  1.33  1.00
HT29_100vMiSeq_3_GC       20 24416999 29416998       6  5.00e+06  1.33  1.00
HT29_100vMiSeq_3_GC       21  391001 8390999       9  8.00e+06  1.33  1.00
HT29_100vMiSeq_3_GC       22  260999 15260999      16  1.50e+07  1.33  1.00
HT29_100vMiSeq_3_GC       22 28261001 29261004       2  1.00e+06  1.33  1.00
HT29_100vMiSeq_3_GC        X 147956004 153956004       7  6.00e+06  1.33  1.00
HT29_100vMiSeq_3_GC       10 38621003 40621001       3  2.00e+06  1.67  1.00
HT29_100vMiSeq_3_GC       17 32820000 37820004       6  5.00e+06  1.67  1.00
HT29_100vMiSeq_3_GC       17 62819999 65820000       4  3.00e+06  1.67  1.00
HT29_100vMiSeq_3_GC       19 28546001 37546002      10  9.00e+06  1.67  1.00
HT29_100vMiSeq_3_GC       20 30416999 62417003      33  3.20e+07  1.67  1.00
HT29_100vMiSeq_3_GC       22 19261001 20261003       2  1.00e+06  1.67  1.00
HT29_100vMiSeq_3_GC        8 115200000 142200000      28  2.70e+07  2.00  1.00
HT29_100vMiSeq_3_GC       13 19227000 33227003      15  1.40e+07  2.00  1.00
HT29_100vMiSeq_3_GC       19 38546004 58546002      21  2.00e+07  2.00  1.00
##Estimated cellularity:1.0
##Estimated ratio:1.046143704680283
##Version:2.0
