Sample       Chr FirstProbe LastProbe   NbSnp  length_min    Type Avg_certainty
HT29_100vF1_2_NoGC        3 79299000 90299003      45  1.10e+07  0.00  1.00
HT29_100vF1_2_NoGC        1 121250003 142750002       3  2.15e+07 0.500  1.00
HT29_100vF1_2_NoGC        3   49001 79049003     317  7.90e+07 0.500  1.00
HT29_100vF1_2_NoGC        4 157276001 190526003     134  3.33e+07 0.500  1.00
HT29_100vF1_2_NoGC        6 58454999 162455004     406  1.04e+08 0.500  1.00
HT29_100vF1_2_NoGC        7 159089004 159089004       1   0.00 0.500  1.00
HT29_100vF1_2_NoGC        8  199998 42700002     171  4.25e+07 0.500  1.00
HT29_100vF1_2_NoGC        9 36085002 69835001      64  3.37e+07 0.500  1.00
HT29_100vF1_2_NoGC       10 42121002 42371004       2  2.50e+05 0.500  1.00
HT29_100vF1_2_NoGC       14 18806999 107057003     354  8.83e+07 0.500  1.00
HT29_100vF1_2_NoGC       15 19957001 20207003       2  2.50e+05 0.500  1.00
HT29_100vF1_2_NoGC       16 33925001 46424999       8  1.25e+07 0.500  1.00
HT29_100vF1_2_NoGC       17 2320002 25070004      81  2.28e+07 0.500  1.00
HT29_100vF1_2_NoGC       17 66320003 70820004      19  4.50e+06 0.500  1.00
HT29_100vF1_2_NoGC       18 18374004 77873999     239  5.95e+07 0.500  1.00
HT29_100vF1_2_NoGC       19   46002 27796001     101  2.77e+07 0.500  1.00
HT29_100vF1_2_NoGC       21 9391002 47891003     144  3.85e+07 0.500  1.00
HT29_100vF1_2_NoGC       22 16011000 18761004      12  2.75e+06 0.500  1.00
HT29_100vF1_2_NoGC       22 31011000 51261000      82  2.03e+07 0.500  1.00
HT29_100vF1_2_NoGC        X  206004 41956001     168  4.17e+07 0.500  1.00
HT29_100vF1_2_NoGC        X 58456002 66706002      23  8.25e+06 0.500  1.00
HT29_100vF1_2_NoGC        3 93299004 130299000     149  3.70e+07  1.50  1.00
HT29_100vF1_2_NoGC        4 190775999 191026002       2  2.50e+05  1.50  1.00
HT29_100vF1_2_NoGC        5  121002 17621003      71  1.75e+07  1.50  1.00
HT29_100vF1_2_NoGC        7 21339000 56339003     141  3.50e+07  1.50  1.00
HT29_100vF1_2_NoGC        7 62839002 158839002     385  9.60e+07  1.50  1.00
HT29_100vF1_2_NoGC       10 133621002 135371003       8  1.75e+06  1.50  1.00
HT29_100vF1_2_NoGC       11   86004 48086004     193  4.80e+07  1.50  1.00
HT29_100vF1_2_NoGC       11 56836002 134836001     313  7.80e+07  1.50  1.00
HT29_100vF1_2_NoGC       12   79002 1079003       5  1.00e+06  1.50  1.00
HT29_100vF1_2_NoGC       13 36977004 53477004      67  1.65e+07  1.50  1.00
HT29_100vF1_2_NoGC       13 94477002 114977004      83  2.05e+07  1.50  1.00
HT29_100vF1_2_NoGC       15 20456999 102457002     328  8.20e+07  1.50  1.00
HT29_100vF1_2_NoGC       16  175001 4925003      20  4.75e+06  1.50  1.00
HT29_100vF1_2_NoGC       17 25319999 43570002      74  1.83e+07  1.50  1.00
HT29_100vF1_2_NoGC       17 71069999 81070002      41  1.00e+07  1.50  1.00
HT29_100vF1_2_NoGC       18  124002 15374003      62  1.53e+07  1.50  1.00
HT29_100vF1_2_NoGC        X 148706003 154955999      26  6.25e+06  1.50  1.00
HT29_100vF1_2_NoGC        7   89003 7088999      29  7.00e+06  2.00  1.00
HT29_100vF1_2_NoGC        8 115200000 145949999     124  3.07e+07  2.00  1.00
HT29_100vF1_2_NoGC       12 132578999 133579002       5  1.00e+06  2.00  1.00
HT29_100vF1_2_NoGC       13 18977004 36727001      72  1.77e+07  2.00  1.00
HT29_100vF1_2_NoGC       13 72227004 76727003      19  4.50e+06  2.00  1.00
HT29_100vF1_2_NoGC       17 63320003 66070002      12  2.75e+06  2.00  1.00
HT29_100vF1_2_NoGC       19 28046004 59045999     125  3.10e+07  2.00  1.00
HT29_100vF1_2_NoGC       20 29917002 62917002     133  3.30e+07  2.00  1.00
HT29_100vF1_2_NoGC       22 19010999 21011004       9  2.00e+06  2.00  1.00
##Estimated cellularity:0.697
##Estimated ratio:1.0263733379986004
##Version:2.0
