Sample       Chr FirstProbe LastProbe   NbSnp  length_min    Type Avg_certainty
HT29_100vMiSeq_2_NoGC        3 59849004 60849000      11  1.00e+06  0.00  1.00
HT29_100vMiSeq_2_NoGC        3 79448999 90349002     110  1.09e+07  0.00  1.00
HT29_100vMiSeq_2_NoGC       16 6374999 6775002       5  4.00e+05  0.00  1.00
HT29_100vMiSeq_2_NoGC       20 14517000 15217002       8  7.00e+05  0.00  1.00
HT29_100vMiSeq_2_NoGC        1 102100001 108400002      64  6.30e+06 0.500  1.00
HT29_100vMiSeq_2_NoGC        3  149003 59749002     597  5.96e+07 0.500  1.00
HT29_100vMiSeq_2_NoGC        3 60949002 79349004     185  1.84e+07 0.500  1.00
HT29_100vMiSeq_2_NoGC        4 27826001 35626001      79  7.80e+06 0.500  1.00
HT29_100vMiSeq_2_NoGC        4 130526004 138226002      78  7.70e+06 0.500  1.00
HT29_100vMiSeq_2_NoGC        4 157226003 191026002     339  3.38e+07 0.500  1.00
HT29_100vMiSeq_2_NoGC        6 61855001 162755004    1010  1.01e+08 0.500  1.00
HT29_100vMiSeq_2_NoGC        8  199998 46800000     438  4.66e+07 0.500  1.00
HT29_100vMiSeq_2_NoGC        8 105400002 107300003      20  1.90e+06 0.500  1.00
HT29_100vMiSeq_2_NoGC        9 36334998 66635003     123  3.03e+07 0.500  1.00
HT29_100vMiSeq_2_NoGC       10 42320999 42421002       2  1.00e+05 0.500  1.00
HT29_100vMiSeq_2_NoGC       14 18957000 107257002     884  8.83e+07 0.500  1.00
HT29_100vMiSeq_2_NoGC       15 19907004 20107002       3  2.00e+05 0.500  1.00
HT29_100vMiSeq_2_NoGC       17 1720001 22220004     206  2.05e+07 0.500  1.00
HT29_100vMiSeq_2_NoGC       17 66419999 70720001      44  4.30e+06 0.500  1.00
HT29_100vMiSeq_2_NoGC       18 18524003 77923998     595  5.94e+07 0.500  1.00
HT29_100vMiSeq_2_NoGC       19   46002 27845999     249  2.78e+07 0.500  1.00
HT29_100vMiSeq_2_NoGC       21 9391002 48091001     357  3.87e+07 0.500  1.00
HT29_100vMiSeq_2_NoGC       22 15961001 18861000      30  2.90e+06 0.500  1.00
HT29_100vMiSeq_2_NoGC       22 21361002 28361004      71  7.00e+06 0.500  1.00
HT29_100vMiSeq_2_NoGC       22 30261000 51161004     210  2.09e+07 0.500  1.00
HT29_100vMiSeq_2_NoGC        X   56003 16055999     161  1.60e+07 0.500  1.00
HT29_100vMiSeq_2_NoGC        X 23056001 41856000     189  1.88e+07 0.500  1.00
HT29_100vMiSeq_2_NoGC        3 118749000 129849000     112  1.11e+07  1.50  1.00
HT29_100vMiSeq_2_NoGC        6 170755002 171055001       4  3.00e+05  1.50  1.00
HT29_100vMiSeq_2_NoGC        7   39000 7239000      73  7.20e+06  1.50  1.00
HT29_100vMiSeq_2_NoGC        7 21439002 48639000     273  2.72e+07  1.50  1.00
HT29_100vMiSeq_2_NoGC        7 71839002 77939004      62  6.10e+06  1.50  1.00
HT29_100vMiSeq_2_NoGC        7 89939004 117539003     277  2.76e+07  1.50  1.00
HT29_100vMiSeq_2_NoGC        7 127139003 159038999     320  3.19e+07  1.50  1.00
HT29_100vMiSeq_2_NoGC        8       0  100001       2  1.00e+05  1.50  1.00
HT29_100vMiSeq_2_NoGC        8 94399998 105300000     110  1.09e+07  1.50  1.00
HT29_100vMiSeq_2_NoGC        8 142700003 146300004      37  3.60e+06  1.50  1.00
HT29_100vMiSeq_2_NoGC        9 66735000 67235003       6  5.00e+05  1.50  1.00
HT29_100vMiSeq_2_NoGC       10 133921001 135521003      17  1.60e+06  1.50  1.00
HT29_100vMiSeq_2_NoGC       11   86004 20285999     203  2.02e+07  1.50  1.00
HT29_100vMiSeq_2_NoGC       11 43486002 48185999      48  4.70e+06  1.50  1.00
HT29_100vMiSeq_2_NoGC       11 51386003 78786000     245  2.74e+07  1.50  1.00
HT29_100vMiSeq_2_NoGC       11 107686001 134986002     274  2.73e+07  1.50  1.00
HT29_100vMiSeq_2_NoGC       12   79002  379001       4  3.00e+05  1.50  1.00
HT29_100vMiSeq_2_NoGC       13 33227003 52927001     198  1.97e+07  1.50  1.00
HT29_100vMiSeq_2_NoGC       13 72626999 76727003      42  4.10e+06  1.50  1.00
HT29_100vMiSeq_2_NoGC       13 94927002 115027002     201  2.01e+07  1.50  1.00
HT29_100vMiSeq_2_NoGC       15 20207003 102506999     820  8.23e+07  1.50  1.00
HT29_100vMiSeq_2_NoGC       16   75000  775002       8  7.00e+05  1.50  1.00
HT29_100vMiSeq_2_NoGC       17 29220000 32820000      37  3.60e+06  1.50  1.00
HT29_100vMiSeq_2_NoGC       17 70820004 81119999     104  1.03e+07  1.50  1.00
HT29_100vMiSeq_2_NoGC       18   24000 15024000     151  1.50e+07  1.50  1.00
HT29_100vMiSeq_2_NoGC       19 27946002 32945999      51  5.00e+06  1.50  1.00
HT29_100vMiSeq_2_NoGC       22 28461000 30161004      18  1.70e+06  1.50  1.00
HT29_100vMiSeq_2_NoGC        X 148356000 155156003      69  6.80e+06  1.50  1.00
HT29_100vMiSeq_2_NoGC        4 191126004 191126004       1   0.00  2.00  1.00
HT29_100vMiSeq_2_NoGC        5   70997 4171001      42  4.10e+06  2.00  1.00
HT29_100vMiSeq_2_NoGC       12 133779000 133779000       1   0.00  2.00  1.00
HT29_100vMiSeq_2_NoGC       13 18927000 26327004      75  7.40e+06  2.00  1.00
HT29_100vMiSeq_2_NoGC       17 32920001 37020000      42  4.10e+06  2.00  1.00
HT29_100vMiSeq_2_NoGC       17 63320003 66320003      31  3.00e+06  2.00  1.00
HT29_100vMiSeq_2_NoGC       19 33046002 38446002      55  5.40e+06  2.00  1.00
HT29_100vMiSeq_2_NoGC       19 51746003 59045999      74  7.30e+06  2.00  1.00
HT29_100vMiSeq_2_NoGC       20   17004   17004       1   0.00  2.00  1.00
HT29_100vMiSeq_2_NoGC       20 29816999 62917002     332  3.31e+07  2.00  1.00
HT29_100vMiSeq_2_NoGC       22 18961002 21260999      24  2.30e+06  2.00  1.00
HT29_100vMiSeq_2_NoGC        1       0  500004       6  5.00e+05  2.50  1.00
HT29_100vMiSeq_2_NoGC       19 38546004 51646002     132  1.31e+07  2.50  1.00
HT29_100vMiSeq_2_NoGC       13 26426999 33127002      68  6.70e+06  3.00  1.00
HT29_100vMiSeq_2_NoGC        8 115200000 142600002     275  2.74e+07  4.00  1.00
##Estimated cellularity:0.753
##Estimated ratio:0.993
##Version:2.0
