Sample	Chr	FirstProbe	LastProbe	NbSnp	length_bp	Type	Avg_certainty
HT29_01vMiSeq_3_NoGC	1	102000000	107000004	6	5000004	0.666	1.00
HT29_01vMiSeq_3_NoGC	1	186000000	199000002	14	13000002	0.666	1.00
HT29_01vMiSeq_3_NoGC	3	76549002	96548999	19	19999997	0.666	1.00
HT29_01vMiSeq_3_NoGC	4	27526002	35526000	9	7999998	0.666	1.00
HT29_01vMiSeq_3_NoGC	4	58526004	66526002	9	7999998	0.666	1.00
HT29_01vMiSeq_3_NoGC	4	130526004	137526000	8	6999996	0.666	1.00
HT29_01vMiSeq_3_NoGC	5	18371004	29371002	12	10999998	0.666	1.00
HT29_01vMiSeq_3_NoGC	6	61455000	69455004	9	8000004	0.666	1.00
HT29_01vMiSeq_3_NoGC	7	77339004	85339002	9	7999998	0.666	1.00
HT29_01vMiSeq_3_NoGC	8	111200003	116200001	6	4999998	0.666	1.00
HT29_01vMiSeq_3_NoGC	13	54227004	71227001	18	16999997	0.666	1.00
HT29_01vMiSeq_3_NoGC	13	81227003	92227001	12	10999998	0.666	1.00
HT29_01vMiSeq_3_NoGC	14	41057003	49057001	9	7999998	0.666	1.00
HT29_01vMiSeq_3_NoGC	1	59999999	101000004	42	41000005	1.334	1.00
HT29_01vMiSeq_3_NoGC	2	31749000	40748999	10	8999999	1.334	1.00
HT29_01vMiSeq_3_NoGC	2	48749003	58748999	11	9999996	1.334	1.00
HT29_01vMiSeq_3_NoGC	2	75749004	83749002	9	7999998	1.334	1.00
HT29_01vMiSeq_3_NoGC	2	137749001	214749000	78	76999999	1.334	1.00
HT29_01vMiSeq_3_NoGC	3	548999	7549002	8	7000003	1.334	1.00
HT29_01vMiSeq_3_NoGC	3	16549002	35549003	20	19000001	1.334	1.00
HT29_01vMiSeq_3_NoGC	3	97549002	117549000	21	19999998	1.334	1.00
HT29_01vMiSeq_3_NoGC	3	143549004	181549001	39	37999997	1.334	1.00
HT29_01vMiSeq_3_NoGC	3	188549004	192549000	5	3999996	1.334	1.00
HT29_01vMiSeq_3_NoGC	4	11526000	26526000	16	15000000	1.334	1.00
HT29_01vMiSeq_3_NoGC	4	36526001	47525999	12	10999998	1.334	1.00
HT29_01vMiSeq_3_NoGC	4	67525997	129526002	63	62000005	1.334	1.00
HT29_01vMiSeq_3_NoGC	4	138526001	182525999	45	43999998	1.334	1.00
HT29_01vMiSeq_3_NoGC	5	30370997	129371003	98	99000006	1.334	1.00
HT29_01vMiSeq_3_NoGC	5	160371000	166371000	7	6000000	1.334	1.00
HT29_01vMiSeq_3_NoGC	6	44455002	57455004	14	13000002	1.334	1.00
HT29_01vMiSeq_3_NoGC	6	70454999	147455004	78	77000005	1.334	1.00
HT29_01vMiSeq_3_NoGC	7	7339001	21339000	15	13999999	1.334	1.00
HT29_01vMiSeq_3_NoGC	7	86339003	96339000	11	9999997	1.334	1.00
HT29_01vMiSeq_3_NoGC	7	102338999	126338999	25	24000000	1.334	1.00
HT29_01vMiSeq_3_NoGC	7	144339000	147339000	4	3000000	1.334	1.00
HT29_01vMiSeq_3_NoGC	8	13200000	16200000	4	3000000	1.334	1.00
HT29_01vMiSeq_3_NoGC	8	50200002	110200002	61	60000000	1.334	1.00
HT29_01vMiSeq_3_NoGC	8	146200001	146200001	1	0	1.334	1.00
HT29_01vMiSeq_3_NoGC	9	835002	30835002	31	30000000	1.334	1.00
HT29_01vMiSeq_3_NoGC	9	102835002	108835002	7	6000000	1.334	1.00
HT29_01vMiSeq_3_NoGC	10	52621002	69621000	18	16999998	1.334	1.00
HT29_01vMiSeq_3_NoGC	10	82621002	84620999	3	1999997	1.334	1.00
HT29_01vMiSeq_3_NoGC	11	21086004	42086004	22	21000000	1.334	1.00
HT29_01vMiSeq_3_NoGC	11	48086004	50086001	3	1999997	1.334	1.00
HT29_01vMiSeq_3_NoGC	11	79085999	109085999	31	30000000	1.334	1.00
HT29_01vMiSeq_3_NoGC	12	15079002	47078999	31	31999997	1.334	1.00
HT29_01vMiSeq_3_NoGC	12	58079004	103079003	46	44999999	1.334	1.00
HT29_01vMiSeq_3_NoGC	13	72227004	80227002	9	7999998	1.334	1.00
HT29_01vMiSeq_3_NoGC	13	93227004	109226999	17	15999995	1.334	1.00
HT29_01vMiSeq_3_NoGC	14	25057001	40057002	16	15000001	1.334	1.00
HT29_01vMiSeq_3_NoGC	14	79057002	89057003	11	10000001	1.334	1.00
HT29_01vMiSeq_3_NoGC	16	59175000	64175004	6	5000004	1.334	1.00
HT29_01vMiSeq_3_NoGC	17	49820004	51820002	3	1999998	1.334	1.00
HT29_01vMiSeq_3_NoGC	18	18624000	41624004	24	23000004	1.334	1.00
HT29_01vMiSeq_3_NoGC	18	57624000	70624002	14	13000002	1.334	1.00
HT29_01vMiSeq_3_NoGC	20	5417004	15417000	11	9999996	1.334	1.00
HT29_01vMiSeq_3_NoGC	21	13391003	31391003	19	18000000	1.334	1.00
HT29_01vMiSeq_3_NoGC	23	20956002	36956003	17	16000001	1.334	1.00
HT29_01vMiSeq_3_NoGC	23	76955999	146956001	71	70000002	1.334	1.00
HT29_01vMiSeq_3_NoGC	1	0	47999999	49	47999999	2.66	1.00
HT29_01vMiSeq_3_NoGC	1	200000004	206000004	7	6000000	2.66	1.00
HT29_01vMiSeq_3_NoGC	2	84749003	91748999	8	6999996	2.66	1.00
HT29_01vMiSeq_3_NoGC	2	231749004	242749002	12	10999998	2.66	1.00
HT29_01vMiSeq_3_NoGC	3	8549003	15548999	8	6999996	2.66	1.00
HT29_01vMiSeq_3_NoGC	3	193549001	197549003	5	4000002	2.66	1.00
HT29_01vMiSeq_3_NoGC	4	526001	10526004	11	10000003	2.66	1.00
HT29_01vMiSeq_3_NoGC	5	167371002	180371004	14	13000002	2.66	1.00
HT29_01vMiSeq_3_NoGC	6	29455002	43454999	15	13999997	2.66	1.00
HT29_01vMiSeq_3_NoGC	6	166455000	170455002	5	4000002	2.66	1.00
HT29_01vMiSeq_3_NoGC	7	338999	6339000	7	6000001	2.66	1.00
HT29_01vMiSeq_3_NoGC	7	70339001	76339002	7	6000001	2.66	1.00
HT29_01vMiSeq_3_NoGC	7	97339002	101339004	5	4000002	2.66	1.00
HT29_01vMiSeq_3_NoGC	7	148339002	158339003	11	10000001	2.66	1.00
HT29_01vMiSeq_3_NoGC	8	199998	1199999	2	1000001	2.66	1.00
HT29_01vMiSeq_3_NoGC	10	70621001	81620999	12	10999998	2.66	1.00
HT29_01vMiSeq_3_NoGC	10	122621004	134621003	13	11999999	2.66	1.00
HT29_01vMiSeq_3_NoGC	11	86004	3086004	4	3000000	2.66	1.00
HT29_01vMiSeq_3_NoGC	11	43086000	47086001	5	4000001	2.66	1.00
HT29_01vMiSeq_3_NoGC	11	60086003	78086004	19	18000001	2.66	1.00
HT29_01vMiSeq_3_NoGC	12	48079002	57079001	10	8999999	2.66	1.00
HT29_01vMiSeq_3_NoGC	12	104079000	133079004	30	29000004	2.66	1.00
HT29_01vMiSeq_3_NoGC	13	110227002	114227003	5	4000001	2.66	1.00
HT29_01vMiSeq_3_NoGC	14	18057000	24056999	7	5999999	2.66	1.00
HT29_01vMiSeq_3_NoGC	14	90057000	106057002	17	16000002	2.66	1.00
HT29_01vMiSeq_3_NoGC	15	100706999	101707002	2	1000003	2.66	1.00
HT29_01vMiSeq_3_NoGC	16	175001	58175004	49	58000003	2.66	1.00
HT29_01vMiSeq_3_NoGC	16	65174999	90175001	26	25000002	2.66	1.00
HT29_01vMiSeq_3_NoGC	17	820001	48820001	47	48000000	2.66	1.00
HT29_01vMiSeq_3_NoGC	19	28546001	58546002	31	30000001	2.66	1.00
HT29_01vMiSeq_3_NoGC	20	417000	4417001	5	4000001	2.66	1.00
HT29_01vMiSeq_3_NoGC	20	16417001	62417003	44	46000002	2.66	1.00
HT29_01vMiSeq_3_NoGC	21	9391002	10391003	2	1000001	2.66	1.00
HT29_01vMiSeq_3_NoGC	21	32391000	47390999	16	14999999	2.66	1.00
HT29_01vMiSeq_3_NoGC	22	15260999	51261000	37	36000001	2.66	1.00
HT29_01vMiSeq_3_NoGC	23	956003	1955999	2	999996	2.66	1.00
HT29_01vMiSeq_3_NoGC	8	139200000	145200000	7	6000000	3.34	1.00
HT29_01vMiSeq_3_NoGC	9	128834999	140835000	13	12000001	3.34	1.00
HT29_01vMiSeq_3_NoGC	10	620999	620999	1	0	3.34	1.00
HT29_01vMiSeq_3_NoGC	10	38621003	41621003	2	3000000	3.34	1.00
HT29_01vMiSeq_3_NoGC	17	70820004	80820000	11	9999996	3.34	1.00
HT29_01vMiSeq_3_NoGC	18	77624004	77624004	1	0	3.34	1.00
HT29_01vMiSeq_3_NoGC	19	545999	18546000	19	18000001	3.34	1.00
##Estimated cellularity:0.69
##Estimated ratio:0.916348047734911
##Version:2.0
