Sample       Chr FirstProbe LastProbe   NbSnp  length_min    Type Avg_certainty
HT29_100vMiSeq_2_GC        3  149003 41948999     419  4.18e+07 0.500  1.00
HT29_100vMiSeq_2_GC        3 54649001 90449004     359  3.58e+07 0.500  1.00
HT29_100vMiSeq_2_GC        4 157726001 187225997     296  2.95e+07 0.500  1.00
HT29_100vMiSeq_2_GC        6 77155002 132755003     557  5.56e+07 0.500  1.00
HT29_100vMiSeq_2_GC        6 151455000 156455004      51  5.00e+06 0.500  1.00
HT29_100vMiSeq_2_GC        8  199998 42800003     427  4.26e+07 0.500  1.00
HT29_100vMiSeq_2_GC        8 105400002 106900002      16  1.50e+06 0.500  1.00
HT29_100vMiSeq_2_GC       14 18957000 99157001     803  8.02e+07 0.500  1.00
HT29_100vMiSeq_2_GC       16 6374999 6875004       6  5.00e+05 0.500  1.00
HT29_100vMiSeq_2_GC       17 8420003 22220004     139  1.38e+07 0.500  1.00
HT29_100vMiSeq_2_GC       18 18524003 77724000     593  5.92e+07 0.500  1.00
HT29_100vMiSeq_2_GC       19 19946004 24446004      46  4.50e+06 0.500  1.00
HT29_100vMiSeq_2_GC       20 14517000 15716999      13  1.20e+06 0.500  1.00
HT29_100vMiSeq_2_GC       21 9391002 10591001      13  1.20e+06 0.500  1.00
HT29_100vMiSeq_2_GC       21 14591004 35191001     207  2.06e+07 0.500  1.00
HT29_100vMiSeq_2_GC       22 16061004 18861000      29  2.80e+06 0.500  1.00
HT29_100vMiSeq_2_GC        X  756000 16055999     154  1.53e+07 0.500  1.00
HT29_100vMiSeq_2_GC        X 23456004 41856000     185  1.84e+07 0.500  1.00
HT29_100vMiSeq_2_GC        1 121500000 142400003     210  2.09e+07  1.50  1.00
HT29_100vMiSeq_2_GC        3 90548999 93349001      29  2.80e+06  1.50  1.00
HT29_100vMiSeq_2_GC        3 118749000 129849000     112  1.11e+07  1.50  1.00
HT29_100vMiSeq_2_GC        4 191026002 191126004       2  1.00e+05  1.50  1.00
HT29_100vMiSeq_2_GC        5   70997 4571004      46  4.50e+06  1.50  1.00
HT29_100vMiSeq_2_GC        6 171055001 171055001       1   0.00  1.50  1.00
HT29_100vMiSeq_2_GC        7   39000 7239000      73  7.20e+06  1.50  1.00
HT29_100vMiSeq_2_GC        7 21439002 48239003     269  2.68e+07  1.50  1.00
HT29_100vMiSeq_2_GC        7 71839002 77939004      62  6.10e+06  1.50  1.00
HT29_100vMiSeq_2_GC        7 90939000 117539003     267  2.66e+07  1.50  1.00
HT29_100vMiSeq_2_GC        7 127139003 159038999     320  3.19e+07  1.50  1.00
HT29_100vMiSeq_2_GC        8       0  100001       2  1.00e+05  1.50  1.00
HT29_100vMiSeq_2_GC        8 94399998 105300000     110  1.09e+07  1.50  1.00
HT29_100vMiSeq_2_GC        8 142700003 146300004      37  3.60e+06  1.50  1.00
HT29_100vMiSeq_2_GC        9 47335001 65335002     181  1.80e+07  1.50  1.00
HT29_100vMiSeq_2_GC       10 38721000 42221003      36  3.50e+06  1.50  1.00
HT29_100vMiSeq_2_GC       11  185999 20285999     202  2.01e+07  1.50  1.00
HT29_100vMiSeq_2_GC       11 43486002 48185999      48  4.70e+06  1.50  1.00
HT29_100vMiSeq_2_GC       11 51386003 78786000     275  2.74e+07  1.50  1.00
HT29_100vMiSeq_2_GC       11 107686001 134986002     274  2.73e+07  1.50  1.00
HT29_100vMiSeq_2_GC       12   79002  379001       4  3.00e+05  1.50  1.00
HT29_100vMiSeq_2_GC       12 133579002 133779000       3  2.00e+05  1.50  1.00
HT29_100vMiSeq_2_GC       13   27000 19027001     191  1.90e+07  1.50  1.00
HT29_100vMiSeq_2_GC       13 33227003 37826999      47  4.60e+06  1.50  1.00
HT29_100vMiSeq_2_GC       13 40127003 52927001     129  1.28e+07  1.50  1.00
HT29_100vMiSeq_2_GC       13 72626999 76727003      42  4.10e+06  1.50  1.00
HT29_100vMiSeq_2_GC       13 94927002 115127003     203  2.02e+07  1.50  1.00
HT29_100vMiSeq_2_GC       14   56999 18857003     189  1.88e+07  1.50  1.00
HT29_100vMiSeq_2_GC       15    7002 23507004     236  2.35e+07  1.50  1.00
HT29_100vMiSeq_2_GC       15 30907002 102506999     717  7.16e+07  1.50  1.00
HT29_100vMiSeq_2_GC       16   75000   75000       1   0.00  1.50  1.00
HT29_100vMiSeq_2_GC       16 35375004 46275000     110  1.09e+07  1.50  1.00
HT29_100vMiSeq_2_GC       17 22320000 25120001      29  2.80e+06  1.50  1.00
HT29_100vMiSeq_2_GC       17 29220000 38820000      97  9.60e+06  1.50  1.00
HT29_100vMiSeq_2_GC       17 63320003 66220001      30  2.90e+06  1.50  1.00
HT29_100vMiSeq_2_GC       18 8423999 18324000     100  9.90e+06  1.50  1.00
HT29_100vMiSeq_2_GC       19 28246001 33346002      52  5.10e+06  1.50  1.00
HT29_100vMiSeq_2_GC       20 50717004 63017004     124  1.23e+07  1.50  1.00
HT29_100vMiSeq_2_GC       21   91001 9290999      93  9.20e+06  1.50  1.00
HT29_100vMiSeq_2_GC       21 48091001 48091001       1   0.00  1.50  1.00
HT29_100vMiSeq_2_GC       22   61001 15961001     160  1.59e+07  1.50  1.00
HT29_100vMiSeq_2_GC        X 148356000 155156003      69  6.80e+06  1.50  1.00
HT29_100vMiSeq_2_GC        1       0  500004       6  5.00e+05  2.00  1.00
HT29_100vMiSeq_2_GC       13 19127003 26327004      73  7.20e+06  2.00  1.00
HT29_100vMiSeq_2_GC       19 33446003 59045999     257  2.56e+07  2.00  1.00
HT29_100vMiSeq_2_GC       20 29816999 50617001     209  2.08e+07  2.00  1.00
HT29_100vMiSeq_2_GC       22 18961002 20261003      14  1.30e+06  2.00  1.00
HT29_100vMiSeq_2_GC       13 26426999 33127002      68  6.70e+06  2.50  1.00
HT29_100vMiSeq_2_GC        8 115200000 142600002     275  2.74e+07  3.50  1.00
##Estimated cellularity:1.0
##Estimated ratio:1.046
##Version:2.0
