HT29_05vMiSeq_3_NoGC	8.0:4.2200004000000216E7	0	1.0
HT29_05vMiSeq_3_NoGC	1.0:1.8600000000000003E8	1	1.0
HT29_05vMiSeq_3_NoGC	1.0:1.8700000200000003E8	1	1.0
HT29_05vMiSeq_3_NoGC	1.0:1.88000004E8	1	1.0
HT29_05vMiSeq_3_NoGC	1.0:1.8899999999999997E8	1	1.0
HT29_05vMiSeq_3_NoGC	1.0:1.9000000200000003E8	1	1.0
HT29_05vMiSeq_3_NoGC	1.0:1.91000004E8	1	1.0
HT29_05vMiSeq_3_NoGC	1.0:1.9199999999999997E8	1	1.0
HT29_05vMiSeq_3_NoGC	1.0:1.9300000200000003E8	1	1.0
HT29_05vMiSeq_3_NoGC	1.0:1.94000004E8	1	1.0
HT29_05vMiSeq_3_NoGC	1.0:1.9499999999999997E8	1	1.0
HT29_05vMiSeq_3_NoGC	1.0:1.9600000200000003E8	1	1.0
HT29_05vMiSeq_3_NoGC	1.0:1.9700000400000003E8	1	1.0
HT29_05vMiSeq_3_NoGC	1.0:1.9799999999999997E8	1	1.0
HT29_05vMiSeq_3_NoGC	1.0:1.9900000200000003E8	1	1.0
HT29_05vMiSeq_3_NoGC	13.0:5.4227004E7	1	1.0
HT29_05vMiSeq_3_NoGC	13.0:5.522699999999983E7	1	1.0
HT29_05vMiSeq_3_NoGC	13.0:5.622700200000015E7	1	1.0
HT29_05vMiSeq_3_NoGC	13.0:5.722700399999994E7	1	1.0
HT29_05vMiSeq_3_NoGC	13.0:5.822699999999976E7	1	1.0
HT29_05vMiSeq_3_NoGC	13.0:5.922700200000008E7	1	1.0
HT29_05vMiSeq_3_NoGC	13.0:6.022700399999987E7	1	1.0
HT29_05vMiSeq_3_NoGC	13.0:6.122700000000023E7	1	1.0
HT29_05vMiSeq_3_NoGC	13.0:6.222700200000002E7	1	1.0
HT29_05vMiSeq_3_NoGC	13.0:6.322700399999981E7	1	1.0
HT29_05vMiSeq_3_NoGC	13.0:6.4227000000000164E7	1	1.0
HT29_05vMiSeq_3_NoGC	13.0:6.5227001999999955E7	1	1.0
HT29_05vMiSeq_3_NoGC	13.0:6.622700399999975E7	1	1.0
HT29_05vMiSeq_3_NoGC	13.0:6.72270000000001E7	1	1.0
HT29_05vMiSeq_3_NoGC	13.0:6.82270019999999E7	1	1.0
HT29_05vMiSeq_3_NoGC	13.0:6.922700400000021E7	1	1.0
HT29_05vMiSeq_3_NoGC	13.0:7.022700000000004E7	1	1.0
HT29_05vMiSeq_3_NoGC	13.0:7.122700199999982E7	1	1.0
HT29_05vMiSeq_3_NoGC	1.0:4.900000200000003E7	2	1.0
HT29_05vMiSeq_3_NoGC	1.0:4.999999799999999E7	2	1.0
HT29_05vMiSeq_3_NoGC	1.0:5.099999999999998E7	2	1.0
HT29_05vMiSeq_3_NoGC	1.0:5.200000199999997E7	2	1.0
HT29_05vMiSeq_3_NoGC	1.0:5.299999799999999E7	2	1.0
HT29_05vMiSeq_3_NoGC	1.0:5.399999999999998E7	2	1.0
HT29_05vMiSeq_3_NoGC	1.0:5.500000199999997E7	2	1.0
HT29_05vMiSeq_3_NoGC	1.0:5.599999799999999E7	2	1.0
HT29_05vMiSeq_3_NoGC	1.0:5.6999999999999985E7	2	1.0
HT29_05vMiSeq_3_NoGC	1.0:5.800000199999997E7	2	1.0
HT29_05vMiSeq_3_NoGC	1.0:5.900000400000003E7	2	1.0
HT29_05vMiSeq_3_NoGC	1.0:5.9999999999999985E7	2	1.0
HT29_05vMiSeq_3_NoGC	1.0:6.100000199999998E7	2	1.0
HT29_05vMiSeq_3_NoGC	1.0:6.200000400000003E7	2	1.0
HT29_05vMiSeq_3_NoGC	1.0:6.299999999999999E7	2	1.0
HT29_05vMiSeq_3_NoGC	1.0:6.400000199999998E7	2	1.0
HT29_05vMiSeq_3_NoGC	1.0:6.500000399999997E7	2	1.0
HT29_05vMiSeq_3_NoGC	1.0:6.599999999999999E7	2	1.0
HT29_05vMiSeq_3_NoGC	1.0:6.700000199999998E7	2	1.0
HT29_05vMiSeq_3_NoGC	1.0:6.800000399999997E7	2	1.0
HT29_05vMiSeq_3_NoGC	1.0:6.9E7	2	1.0
HT29_05vMiSeq_3_NoGC	1.0:7.000000199999999E7	2	1.0
HT29_05vMiSeq_3_NoGC	1.0:7.100000399999997E7	2	1.0
HT29_05vMiSeq_3_NoGC	1.0:7.2E7	2	1.0
HT29_05vMiSeq_3_NoGC	1.0:7.300000199999999E7	2	1.0
HT29_05vMiSeq_3_NoGC	1.0:7.400000399999997E7	2	1.0
HT29_05vMiSeq_3_NoGC	1.0:7.5E7	2	1.0
HT29_05vMiSeq_3_NoGC	1.0:7.600000199999999E7	2	1.0
HT29_05vMiSeq_3_NoGC	1.0:7.700000399999997E7	2	1.0
HT29_05vMiSeq_3_NoGC	1.0:7.8E7	2	1.0
HT29_05vMiSeq_3_NoGC	1.0:7.900000199999999E7	2	1.0
HT29_05vMiSeq_3_NoGC	1.0:8.000000399999999E7	2	1.0
HT29_05vMiSeq_3_NoGC	1.0:8.1E7	2	1.0
HT29_05vMiSeq_3_NoGC	1.0:8.2000002E7	2	1.0
HT29_05vMiSeq_3_NoGC	1.0:8.300000399999999E7	2	1.0
HT29_05vMiSeq_3_NoGC	1.0:8.400000000000001E7	2	1.0
HT29_05vMiSeq_3_NoGC	1.0:8.5000002E7	2	1.0
HT29_05vMiSeq_3_NoGC	1.0:8.600000399999999E7	2	1.0
HT29_05vMiSeq_3_NoGC	1.0:8.700000000000001E7	2	1.0
HT29_05vMiSeq_3_NoGC	1.0:8.8000002E7	2	1.0
HT29_05vMiSeq_3_NoGC	1.0:8.900000399999999E7	2	1.0
HT29_05vMiSeq_3_NoGC	1.0:9.000000000000001E7	2	1.0
HT29_05vMiSeq_3_NoGC	1.0:9.1000002E7	2	1.0
HT29_05vMiSeq_3_NoGC	1.0:9.200000399999999E7	2	1.0
HT29_05vMiSeq_3_NoGC	1.0:9.300000000000001E7	2	1.0
HT29_05vMiSeq_3_NoGC	1.0:9.4000002E7	2	1.0
HT29_05vMiSeq_3_NoGC	1.0:9.5000004E7	2	1.0
HT29_05vMiSeq_3_NoGC	1.0:9.600000000000001E7	2	1.0
HT29_05vMiSeq_3_NoGC	1.0:9.7000002E7	2	1.0
HT29_05vMiSeq_3_NoGC	1.0:9.8000004E7	2	1.0
HT29_05vMiSeq_3_NoGC	1.0:9.900000000000001E7	2	1.0
HT29_05vMiSeq_3_NoGC	1.0:1.0000000200000001E8	2	1.0
HT29_05vMiSeq_3_NoGC	1.0:1.01000004E8	2	1.0
HT29_05vMiSeq_3_NoGC	1.0:1.0200000000000003E8	2	1.0
HT29_05vMiSeq_3_NoGC	1.0:1.0300000200000001E8	2	1.0
HT29_05vMiSeq_3_NoGC	1.0:1.04000004E8	2	1.0
HT29_05vMiSeq_3_NoGC	1.0:1.0500000000000003E8	2	1.0
HT29_05vMiSeq_3_NoGC	1.0:1.0600000200000001E8	2	1.0
HT29_05vMiSeq_3_NoGC	1.0:1.07000004E8	2	1.0
HT29_05vMiSeq_3_NoGC	1.0:1.0800000000000003E8	2	1.0
HT29_05vMiSeq_3_NoGC	1.0:1.0900000200000001E8	2	1.0
HT29_05vMiSeq_3_NoGC	1.0:1.10000004E8	2	1.0
HT29_05vMiSeq_3_NoGC	1.0:1.1100000000000003E8	2	1.0
HT29_05vMiSeq_3_NoGC	1.0:1.1200000200000001E8	2	1.0
HT29_05vMiSeq_3_NoGC	1.0:1.1300000400000001E8	2	1.0
HT29_05vMiSeq_3_NoGC	1.0:1.1399999999999997E8	2	1.0
HT29_05vMiSeq_3_NoGC	1.0:1.1500000200000003E8	2	1.0
HT29_05vMiSeq_3_NoGC	1.0:1.1600000400000001E8	2	1.0
HT29_05vMiSeq_3_NoGC	1.0:1.1699999999999997E8	2	1.0
HT29_05vMiSeq_3_NoGC	1.0:1.1800000200000003E8	2	1.0
HT29_05vMiSeq_3_NoGC	1.0:1.1900000400000001E8	2	1.0
HT29_05vMiSeq_3_NoGC	1.0:1.1999999999999997E8	2	1.0
HT29_05vMiSeq_3_NoGC	1.0:1.2100000200000003E8	2	1.0
HT29_05vMiSeq_3_NoGC	2.0:3.1749000000000026E7	2	1.0
HT29_05vMiSeq_3_NoGC	2.0:3.2749001999999948E7	2	1.0
HT29_05vMiSeq_3_NoGC	2.0:3.374900400000001E7	2	1.0
HT29_05vMiSeq_3_NoGC	2.0:3.474899999999996E7	2	1.0
HT29_05vMiSeq_3_NoGC	2.0:3.5749002000000015E7	2	1.0
HT29_05vMiSeq_3_NoGC	2.0:3.674900399999994E7	2	1.0
HT29_05vMiSeq_3_NoGC	2.0:3.774900000000003E7	2	1.0
HT29_05vMiSeq_3_NoGC	2.0:3.8749001999999955E7	2	1.0
HT29_05vMiSeq_3_NoGC	2.0:3.974900400000001E7	2	1.0
HT29_05vMiSeq_3_NoGC	2.0:4.074899999999997E7	2	1.0
HT29_05vMiSeq_3_NoGC	2.0:4.174900200000002E7	2	1.0
HT29_05vMiSeq_3_NoGC	2.0:4.274900399999995E7	2	1.0
HT29_05vMiSeq_3_NoGC	2.0:4.374900000000004E7	2	1.0
HT29_05vMiSeq_3_NoGC	2.0:4.474900199999996E7	2	1.0
HT29_05vMiSeq_3_NoGC	2.0:4.5749004000000015E7	2	1.0
HT29_05vMiSeq_3_NoGC	2.0:4.674899999999997E7	2	1.0
HT29_05vMiSeq_3_NoGC	2.0:4.774900200000003E7	2	1.0
HT29_05vMiSeq_3_NoGC	2.0:4.874900399999995E7	2	1.0
HT29_05vMiSeq_3_NoGC	2.0:4.9749000000000045E7	2	1.0
HT29_05vMiSeq_3_NoGC	2.0:5.074900199999996E7	2	1.0
HT29_05vMiSeq_3_NoGC	2.0:5.174900400000002E7	2	1.0
HT29_05vMiSeq_3_NoGC	2.0:5.274899999999998E7	2	1.0
HT29_05vMiSeq_3_NoGC	2.0:5.374900200000004E7	2	1.0
HT29_05vMiSeq_3_NoGC	2.0:5.4749003999999955E7	2	1.0
HT29_05vMiSeq_3_NoGC	2.0:5.574900000000005E7	2	1.0
HT29_05vMiSeq_3_NoGC	2.0:5.674900199999997E7	2	1.0
HT29_05vMiSeq_3_NoGC	2.0:5.774900400000002E7	2	1.0
HT29_05vMiSeq_3_NoGC	2.0:5.8748999999999985E7	2	1.0
HT29_05vMiSeq_3_NoGC	2.0:5.974900200000004E7	2	1.0
HT29_05vMiSeq_3_NoGC	2.0:6.074900399999996E7	2	1.0
HT29_05vMiSeq_3_NoGC	2.0:6.174900000000005E7	2	1.0
HT29_05vMiSeq_3_NoGC	2.0:6.274900199999998E7	2	1.0
HT29_05vMiSeq_3_NoGC	2.0:6.374900400000003E7	2	1.0
HT29_05vMiSeq_3_NoGC	2.0:6.474899999999999E7	2	1.0
HT29_05vMiSeq_3_NoGC	2.0:6.5749002000000045E7	2	1.0
HT29_05vMiSeq_3_NoGC	2.0:6.674900399999997E7	2	1.0
HT29_05vMiSeq_3_NoGC	2.0:6.774900000000006E7	2	1.0
HT29_05vMiSeq_3_NoGC	2.0:6.874900199999999E7	2	1.0
HT29_05vMiSeq_3_NoGC	2.0:6.974900400000003E7	2	1.0
HT29_05vMiSeq_3_NoGC	2.0:7.0749E7	2	1.0
HT29_05vMiSeq_3_NoGC	2.0:7.174900200000004E7	2	1.0
HT29_05vMiSeq_3_NoGC	2.0:7.274900399999997E7	2	1.0
HT29_05vMiSeq_3_NoGC	2.0:7.374900000000006E7	2	1.0
HT29_05vMiSeq_3_NoGC	2.0:7.474900199999999E7	2	1.0
HT29_05vMiSeq_3_NoGC	2.0:7.574900400000004E7	2	1.0
HT29_05vMiSeq_3_NoGC	2.0:7.6749E7	2	1.0
HT29_05vMiSeq_3_NoGC	2.0:7.774900200000006E7	2	1.0
HT29_05vMiSeq_3_NoGC	2.0:7.874900399999999E7	2	1.0
HT29_05vMiSeq_3_NoGC	2.0:7.974899999999994E7	2	1.0
HT29_05vMiSeq_3_NoGC	2.0:8.074900199999999E7	2	1.0
HT29_05vMiSeq_3_NoGC	2.0:8.174899799999996E7	2	1.0
HT29_05vMiSeq_3_NoGC	2.0:8.2749E7	2	1.0
HT29_05vMiSeq_3_NoGC	2.0:8.374900200000006E7	2	1.0
HT29_05vMiSeq_3_NoGC	2.0:8.474900399999999E7	2	1.0
HT29_05vMiSeq_3_NoGC	2.0:8.574899999999994E7	2	1.0
HT29_05vMiSeq_3_NoGC	2.0:8.6749002E7	2	1.0
HT29_05vMiSeq_3_NoGC	2.0:8.774900400000006E7	2	1.0
HT29_05vMiSeq_3_NoGC	2.0:8.874900000000001E7	2	1.0
HT29_05vMiSeq_3_NoGC	2.0:1.1474900400000001E8	2	1.0
HT29_05vMiSeq_3_NoGC	2.0:1.1574899999999997E8	2	1.0
HT29_05vMiSeq_3_NoGC	2.0:1.1674900200000003E8	2	1.0
HT29_05vMiSeq_3_NoGC	2.0:1.1774900399999994E8	2	1.0
HT29_05vMiSeq_3_NoGC	2.0:1.1874900000000004E8	2	1.0
HT29_05vMiSeq_3_NoGC	2.0:1.1974900199999996E8	2	1.0
HT29_05vMiSeq_3_NoGC	2.0:1.2074900400000001E8	2	1.0
HT29_05vMiSeq_3_NoGC	2.0:1.2174899999999997E8	2	1.0
HT29_05vMiSeq_3_NoGC	2.0:1.2274900200000003E8	2	1.0
HT29_05vMiSeq_3_NoGC	2.0:1.2374900399999996E8	2	1.0
HT29_05vMiSeq_3_NoGC	2.0:1.2474900000000004E8	2	1.0
HT29_05vMiSeq_3_NoGC	2.0:1.2574900199999997E8	2	1.0
HT29_05vMiSeq_3_NoGC	2.0:1.2674900400000001E8	2	1.0
HT29_05vMiSeq_3_NoGC	2.0:1.2774899999999999E8	2	1.0
HT29_05vMiSeq_3_NoGC	2.0:1.2874900200000003E8	2	1.0
HT29_05vMiSeq_3_NoGC	2.0:1.2974900399999996E8	2	1.0
HT29_05vMiSeq_3_NoGC	2.0:1.3074900000000004E8	2	1.0
HT29_05vMiSeq_3_NoGC	2.0:1.3174900199999997E8	2	1.0
HT29_05vMiSeq_3_NoGC	2.0:1.3274900400000003E8	2	1.0
HT29_05vMiSeq_3_NoGC	2.0:1.3374899999999999E8	2	1.0
HT29_05vMiSeq_3_NoGC	2.0:1.3474900200000003E8	2	1.0
HT29_05vMiSeq_3_NoGC	2.0:1.3574900399999997E8	2	1.0
HT29_05vMiSeq_3_NoGC	2.0:1.3674900000000006E8	2	1.0
HT29_05vMiSeq_3_NoGC	2.0:1.3774900199999997E8	2	1.0
HT29_05vMiSeq_3_NoGC	2.0:1.3874900400000003E8	2	1.0
HT29_05vMiSeq_3_NoGC	2.0:1.39749E8	2	1.0
HT29_05vMiSeq_3_NoGC	2.0:1.4074900200000006E8	2	1.0
HT29_05vMiSeq_3_NoGC	2.0:1.4174900399999997E8	2	1.0
HT29_05vMiSeq_3_NoGC	2.0:1.4274900000000006E8	2	1.0
HT29_05vMiSeq_3_NoGC	2.0:1.4374900199999997E8	2	1.0
HT29_05vMiSeq_3_NoGC	2.0:1.4474900400000003E8	2	1.0
HT29_05vMiSeq_3_NoGC	2.0:1.45749E8	2	1.0
HT29_05vMiSeq_3_NoGC	2.0:1.4674900200000006E8	2	1.0
HT29_05vMiSeq_3_NoGC	2.0:1.4774900399999997E8	2	1.0
HT29_05vMiSeq_3_NoGC	2.0:1.4874900000000006E8	2	1.0
HT29_05vMiSeq_3_NoGC	2.0:1.49749002E8	2	1.0
HT29_05vMiSeq_3_NoGC	2.0:1.5074900400000003E8	2	1.0
HT29_05vMiSeq_3_NoGC	2.0:1.51749E8	2	1.0
HT29_05vMiSeq_3_NoGC	2.0:1.5274900200000006E8	2	1.0
HT29_05vMiSeq_3_NoGC	2.0:1.5374900399999997E8	2	1.0
HT29_05vMiSeq_3_NoGC	2.0:1.5474899999999994E8	2	1.0
HT29_05vMiSeq_3_NoGC	2.0:1.55749002E8	2	1.0
HT29_05vMiSeq_3_NoGC	2.0:1.5674899799999994E8	2	1.0
HT29_05vMiSeq_3_NoGC	2.0:1.57749E8	2	1.0
HT29_05vMiSeq_3_NoGC	2.0:1.5874900200000006E8	2	1.0
HT29_05vMiSeq_3_NoGC	2.0:1.5974900399999997E8	2	1.0
HT29_05vMiSeq_3_NoGC	2.0:1.6074899999999994E8	2	1.0
HT29_05vMiSeq_3_NoGC	2.0:1.61749002E8	2	1.0
HT29_05vMiSeq_3_NoGC	2.0:1.6274900400000006E8	2	1.0
HT29_05vMiSeq_3_NoGC	2.0:1.63749E8	2	1.0
HT29_05vMiSeq_3_NoGC	2.0:1.6474900200000006E8	2	1.0
HT29_05vMiSeq_3_NoGC	2.0:1.65749004E8	2	1.0
HT29_05vMiSeq_3_NoGC	2.0:1.6674899999999994E8	2	1.0
HT29_05vMiSeq_3_NoGC	2.0:1.67749002E8	2	1.0
HT29_05vMiSeq_3_NoGC	2.0:1.6874899799999997E8	2	1.0
HT29_05vMiSeq_3_NoGC	2.0:1.6974900000000003E8	2	1.0
HT29_05vMiSeq_3_NoGC	2.0:1.7074900199999994E8	2	1.0
HT29_05vMiSeq_3_NoGC	2.0:1.71749004E8	2	1.0
HT29_05vMiSeq_3_NoGC	2.0:1.7274899999999994E8	2	1.0
HT29_05vMiSeq_3_NoGC	2.0:1.73749002E8	2	1.0
HT29_05vMiSeq_3_NoGC	2.0:1.7474900400000006E8	2	1.0
HT29_05vMiSeq_3_NoGC	2.0:1.7574900000000003E8	2	1.0
HT29_05vMiSeq_3_NoGC	2.0:1.7674900199999994E8	2	1.0
HT29_05vMiSeq_3_NoGC	2.0:1.77749004E8	2	1.0
HT29_05vMiSeq_3_NoGC	2.0:1.7874899999999997E8	2	1.0
HT29_05vMiSeq_3_NoGC	2.0:1.79749002E8	2	1.0
HT29_05vMiSeq_3_NoGC	2.0:1.8074899799999997E8	2	1.0
HT29_05vMiSeq_3_NoGC	2.0:1.8174900000000003E8	2	1.0
HT29_05vMiSeq_3_NoGC	2.0:1.8274900199999994E8	2	1.0
HT29_05vMiSeq_3_NoGC	2.0:1.83749004E8	2	1.0
HT29_05vMiSeq_3_NoGC	2.0:1.8474899999999997E8	2	1.0
HT29_05vMiSeq_3_NoGC	2.0:1.8574900200000003E8	2	1.0
HT29_05vMiSeq_3_NoGC	2.0:1.8674900399999994E8	2	1.0
HT29_05vMiSeq_3_NoGC	2.0:1.8774900000000003E8	2	1.0
HT29_05vMiSeq_3_NoGC	2.0:1.8874900199999994E8	2	1.0
HT29_05vMiSeq_3_NoGC	2.0:1.89749004E8	2	1.0
HT29_05vMiSeq_3_NoGC	2.0:1.9074899999999997E8	2	1.0
HT29_05vMiSeq_3_NoGC	2.0:1.9174900200000003E8	2	1.0
HT29_05vMiSeq_3_NoGC	2.0:1.9274900399999994E8	2	1.0
HT29_05vMiSeq_3_NoGC	2.0:1.9374900000000003E8	2	1.0
HT29_05vMiSeq_3_NoGC	2.0:1.9474900199999997E8	2	1.0
HT29_05vMiSeq_3_NoGC	2.0:1.9574900400000003E8	2	1.0
HT29_05vMiSeq_3_NoGC	2.0:1.9674899999999997E8	2	1.0
HT29_05vMiSeq_3_NoGC	2.0:1.9774900200000003E8	2	1.0
HT29_05vMiSeq_3_NoGC	2.0:1.9874900399999994E8	2	1.0
HT29_05vMiSeq_3_NoGC	2.0:1.9974900000000003E8	2	1.0
HT29_05vMiSeq_3_NoGC	2.0:2.0074900199999997E8	2	1.0
HT29_05vMiSeq_3_NoGC	2.0:2.0174900400000003E8	2	1.0
HT29_05vMiSeq_3_NoGC	2.0:2.0274899999999997E8	2	1.0
HT29_05vMiSeq_3_NoGC	2.0:2.0374900200000003E8	2	1.0
HT29_05vMiSeq_3_NoGC	2.0:2.0474900399999997E8	2	1.0
HT29_05vMiSeq_3_NoGC	2.0:2.0574900000000006E8	2	1.0
HT29_05vMiSeq_3_NoGC	2.0:2.0674900199999997E8	2	1.0
HT29_05vMiSeq_3_NoGC	2.0:2.0774900400000003E8	2	1.0
HT29_05vMiSeq_3_NoGC	2.0:2.0874899999999997E8	2	1.0
HT29_05vMiSeq_3_NoGC	2.0:2.0974900200000003E8	2	1.0
HT29_05vMiSeq_3_NoGC	2.0:2.1074900399999997E8	2	1.0
HT29_05vMiSeq_3_NoGC	2.0:2.1174900000000006E8	2	1.0
HT29_05vMiSeq_3_NoGC	2.0:2.1274900199999997E8	2	1.0
HT29_05vMiSeq_3_NoGC	2.0:2.1374900400000003E8	2	1.0
HT29_05vMiSeq_3_NoGC	2.0:2.14749E8	2	1.0
HT29_05vMiSeq_3_NoGC	2.0:2.1574900200000006E8	2	1.0
HT29_05vMiSeq_3_NoGC	3.0:1.6549002000000002E7	2	1.0
HT29_05vMiSeq_3_NoGC	3.0:1.7549004000000056E7	2	1.0
HT29_05vMiSeq_3_NoGC	3.0:1.8549000000000015E7	2	1.0
HT29_05vMiSeq_3_NoGC	3.0:1.9549001999999937E7	2	1.0
HT29_05vMiSeq_3_NoGC	3.0:2.0549003999999993E7	2	1.0
HT29_05vMiSeq_3_NoGC	3.0:2.154899999999995E7	2	1.0
HT29_05vMiSeq_3_NoGC	3.0:2.2549002000000007E7	2	1.0
HT29_05vMiSeq_3_NoGC	3.0:2.3549004000000063E7	2	1.0
HT29_05vMiSeq_3_NoGC	3.0:2.4549000000000022E7	2	1.0
HT29_05vMiSeq_3_NoGC	3.0:2.5549001999999944E7	2	1.0
HT29_05vMiSeq_3_NoGC	3.0:2.6549004E7	2	1.0
HT29_05vMiSeq_3_NoGC	3.0:2.7548999999999955E7	2	1.0
HT29_05vMiSeq_3_NoGC	3.0:2.854900200000001E7	2	1.0
HT29_05vMiSeq_3_NoGC	3.0:2.9549003999999933E7	2	1.0
HT29_05vMiSeq_3_NoGC	3.0:3.0549000000000026E7	2	1.0
HT29_05vMiSeq_3_NoGC	3.0:3.1549001999999948E7	2	1.0
HT29_05vMiSeq_3_NoGC	3.0:3.2549004000000004E7	2	1.0
HT29_05vMiSeq_3_NoGC	3.0:3.3548999999999963E7	2	1.0
HT29_05vMiSeq_3_NoGC	3.0:3.4549002000000015E7	2	1.0
HT29_05vMiSeq_3_NoGC	3.0:3.554900399999994E7	2	1.0
HT29_05vMiSeq_3_NoGC	3.0:5.7548999999999985E7	2	1.0
HT29_05vMiSeq_3_NoGC	3.0:5.854900200000004E7	2	1.0
HT29_05vMiSeq_3_NoGC	3.0:5.954900399999996E7	2	1.0
HT29_05vMiSeq_3_NoGC	3.0:6.054900000000005E7	2	1.0
HT29_05vMiSeq_3_NoGC	3.0:6.154900199999998E7	2	1.0
HT29_05vMiSeq_3_NoGC	3.0:6.254900400000003E7	2	1.0
HT29_05vMiSeq_3_NoGC	3.0:6.354899999999999E7	2	1.0
HT29_05vMiSeq_3_NoGC	3.0:6.4549002000000045E7	2	1.0
HT29_05vMiSeq_3_NoGC	3.0:6.554900399999996E7	2	1.0
HT29_05vMiSeq_3_NoGC	3.0:6.654900000000006E7	2	1.0
HT29_05vMiSeq_3_NoGC	3.0:6.754900199999999E7	2	1.0
HT29_05vMiSeq_3_NoGC	3.0:6.854900400000003E7	2	1.0
HT29_05vMiSeq_3_NoGC	3.0:6.9549E7	2	1.0
HT29_05vMiSeq_3_NoGC	3.0:7.054900200000004E7	2	1.0
HT29_05vMiSeq_3_NoGC	3.0:7.154900399999997E7	2	1.0
HT29_05vMiSeq_3_NoGC	3.0:7.254900000000006E7	2	1.0
HT29_05vMiSeq_3_NoGC	3.0:7.354900199999999E7	2	1.0
HT29_05vMiSeq_3_NoGC	3.0:7.454900400000004E7	2	1.0
HT29_05vMiSeq_3_NoGC	3.0:7.5549E7	2	1.0
HT29_05vMiSeq_3_NoGC	3.0:7.654900200000006E7	2	1.0
HT29_05vMiSeq_3_NoGC	3.0:7.754900399999997E7	2	1.0
HT29_05vMiSeq_3_NoGC	3.0:7.854899999999994E7	2	1.0
HT29_05vMiSeq_3_NoGC	3.0:7.954900199999999E7	2	1.0
HT29_05vMiSeq_3_NoGC	3.0:8.054900400000004E7	2	1.0
HT29_05vMiSeq_3_NoGC	3.0:8.1549E7	2	1.0
HT29_05vMiSeq_3_NoGC	3.0:8.254900200000006E7	2	1.0
HT29_05vMiSeq_3_NoGC	3.0:8.354900399999999E7	2	1.0
HT29_05vMiSeq_3_NoGC	3.0:8.454899999999994E7	2	1.0
HT29_05vMiSeq_3_NoGC	3.0:8.5549002E7	2	1.0
HT29_05vMiSeq_3_NoGC	3.0:8.654900400000004E7	2	1.0
HT29_05vMiSeq_3_NoGC	3.0:8.754900000000001E7	2	1.0
HT29_05vMiSeq_3_NoGC	3.0:8.854900200000006E7	2	1.0
HT29_05vMiSeq_3_NoGC	3.0:8.954900399999999E7	2	1.0
HT29_05vMiSeq_3_NoGC	3.0:9.254900400000006E7	2	1.0
HT29_05vMiSeq_3_NoGC	3.0:9.354900000000001E7	2	1.0
HT29_05vMiSeq_3_NoGC	3.0:9.454900199999994E7	2	1.0
HT29_05vMiSeq_3_NoGC	3.0:9.5549004E7	2	1.0
HT29_05vMiSeq_3_NoGC	3.0:9.654899999999996E7	2	1.0
HT29_05vMiSeq_3_NoGC	3.0:9.7549002E7	2	1.0
HT29_05vMiSeq_3_NoGC	3.0:9.854900400000006E7	2	1.0
HT29_05vMiSeq_3_NoGC	3.0:9.954900000000001E7	2	1.0
HT29_05vMiSeq_3_NoGC	3.0:1.0054900199999994E8	2	1.0
HT29_05vMiSeq_3_NoGC	3.0:1.01549004E8	2	1.0
HT29_05vMiSeq_3_NoGC	3.0:1.0254899999999996E8	2	1.0
HT29_05vMiSeq_3_NoGC	3.0:1.0354900200000001E8	2	1.0
HT29_05vMiSeq_3_NoGC	3.0:1.0454900399999994E8	2	1.0
HT29_05vMiSeq_3_NoGC	3.0:1.0554900000000003E8	2	1.0
HT29_05vMiSeq_3_NoGC	3.0:1.0654900199999996E8	2	1.0
HT29_05vMiSeq_3_NoGC	3.0:1.07549004E8	2	1.0
HT29_05vMiSeq_3_NoGC	3.0:1.0854899999999996E8	2	1.0
HT29_05vMiSeq_3_NoGC	3.0:1.0954900200000001E8	2	1.0
HT29_05vMiSeq_3_NoGC	3.0:1.1054900399999994E8	2	1.0
HT29_05vMiSeq_3_NoGC	3.0:1.1154900000000003E8	2	1.0
HT29_05vMiSeq_3_NoGC	3.0:1.1254900199999996E8	2	1.0
HT29_05vMiSeq_3_NoGC	3.0:1.1354900400000001E8	2	1.0
HT29_05vMiSeq_3_NoGC	3.0:1.1454899999999997E8	2	1.0
HT29_05vMiSeq_3_NoGC	3.0:1.1554900200000003E8	2	1.0
HT29_05vMiSeq_3_NoGC	3.0:1.1654900399999994E8	2	1.0
HT29_05vMiSeq_3_NoGC	3.0:1.1754900000000003E8	2	1.0
HT29_05vMiSeq_3_NoGC	3.0:1.4154900000000006E8	2	1.0
HT29_05vMiSeq_3_NoGC	3.0:1.4254900199999997E8	2	1.0
HT29_05vMiSeq_3_NoGC	3.0:1.4354900400000003E8	2	1.0
HT29_05vMiSeq_3_NoGC	3.0:1.44549E8	2	1.0
HT29_05vMiSeq_3_NoGC	3.0:1.4554900200000006E8	2	1.0
HT29_05vMiSeq_3_NoGC	3.0:1.4654900399999997E8	2	1.0
HT29_05vMiSeq_3_NoGC	3.0:1.4754900000000006E8	2	1.0
HT29_05vMiSeq_3_NoGC	3.0:1.48549002E8	2	1.0
HT29_05vMiSeq_3_NoGC	3.0:1.4954900400000003E8	2	1.0
HT29_05vMiSeq_3_NoGC	3.0:1.50549E8	2	1.0
HT29_05vMiSeq_3_NoGC	3.0:1.5154900200000006E8	2	1.0
HT29_05vMiSeq_3_NoGC	3.0:1.5254900399999997E8	2	1.0
HT29_05vMiSeq_3_NoGC	3.0:1.5354899999999994E8	2	1.0
HT29_05vMiSeq_3_NoGC	3.0:1.54549002E8	2	1.0
HT29_05vMiSeq_3_NoGC	3.0:1.5554900400000006E8	2	1.0
HT29_05vMiSeq_3_NoGC	3.0:1.56549E8	2	1.0
HT29_05vMiSeq_3_NoGC	3.0:1.5754900200000006E8	2	1.0
HT29_05vMiSeq_3_NoGC	3.0:1.5854900399999997E8	2	1.0
HT29_05vMiSeq_3_NoGC	3.0:1.5954899999999994E8	2	1.0
HT29_05vMiSeq_3_NoGC	3.0:1.60549002E8	2	1.0
HT29_05vMiSeq_3_NoGC	3.0:1.6154900400000006E8	2	1.0
HT29_05vMiSeq_3_NoGC	3.0:1.62549E8	2	1.0
HT29_05vMiSeq_3_NoGC	3.0:1.6354900200000006E8	2	1.0
HT29_05vMiSeq_3_NoGC	3.0:1.64549004E8	2	1.0
HT29_05vMiSeq_3_NoGC	3.0:1.6554899999999994E8	2	1.0
HT29_05vMiSeq_3_NoGC	3.0:1.66549002E8	2	1.0
HT29_05vMiSeq_3_NoGC	3.0:1.6754900400000006E8	2	1.0
HT29_05vMiSeq_3_NoGC	3.0:1.6854900000000003E8	2	1.0
HT29_05vMiSeq_3_NoGC	3.0:1.6954900199999994E8	2	1.0
HT29_05vMiSeq_3_NoGC	3.0:1.70549004E8	2	1.0
HT29_05vMiSeq_3_NoGC	3.0:1.7154899999999994E8	2	1.0
HT29_05vMiSeq_3_NoGC	3.0:1.72549002E8	2	1.0
HT29_05vMiSeq_3_NoGC	3.0:1.7354900400000006E8	2	1.0
HT29_05vMiSeq_3_NoGC	3.0:1.7454900000000003E8	2	1.0
HT29_05vMiSeq_3_NoGC	3.0:1.7554900199999994E8	2	1.0
HT29_05vMiSeq_3_NoGC	3.0:1.76549004E8	2	1.0
HT29_05vMiSeq_3_NoGC	3.0:1.7754899999999997E8	2	1.0
HT29_05vMiSeq_3_NoGC	3.0:1.78549002E8	2	1.0
HT29_05vMiSeq_3_NoGC	3.0:1.7954900399999994E8	2	1.0
HT29_05vMiSeq_3_NoGC	3.0:1.8054900000000003E8	2	1.0
HT29_05vMiSeq_3_NoGC	3.0:1.8154900199999994E8	2	1.0
HT29_05vMiSeq_3_NoGC	3.0:1.82549004E8	2	1.0
HT29_05vMiSeq_3_NoGC	3.0:1.8354899999999997E8	2	1.0
HT29_05vMiSeq_3_NoGC	3.0:1.8454900200000003E8	2	1.0
HT29_05vMiSeq_3_NoGC	3.0:1.8554900399999994E8	2	1.0
HT29_05vMiSeq_3_NoGC	3.0:1.8654900000000003E8	2	1.0
HT29_05vMiSeq_3_NoGC	3.0:1.8754900199999994E8	2	1.0
HT29_05vMiSeq_3_NoGC	3.0:1.88549004E8	2	1.0
HT29_05vMiSeq_3_NoGC	3.0:1.8954899999999997E8	2	1.0
HT29_05vMiSeq_3_NoGC	3.0:1.9054900200000003E8	2	1.0
HT29_05vMiSeq_3_NoGC	3.0:1.9154900399999994E8	2	1.0
HT29_05vMiSeq_3_NoGC	3.0:1.9254900000000003E8	2	1.0
HT29_05vMiSeq_3_NoGC	4.0:1.0526004000000011E7	2	1.0
HT29_05vMiSeq_3_NoGC	4.0:1.1526000000000102E7	2	1.0
HT29_05vMiSeq_3_NoGC	4.0:1.2526001999999892E7	2	1.0
HT29_05vMiSeq_3_NoGC	4.0:1.3526003999999948E7	2	1.0
HT29_05vMiSeq_3_NoGC	4.0:1.452600000000004E7	2	1.0
HT29_05vMiSeq_3_NoGC	4.0:1.5526002000000095E7	2	1.0
HT29_05vMiSeq_3_NoGC	4.0:1.652599799999992E7	2	1.0
HT29_05vMiSeq_3_NoGC	4.0:1.7525999999999974E7	2	1.0
HT29_05vMiSeq_3_NoGC	4.0:1.852600200000003E7	2	1.0
HT29_05vMiSeq_3_NoGC	4.0:1.9526004000000086E7	2	1.0
HT29_05vMiSeq_3_NoGC	4.0:2.052599999999991E7	2	1.0
HT29_05vMiSeq_3_NoGC	4.0:2.1526001999999966E7	2	1.0
HT29_05vMiSeq_3_NoGC	4.0:2.2526004000000022E7	2	1.0
HT29_05vMiSeq_3_NoGC	4.0:2.352600000000011E7	2	1.0
HT29_05vMiSeq_3_NoGC	4.0:2.4526001999999903E7	2	1.0
HT29_05vMiSeq_3_NoGC	4.0:2.552600399999996E7	2	1.0
HT29_05vMiSeq_3_NoGC	4.0:2.652600000000005E7	2	1.0
HT29_05vMiSeq_3_NoGC	4.0:2.7526002000000104E7	2	1.0
HT29_05vMiSeq_3_NoGC	4.0:2.8526003999999892E7	2	1.0
HT29_05vMiSeq_3_NoGC	4.0:2.9525999999999985E7	2	1.0
HT29_05vMiSeq_3_NoGC	4.0:3.052600200000004E7	2	1.0
HT29_05vMiSeq_3_NoGC	4.0:3.1526004000000097E7	2	1.0
HT29_05vMiSeq_3_NoGC	4.0:3.252599999999992E7	2	1.0
HT29_05vMiSeq_3_NoGC	4.0:3.3526001999999978E7	2	1.0
HT29_05vMiSeq_3_NoGC	4.0:3.452600400000003E7	2	1.0
HT29_05vMiSeq_3_NoGC	4.0:3.552600000000013E7	2	1.0
HT29_05vMiSeq_3_NoGC	4.0:3.652600199999991E7	2	1.0
HT29_05vMiSeq_3_NoGC	4.0:3.752600399999997E7	2	1.0
HT29_05vMiSeq_3_NoGC	4.0:3.852600000000006E7	2	1.0
HT29_05vMiSeq_3_NoGC	4.0:3.952600200000012E7	2	1.0
HT29_05vMiSeq_3_NoGC	4.0:4.05260039999999E7	2	1.0
HT29_05vMiSeq_3_NoGC	4.0:4.152599999999999E7	2	1.0
HT29_05vMiSeq_3_NoGC	4.0:4.252600200000005E7	2	1.0
HT29_05vMiSeq_3_NoGC	4.0:4.3526004000000104E7	2	1.0
HT29_05vMiSeq_3_NoGC	4.0:4.452599999999993E7	2	1.0
HT29_05vMiSeq_3_NoGC	4.0:4.5526001999999985E7	2	1.0
HT29_05vMiSeq_3_NoGC	4.0:4.6526004000000045E7	2	1.0
HT29_05vMiSeq_3_NoGC	4.0:4.7525999999999866E7	2	1.0
HT29_05vMiSeq_3_NoGC	4.0:4.952600399999998E7	2	1.0
HT29_05vMiSeq_3_NoGC	4.0:5.252600399999992E7	2	1.0
HT29_05vMiSeq_3_NoGC	4.0:5.352600000000001E7	2	1.0
HT29_05vMiSeq_3_NoGC	4.0:5.452600200000006E7	2	1.0
HT29_05vMiSeq_3_NoGC	4.0:5.552600400000012E7	2	1.0
HT29_05vMiSeq_3_NoGC	4.0:5.652599999999994E7	2	1.0
HT29_05vMiSeq_3_NoGC	4.0:5.7526002E7	2	1.0
HT29_05vMiSeq_3_NoGC	4.0:5.852600400000005E7	2	1.0
HT29_05vMiSeq_3_NoGC	4.0:5.952599999999988E7	2	1.0
HT29_05vMiSeq_3_NoGC	4.0:6.052600199999993E7	2	1.0
HT29_05vMiSeq_3_NoGC	4.0:6.152600399999999E7	2	1.0
HT29_05vMiSeq_3_NoGC	4.0:6.252600000000008E7	2	1.0
HT29_05vMiSeq_3_NoGC	4.0:6.352600199999987E7	2	1.0
HT29_05vMiSeq_3_NoGC	4.0:6.4526003999999925E7	2	1.0
HT29_05vMiSeq_3_NoGC	4.0:6.5526000000000015E7	2	1.0
HT29_05vMiSeq_3_NoGC	4.0:6.6526002000000075E7	2	1.0
HT29_05vMiSeq_3_NoGC	4.0:6.75259979999999E7	2	1.0
HT29_05vMiSeq_3_NoGC	4.0:6.852599999999996E7	2	1.0
HT29_05vMiSeq_3_NoGC	4.0:6.952600200000001E7	2	1.0
HT29_05vMiSeq_3_NoGC	4.0:7.052600400000006E7	2	1.0
HT29_05vMiSeq_3_NoGC	4.0:7.15259999999999E7	2	1.0
HT29_05vMiSeq_3_NoGC	4.0:7.252600199999994E7	2	1.0
HT29_05vMiSeq_3_NoGC	4.0:7.3526004E7	2	1.0
HT29_05vMiSeq_3_NoGC	4.0:7.452600000000009E7	2	1.0
HT29_05vMiSeq_3_NoGC	4.0:7.552600199999988E7	2	1.0
HT29_05vMiSeq_3_NoGC	4.0:7.652600399999994E7	2	1.0
HT29_05vMiSeq_3_NoGC	4.0:7.752600000000003E7	2	1.0
HT29_05vMiSeq_3_NoGC	4.0:7.852600200000009E7	2	1.0
HT29_05vMiSeq_3_NoGC	4.0:7.952599799999991E7	2	1.0
HT29_05vMiSeq_3_NoGC	4.0:8.052599999999997E7	2	1.0
HT29_05vMiSeq_3_NoGC	4.0:8.152600200000001E7	2	1.0
HT29_05vMiSeq_3_NoGC	4.0:8.252600400000007E7	2	1.0
HT29_05vMiSeq_3_NoGC	4.0:8.35259999999999E7	2	1.0
HT29_05vMiSeq_3_NoGC	4.0:8.452600199999996E7	2	1.0
HT29_05vMiSeq_3_NoGC	4.0:8.552600400000001E7	2	1.0
HT29_05vMiSeq_3_NoGC	4.0:8.65260000000001E7	2	1.0
HT29_05vMiSeq_3_NoGC	4.0:8.75260019999999E7	2	1.0
HT29_05vMiSeq_3_NoGC	4.0:8.852600399999994E7	2	1.0
HT29_05vMiSeq_3_NoGC	4.0:8.952600000000004E7	2	1.0
HT29_05vMiSeq_3_NoGC	4.0:9.052600200000009E7	2	1.0
HT29_05vMiSeq_3_NoGC	4.0:9.152599799999993E7	2	1.0
HT29_05vMiSeq_3_NoGC	4.0:9.252599999999997E7	2	1.0
HT29_05vMiSeq_3_NoGC	4.0:9.352600200000003E7	2	1.0
HT29_05vMiSeq_3_NoGC	4.0:9.452600400000009E7	2	1.0
HT29_05vMiSeq_3_NoGC	4.0:9.552599999999991E7	2	1.0
HT29_05vMiSeq_3_NoGC	4.0:9.652600199999997E7	2	1.0
HT29_05vMiSeq_3_NoGC	4.0:9.752600400000001E7	2	1.0
HT29_05vMiSeq_3_NoGC	4.0:9.852600000000012E7	2	1.0
HT29_05vMiSeq_3_NoGC	4.0:9.95260019999999E7	2	1.0
HT29_05vMiSeq_3_NoGC	4.0:1.0052600399999996E8	2	1.0
HT29_05vMiSeq_3_NoGC	4.0:1.0152600000000004E8	2	1.0
HT29_05vMiSeq_3_NoGC	4.0:1.025260020000001E8	2	1.0
HT29_05vMiSeq_3_NoGC	4.0:1.035260039999999E8	2	1.0
HT29_05vMiSeq_3_NoGC	4.0:1.0452599999999999E8	2	1.0
HT29_05vMiSeq_3_NoGC	4.0:1.0552600200000004E8	2	1.0
HT29_05vMiSeq_3_NoGC	4.0:1.0652600400000009E8	2	1.0
HT29_05vMiSeq_3_NoGC	4.0:1.0752599999999993E8	2	1.0
HT29_05vMiSeq_3_NoGC	4.0:1.0852600199999997E8	2	1.0
HT29_05vMiSeq_3_NoGC	4.0:1.0952600400000003E8	2	1.0
HT29_05vMiSeq_3_NoGC	4.0:1.1052600000000012E8	2	1.0
HT29_05vMiSeq_3_NoGC	4.0:1.1152600199999991E8	2	1.0
HT29_05vMiSeq_3_NoGC	4.0:1.1252600399999997E8	2	1.0
HT29_05vMiSeq_3_NoGC	4.0:1.1352600000000006E8	2	1.0
HT29_05vMiSeq_3_NoGC	4.0:1.1452600200000012E8	2	1.0
HT29_05vMiSeq_3_NoGC	4.0:1.1552600399999991E8	2	1.0
HT29_05vMiSeq_3_NoGC	4.0:1.16526E8	2	1.0
HT29_05vMiSeq_3_NoGC	4.0:1.1752600200000004E8	2	1.0
HT29_05vMiSeq_3_NoGC	4.0:1.1852599799999988E8	2	1.0
HT29_05vMiSeq_3_NoGC	4.0:1.1952599999999993E8	2	1.0
HT29_05vMiSeq_3_NoGC	4.0:1.2052600199999999E8	2	1.0
HT29_05vMiSeq_3_NoGC	4.0:1.2152600400000004E8	2	1.0
HT29_05vMiSeq_3_NoGC	4.0:1.2252599999999987E8	2	1.0
HT29_05vMiSeq_3_NoGC	4.0:1.2352600199999993E8	2	1.0
HT29_05vMiSeq_3_NoGC	4.0:1.2452600399999999E8	2	1.0
HT29_05vMiSeq_3_NoGC	4.0:1.2552600000000007E8	2	1.0
HT29_05vMiSeq_3_NoGC	4.0:1.2652600200000012E8	2	1.0
HT29_05vMiSeq_3_NoGC	4.0:1.2752600399999991E8	2	1.0
HT29_05vMiSeq_3_NoGC	4.0:1.28526E8	2	1.0
HT29_05vMiSeq_3_NoGC	4.0:1.2952600200000006E8	2	1.0
HT29_05vMiSeq_3_NoGC	4.0:1.3052600400000012E8	2	1.0
HT29_05vMiSeq_3_NoGC	4.0:1.3152599999999994E8	2	1.0
HT29_05vMiSeq_3_NoGC	4.0:1.32526002E8	2	1.0
HT29_05vMiSeq_3_NoGC	4.0:1.3352600400000006E8	2	1.0
HT29_05vMiSeq_3_NoGC	4.0:1.3452599999999988E8	2	1.0
HT29_05vMiSeq_3_NoGC	4.0:1.3552600199999994E8	2	1.0
HT29_05vMiSeq_3_NoGC	4.0:1.36526004E8	2	1.0
HT29_05vMiSeq_3_NoGC	4.0:1.375260000000001E8	2	1.0
HT29_05vMiSeq_3_NoGC	4.0:1.3852600199999988E8	2	1.0
HT29_05vMiSeq_3_NoGC	4.0:1.3952600399999994E8	2	1.0
HT29_05vMiSeq_3_NoGC	4.0:1.4052600000000003E8	2	1.0
HT29_05vMiSeq_3_NoGC	4.0:1.4152600200000006E8	2	1.0
HT29_05vMiSeq_3_NoGC	4.0:1.425259979999999E8	2	1.0
HT29_05vMiSeq_3_NoGC	4.0:1.4352599999999994E8	2	1.0
HT29_05vMiSeq_3_NoGC	4.0:1.44526002E8	2	1.0
HT29_05vMiSeq_3_NoGC	4.0:1.4552600400000006E8	2	1.0
HT29_05vMiSeq_3_NoGC	4.0:1.4652599999999988E8	2	1.0
HT29_05vMiSeq_3_NoGC	4.0:1.4752600199999994E8	2	1.0
HT29_05vMiSeq_3_NoGC	4.0:1.48526004E8	2	1.0
HT29_05vMiSeq_3_NoGC	4.0:1.495260000000001E8	2	1.0
HT29_05vMiSeq_3_NoGC	4.0:1.5052600199999988E8	2	1.0
HT29_05vMiSeq_3_NoGC	4.0:1.5152600399999994E8	2	1.0
HT29_05vMiSeq_3_NoGC	4.0:1.5252600000000003E8	2	1.0
HT29_05vMiSeq_3_NoGC	4.0:1.535260020000001E8	2	1.0
HT29_05vMiSeq_3_NoGC	4.0:1.545259979999999E8	2	1.0
HT29_05vMiSeq_3_NoGC	4.0:1.5552599999999997E8	2	1.0
HT29_05vMiSeq_3_NoGC	4.0:1.5652600200000003E8	2	1.0
HT29_05vMiSeq_3_NoGC	4.0:1.575260040000001E8	2	1.0
HT29_05vMiSeq_3_NoGC	4.0:1.585259999999999E8	2	1.0
HT29_05vMiSeq_3_NoGC	4.0:1.5952600199999997E8	2	1.0
HT29_05vMiSeq_3_NoGC	4.0:1.60526004E8	2	1.0
HT29_05vMiSeq_3_NoGC	4.0:1.615260000000001E8	2	1.0
HT29_05vMiSeq_3_NoGC	4.0:1.6252600199999988E8	2	1.0
HT29_05vMiSeq_3_NoGC	4.0:1.6352600399999994E8	2	1.0
HT29_05vMiSeq_3_NoGC	4.0:1.6452600000000003E8	2	1.0
HT29_05vMiSeq_3_NoGC	4.0:1.655260020000001E8	2	1.0
HT29_05vMiSeq_3_NoGC	4.0:1.665259979999999E8	2	1.0
HT29_05vMiSeq_3_NoGC	4.0:1.6752599999999997E8	2	1.0
HT29_05vMiSeq_3_NoGC	4.0:1.6852600200000003E8	2	1.0
HT29_05vMiSeq_3_NoGC	4.0:1.695260040000001E8	2	1.0
HT29_05vMiSeq_3_NoGC	4.0:1.705259999999999E8	2	1.0
HT29_05vMiSeq_3_NoGC	4.0:1.7152600199999997E8	2	1.0
HT29_05vMiSeq_3_NoGC	4.0:1.7252600400000003E8	2	1.0
HT29_05vMiSeq_3_NoGC	4.0:1.7352600000000012E8	2	1.0
HT29_05vMiSeq_3_NoGC	4.0:1.745260019999999E8	2	1.0
HT29_05vMiSeq_3_NoGC	4.0:1.7552600399999997E8	2	1.0
HT29_05vMiSeq_3_NoGC	4.0:1.7652600000000006E8	2	1.0
HT29_05vMiSeq_3_NoGC	4.0:1.7752600200000012E8	2	1.0
HT29_05vMiSeq_3_NoGC	4.0:1.7852600399999988E8	2	1.0
HT29_05vMiSeq_3_NoGC	4.0:1.79526E8	2	1.0
HT29_05vMiSeq_3_NoGC	4.0:1.8052600200000003E8	2	1.0
HT29_05vMiSeq_3_NoGC	4.0:1.815260040000001E8	2	1.0
HT29_05vMiSeq_3_NoGC	4.0:1.825259999999999E8	2	1.0
HT29_05vMiSeq_3_NoGC	4.0:1.8352600199999997E8	2	1.0
HT29_05vMiSeq_3_NoGC	4.0:1.8452600400000003E8	2	1.0
HT29_05vMiSeq_3_NoGC	4.0:1.8552600000000012E8	2	1.0
HT29_05vMiSeq_3_NoGC	4.0:1.865260019999999E8	2	1.0
HT29_05vMiSeq_3_NoGC	4.0:1.8752600399999997E8	2	1.0
HT29_05vMiSeq_3_NoGC	4.0:1.8852600000000006E8	2	1.0
HT29_05vMiSeq_3_NoGC	4.0:1.8952600200000012E8	2	1.0
HT29_05vMiSeq_3_NoGC	4.0:1.905260039999999E8	2	1.0
HT29_05vMiSeq_3_NoGC	5.0:371003.9999999637	2	1.0
HT29_05vMiSeq_3_NoGC	5.0:1371000.0000000554	2	1.0
HT29_05vMiSeq_3_NoGC	5.0:2371002.000000111	2	1.0
HT29_05vMiSeq_3_NoGC	5.0:3371003.9999999	2	1.0
HT29_05vMiSeq_3_NoGC	5.0:4370999.999999992	2	1.0
HT29_05vMiSeq_3_NoGC	5.0:5371002.000000047	2	1.0
HT29_05vMiSeq_3_NoGC	5.0:6371004.000000102	2	1.0
HT29_05vMiSeq_3_NoGC	5.0:7370999.999999927	2	1.0
HT29_05vMiSeq_3_NoGC	5.0:8371001.999999983	2	1.0
HT29_05vMiSeq_3_NoGC	5.0:9371004.00000004	2	1.0
HT29_05vMiSeq_3_NoGC	5.0:1.037100000000013E7	2	1.0
HT29_05vMiSeq_3_NoGC	5.0:1.137100199999992E7	2	1.0
HT29_05vMiSeq_3_NoGC	5.0:1.2371003999999974E7	2	1.0
HT29_05vMiSeq_3_NoGC	5.0:1.3371000000000067E7	2	1.0
HT29_05vMiSeq_3_NoGC	5.0:1.4371002000000121E7	2	1.0
HT29_05vMiSeq_3_NoGC	5.0:1.537100399999991E7	2	1.0
HT29_05vMiSeq_3_NoGC	5.0:1.6371000000000002E7	2	1.0
HT29_05vMiSeq_3_NoGC	5.0:1.7371002000000056E7	2	1.0
HT29_05vMiSeq_3_NoGC	5.0:1.837100400000011E7	2	1.0
HT29_05vMiSeq_3_NoGC	5.0:1.9370999999999937E7	2	1.0
HT29_05vMiSeq_3_NoGC	5.0:2.0371001999999993E7	2	1.0
HT29_05vMiSeq_3_NoGC	5.0:2.137100400000005E7	2	1.0
HT29_05vMiSeq_3_NoGC	5.0:2.2370999999999873E7	2	1.0
HT29_05vMiSeq_3_NoGC	5.0:2.337100199999993E7	2	1.0
HT29_05vMiSeq_3_NoGC	5.0:2.4371003999999985E7	2	1.0
HT29_05vMiSeq_3_NoGC	5.0:2.537100000000008E7	2	1.0
HT29_05vMiSeq_3_NoGC	5.0:2.637100200000013E7	2	1.0
HT29_05vMiSeq_3_NoGC	5.0:2.737100399999992E7	2	1.0
HT29_05vMiSeq_3_NoGC	5.0:2.837100000000001E7	2	1.0
HT29_05vMiSeq_3_NoGC	5.0:2.9371002000000067E7	2	1.0
HT29_05vMiSeq_3_NoGC	5.0:3.0370997999999892E7	2	1.0
HT29_05vMiSeq_3_NoGC	5.0:3.1370999999999948E7	2	1.0
HT29_05vMiSeq_3_NoGC	5.0:3.2371002000000004E7	2	1.0
HT29_05vMiSeq_3_NoGC	5.0:3.337100400000006E7	2	1.0
HT29_05vMiSeq_3_NoGC	5.0:3.437099999999989E7	2	1.0
HT29_05vMiSeq_3_NoGC	5.0:3.537100199999994E7	2	1.0
HT29_05vMiSeq_3_NoGC	5.0:3.637100399999999E7	2	1.0
HT29_05vMiSeq_3_NoGC	5.0:3.737100000000009E7	2	1.0
HT29_05vMiSeq_3_NoGC	5.0:3.837100199999987E7	2	1.0
HT29_05vMiSeq_3_NoGC	5.0:3.937100399999993E7	2	1.0
HT29_05vMiSeq_3_NoGC	5.0:4.037100000000002E7	2	1.0
HT29_05vMiSeq_3_NoGC	5.0:4.137100200000008E7	2	1.0
HT29_05vMiSeq_3_NoGC	5.0:4.23709979999999E7	2	1.0
HT29_05vMiSeq_3_NoGC	5.0:4.337099999999996E7	2	1.0
HT29_05vMiSeq_3_NoGC	5.0:4.4371002000000015E7	2	1.0
HT29_05vMiSeq_3_NoGC	5.0:4.537100400000007E7	2	1.0
HT29_05vMiSeq_3_NoGC	5.0:4.6370999999999896E7	2	1.0
HT29_05vMiSeq_3_NoGC	5.0:4.93710000000001E7	2	1.0
HT29_05vMiSeq_3_NoGC	5.0:5.037100199999989E7	2	1.0
HT29_05vMiSeq_3_NoGC	5.0:5.137100399999994E7	2	1.0
HT29_05vMiSeq_3_NoGC	5.0:5.237100000000004E7	2	1.0
HT29_05vMiSeq_3_NoGC	5.0:5.337100200000009E7	2	1.0
HT29_05vMiSeq_3_NoGC	5.0:5.437099799999992E7	2	1.0
HT29_05vMiSeq_3_NoGC	5.0:5.537099999999997E7	2	1.0
HT29_05vMiSeq_3_NoGC	5.0:5.637100200000002E7	2	1.0
HT29_05vMiSeq_3_NoGC	5.0:5.737100400000008E7	2	1.0
HT29_05vMiSeq_3_NoGC	5.0:5.83709999999999E7	2	1.0
HT29_05vMiSeq_3_NoGC	5.0:5.937100199999996E7	2	1.0
HT29_05vMiSeq_3_NoGC	5.0:6.0371004000000015E7	2	1.0
HT29_05vMiSeq_3_NoGC	5.0:6.137100000000011E7	2	1.0
HT29_05vMiSeq_3_NoGC	5.0:6.2371001999999896E7	2	1.0
HT29_05vMiSeq_3_NoGC	5.0:6.3371003999999955E7	2	1.0
HT29_05vMiSeq_3_NoGC	5.0:6.4371000000000045E7	2	1.0
HT29_05vMiSeq_3_NoGC	5.0:6.53710020000001E7	2	1.0
HT29_05vMiSeq_3_NoGC	5.0:6.6370997999999925E7	2	1.0
HT29_05vMiSeq_3_NoGC	5.0:6.737099999999999E7	2	1.0
HT29_05vMiSeq_3_NoGC	5.0:6.837100200000003E7	2	1.0
HT29_05vMiSeq_3_NoGC	5.0:6.937100400000009E7	2	1.0
HT29_05vMiSeq_3_NoGC	5.0:7.037099999999991E7	2	1.0
HT29_05vMiSeq_3_NoGC	5.0:7.137100199999997E7	2	1.0
HT29_05vMiSeq_3_NoGC	5.0:7.237100400000003E7	2	1.0
HT29_05vMiSeq_3_NoGC	5.0:7.337100000000012E7	2	1.0
HT29_05vMiSeq_3_NoGC	5.0:7.437100199999991E7	2	1.0
HT29_05vMiSeq_3_NoGC	5.0:7.537100399999997E7	2	1.0
HT29_05vMiSeq_3_NoGC	5.0:7.637100000000006E7	2	1.0
HT29_05vMiSeq_3_NoGC	5.0:7.73710020000001E7	2	1.0
HT29_05vMiSeq_3_NoGC	5.0:7.83710039999999E7	2	1.0
HT29_05vMiSeq_3_NoGC	5.0:7.937099999999999E7	2	1.0
HT29_05vMiSeq_3_NoGC	5.0:8.037100200000004E7	2	1.0
HT29_05vMiSeq_3_NoGC	5.0:8.13710040000001E7	2	1.0
HT29_05vMiSeq_3_NoGC	5.0:8.237099999999993E7	2	1.0
HT29_05vMiSeq_3_NoGC	5.0:8.337100199999999E7	2	1.0
HT29_05vMiSeq_3_NoGC	5.0:8.437100400000004E7	2	1.0
HT29_05vMiSeq_3_NoGC	5.0:8.537100000000013E7	2	1.0
HT29_05vMiSeq_3_NoGC	5.0:8.637100199999993E7	2	1.0
HT29_05vMiSeq_3_NoGC	5.0:8.737100399999997E7	2	1.0
HT29_05vMiSeq_3_NoGC	5.0:8.837100000000006E7	2	1.0
HT29_05vMiSeq_3_NoGC	5.0:8.937100200000012E7	2	1.0
HT29_05vMiSeq_3_NoGC	5.0:9.037100399999991E7	2	1.0
HT29_05vMiSeq_3_NoGC	5.0:9.1371E7	2	1.0
HT29_05vMiSeq_3_NoGC	5.0:9.237100200000006E7	2	1.0
HT29_05vMiSeq_3_NoGC	5.0:9.337099799999988E7	2	1.0
HT29_05vMiSeq_3_NoGC	5.0:9.437099999999994E7	2	1.0
HT29_05vMiSeq_3_NoGC	5.0:9.5371002E7	2	1.0
HT29_05vMiSeq_3_NoGC	5.0:9.637100400000004E7	2	1.0
HT29_05vMiSeq_3_NoGC	5.0:9.737099999999988E7	2	1.0
HT29_05vMiSeq_3_NoGC	5.0:9.837100199999993E7	2	1.0
HT29_05vMiSeq_3_NoGC	5.0:9.937100399999999E7	2	1.0
HT29_05vMiSeq_3_NoGC	5.0:1.0037100000000007E8	2	1.0
HT29_05vMiSeq_3_NoGC	5.0:1.0137100200000013E8	2	1.0
HT29_05vMiSeq_3_NoGC	5.0:1.0237100399999993E8	2	1.0
HT29_05vMiSeq_3_NoGC	5.0:1.0337100000000001E8	2	1.0
HT29_05vMiSeq_3_NoGC	5.0:1.0437100200000007E8	2	1.0
HT29_05vMiSeq_3_NoGC	5.0:1.053709979999999E8	2	1.0
HT29_05vMiSeq_3_NoGC	5.0:1.0637099999999996E8	2	1.0
HT29_05vMiSeq_3_NoGC	5.0:1.07371002E8	2	1.0
HT29_05vMiSeq_3_NoGC	5.0:1.0837100400000006E8	2	1.0
HT29_05vMiSeq_3_NoGC	5.0:1.0937099999999988E8	2	1.0
HT29_05vMiSeq_3_NoGC	5.0:1.1037100199999994E8	2	1.0
HT29_05vMiSeq_3_NoGC	5.0:1.11371004E8	2	1.0
HT29_05vMiSeq_3_NoGC	5.0:1.1237100000000009E8	2	1.0
HT29_05vMiSeq_3_NoGC	5.0:1.1337100199999988E8	2	1.0
HT29_05vMiSeq_3_NoGC	5.0:1.1437100399999993E8	2	1.0
HT29_05vMiSeq_3_NoGC	5.0:1.1537100000000003E8	2	1.0
HT29_05vMiSeq_3_NoGC	5.0:1.1637100200000007E8	2	1.0
HT29_05vMiSeq_3_NoGC	5.0:1.1737100399999987E8	2	1.0
HT29_05vMiSeq_3_NoGC	5.0:1.1837099999999996E8	2	1.0
HT29_05vMiSeq_3_NoGC	5.0:1.1937100200000001E8	2	1.0
HT29_05vMiSeq_3_NoGC	5.0:1.2037100400000007E8	2	1.0
HT29_05vMiSeq_3_NoGC	5.0:1.213709999999999E8	2	1.0
HT29_05vMiSeq_3_NoGC	5.0:1.2237100199999996E8	2	1.0
HT29_05vMiSeq_3_NoGC	5.0:1.23371004E8	2	1.0
HT29_05vMiSeq_3_NoGC	5.0:1.243710000000001E8	2	1.0
HT29_05vMiSeq_3_NoGC	5.0:1.2537100199999988E8	2	1.0
HT29_05vMiSeq_3_NoGC	5.0:1.2637100399999994E8	2	1.0
HT29_05vMiSeq_3_NoGC	5.0:1.2737100000000003E8	2	1.0
HT29_05vMiSeq_3_NoGC	5.0:1.2837100200000009E8	2	1.0
HT29_05vMiSeq_3_NoGC	5.0:1.2937100399999988E8	2	1.0
HT29_05vMiSeq_3_NoGC	5.0:1.3037099999999997E8	2	1.0
HT29_05vMiSeq_3_NoGC	6.0:4.645499999999991E7	2	1.0
HT29_05vMiSeq_3_NoGC	6.0:4.745500199999997E7	2	1.0
HT29_05vMiSeq_3_NoGC	6.0:4.845500400000002E7	2	1.0
HT29_05vMiSeq_3_NoGC	6.0:4.945500000000012E7	2	1.0
HT29_05vMiSeq_3_NoGC	6.0:5.04550019999999E7	2	1.0
HT29_05vMiSeq_3_NoGC	6.0:5.145500399999996E7	2	1.0
HT29_05vMiSeq_3_NoGC	6.0:5.245500000000005E7	2	1.0
HT29_05vMiSeq_3_NoGC	6.0:5.3455002000000104E7	2	1.0
HT29_05vMiSeq_3_NoGC	6.0:5.4455003999999896E7	2	1.0
HT29_05vMiSeq_3_NoGC	6.0:5.5454999999999985E7	2	1.0
HT29_05vMiSeq_3_NoGC	6.0:5.6455002000000045E7	2	1.0
HT29_05vMiSeq_3_NoGC	6.0:5.74550040000001E7	2	1.0
HT29_05vMiSeq_3_NoGC	6.0:6.145500000000013E7	2	1.0
HT29_05vMiSeq_3_NoGC	6.0:6.245500199999992E7	2	1.0
HT29_05vMiSeq_3_NoGC	6.0:6.345500399999997E7	2	1.0
HT29_05vMiSeq_3_NoGC	6.0:6.445500000000006E7	2	1.0
HT29_05vMiSeq_3_NoGC	6.0:6.545500200000012E7	2	1.0
HT29_05vMiSeq_3_NoGC	6.0:6.64550039999999E7	2	1.0
HT29_05vMiSeq_3_NoGC	6.0:6.7455E7	2	1.0
HT29_05vMiSeq_3_NoGC	6.0:6.845500200000006E7	2	1.0
HT29_05vMiSeq_3_NoGC	6.0:6.94550040000001E7	2	1.0
HT29_05vMiSeq_3_NoGC	6.0:7.045499999999994E7	2	1.0
HT29_05vMiSeq_3_NoGC	6.0:7.145500199999999E7	2	1.0
HT29_05vMiSeq_3_NoGC	6.0:7.245500400000004E7	2	1.0
HT29_05vMiSeq_3_NoGC	6.0:7.345499999999987E7	2	1.0
HT29_05vMiSeq_3_NoGC	6.0:7.445500199999993E7	2	1.0
HT29_05vMiSeq_3_NoGC	6.0:7.545500399999999E7	2	1.0
HT29_05vMiSeq_3_NoGC	6.0:7.645500000000007E7	2	1.0
HT29_05vMiSeq_3_NoGC	6.0:7.745500200000013E7	2	1.0
HT29_05vMiSeq_3_NoGC	6.0:7.845500399999991E7	2	1.0
HT29_05vMiSeq_3_NoGC	6.0:7.945500000000001E7	2	1.0
HT29_05vMiSeq_3_NoGC	6.0:8.045500200000006E7	2	1.0
HT29_05vMiSeq_3_NoGC	6.0:8.145500400000012E7	2	1.0
HT29_05vMiSeq_3_NoGC	6.0:8.245499999999994E7	2	1.0
HT29_05vMiSeq_3_NoGC	6.0:8.3455002E7	2	1.0
HT29_05vMiSeq_3_NoGC	6.0:8.445500400000006E7	2	1.0
HT29_05vMiSeq_3_NoGC	6.0:8.545499999999988E7	2	1.0
HT29_05vMiSeq_3_NoGC	6.0:8.645500199999994E7	2	1.0
HT29_05vMiSeq_3_NoGC	6.0:8.745500399999999E7	2	1.0
HT29_05vMiSeq_3_NoGC	6.0:8.845500000000009E7	2	1.0
HT29_05vMiSeq_3_NoGC	6.0:8.945500199999987E7	2	1.0
HT29_05vMiSeq_3_NoGC	6.0:9.045500399999993E7	2	1.0
HT29_05vMiSeq_3_NoGC	6.0:9.145500000000001E7	2	1.0
HT29_05vMiSeq_3_NoGC	6.0:9.245500200000007E7	2	1.0
HT29_05vMiSeq_3_NoGC	6.0:9.345500400000013E7	2	1.0
HT29_05vMiSeq_3_NoGC	6.0:9.445499999999996E7	2	1.0
HT29_05vMiSeq_3_NoGC	6.0:9.545500200000001E7	2	1.0
HT29_05vMiSeq_3_NoGC	6.0:9.645500400000006E7	2	1.0
HT29_05vMiSeq_3_NoGC	6.0:9.74549999999999E7	2	1.0
HT29_05vMiSeq_3_NoGC	6.0:9.845500199999994E7	2	1.0
HT29_05vMiSeq_3_NoGC	6.0:9.9455004E7	2	1.0
HT29_05vMiSeq_3_NoGC	6.0:1.0045500000000009E8	2	1.0
HT29_05vMiSeq_3_NoGC	6.0:1.0145500199999988E8	2	1.0
HT29_05vMiSeq_3_NoGC	6.0:1.0245500399999994E8	2	1.0
HT29_05vMiSeq_3_NoGC	6.0:1.0345500000000003E8	2	1.0
HT29_05vMiSeq_3_NoGC	6.0:1.0445500200000009E8	2	1.0
HT29_05vMiSeq_3_NoGC	6.0:1.0545500399999988E8	2	1.0
HT29_05vMiSeq_3_NoGC	6.0:1.0645499999999997E8	2	1.0
HT29_05vMiSeq_3_NoGC	6.0:1.0745500200000001E8	2	1.0
HT29_05vMiSeq_3_NoGC	6.0:1.0845500400000007E8	2	1.0
HT29_05vMiSeq_3_NoGC	6.0:1.094549999999999E8	2	1.0
HT29_05vMiSeq_3_NoGC	6.0:1.1045500199999996E8	2	1.0
HT29_05vMiSeq_3_NoGC	6.0:1.1145500400000001E8	2	1.0
HT29_05vMiSeq_3_NoGC	6.0:1.124550000000001E8	2	1.0
HT29_05vMiSeq_3_NoGC	6.0:1.134550019999999E8	2	1.0
HT29_05vMiSeq_3_NoGC	6.0:1.1445500399999996E8	2	1.0
HT29_05vMiSeq_3_NoGC	6.0:1.1545500000000004E8	2	1.0
HT29_05vMiSeq_3_NoGC	6.0:1.1645500200000009E8	2	1.0
HT29_05vMiSeq_3_NoGC	6.0:1.1745500399999988E8	2	1.0
HT29_05vMiSeq_3_NoGC	6.0:1.1845499999999997E8	2	1.0
HT29_05vMiSeq_3_NoGC	6.0:1.1945500200000003E8	2	1.0
HT29_05vMiSeq_3_NoGC	6.0:1.2045500400000009E8	2	1.0
HT29_05vMiSeq_3_NoGC	6.0:1.2145499999999991E8	2	1.0
HT29_05vMiSeq_3_NoGC	6.0:1.2245500199999997E8	2	1.0
HT29_05vMiSeq_3_NoGC	6.0:1.2345500400000003E8	2	1.0
HT29_05vMiSeq_3_NoGC	6.0:1.2445500000000012E8	2	1.0
HT29_05vMiSeq_3_NoGC	6.0:1.2545500199999991E8	2	1.0
HT29_05vMiSeq_3_NoGC	6.0:1.2645500399999996E8	2	1.0
HT29_05vMiSeq_3_NoGC	6.0:1.2745500000000004E8	2	1.0
HT29_05vMiSeq_3_NoGC	6.0:1.284550020000001E8	2	1.0
HT29_05vMiSeq_3_NoGC	6.0:1.294550039999999E8	2	1.0
HT29_05vMiSeq_3_NoGC	6.0:1.3045499999999999E8	2	1.0
HT29_05vMiSeq_3_NoGC	6.0:1.3145500200000004E8	2	1.0
HT29_05vMiSeq_3_NoGC	6.0:1.324550040000001E8	2	1.0
HT29_05vMiSeq_3_NoGC	6.0:1.3345499999999993E8	2	1.0
HT29_05vMiSeq_3_NoGC	6.0:1.3445500199999997E8	2	1.0
HT29_05vMiSeq_3_NoGC	6.0:1.3545500400000003E8	2	1.0
HT29_05vMiSeq_3_NoGC	6.0:1.3645500000000012E8	2	1.0
HT29_05vMiSeq_3_NoGC	6.0:1.374550019999999E8	2	1.0
HT29_05vMiSeq_3_NoGC	6.0:1.3845500399999997E8	2	1.0
HT29_05vMiSeq_3_NoGC	6.0:1.3945500000000006E8	2	1.0
HT29_05vMiSeq_3_NoGC	6.0:1.4045500200000012E8	2	1.0
HT29_05vMiSeq_3_NoGC	6.0:1.414550039999999E8	2	1.0
HT29_05vMiSeq_3_NoGC	6.0:1.42455E8	2	1.0
HT29_05vMiSeq_3_NoGC	6.0:1.4345500200000006E8	2	1.0
HT29_05vMiSeq_3_NoGC	6.0:1.4445500400000012E8	2	1.0
HT29_05vMiSeq_3_NoGC	6.0:1.4545499999999994E8	2	1.0
HT29_05vMiSeq_3_NoGC	6.0:1.46455002E8	2	1.0
HT29_05vMiSeq_3_NoGC	6.0:1.4745500400000006E8	2	1.0
HT29_05vMiSeq_3_NoGC	6.0:1.4845499999999988E8	2	1.0
HT29_05vMiSeq_3_NoGC	6.0:1.4945500199999994E8	2	1.0
HT29_05vMiSeq_3_NoGC	6.0:1.5045500399999997E8	2	1.0
HT29_05vMiSeq_3_NoGC	6.0:1.5145500000000006E8	2	1.0
HT29_05vMiSeq_3_NoGC	6.0:1.5245500200000012E8	2	1.0
HT29_05vMiSeq_3_NoGC	6.0:1.534550039999999E8	2	1.0
HT29_05vMiSeq_3_NoGC	6.0:1.54455E8	2	1.0
HT29_05vMiSeq_3_NoGC	6.0:1.5545500200000006E8	2	1.0
HT29_05vMiSeq_3_NoGC	6.0:1.5645500400000012E8	2	1.0
HT29_05vMiSeq_3_NoGC	6.0:1.5745499999999994E8	2	1.0
HT29_05vMiSeq_3_NoGC	6.0:1.58455002E8	2	1.0
HT29_05vMiSeq_3_NoGC	6.0:1.5945500400000006E8	2	1.0
HT29_05vMiSeq_3_NoGC	6.0:1.6045499999999988E8	2	1.0
HT29_05vMiSeq_3_NoGC	6.0:1.6145500199999994E8	2	1.0
HT29_05vMiSeq_3_NoGC	6.0:1.62455004E8	2	1.0
HT29_05vMiSeq_3_NoGC	6.0:1.634550000000001E8	2	1.0
HT29_05vMiSeq_3_NoGC	6.0:1.6445500199999988E8	2	1.0
HT29_05vMiSeq_3_NoGC	6.0:1.6545500399999994E8	2	1.0
HT29_05vMiSeq_3_NoGC	6.0:1.6645500000000003E8	2	1.0
HT29_05vMiSeq_3_NoGC	7.0:7339001.999999884	2	1.0
HT29_05vMiSeq_3_NoGC	7.0:8339003.9999999385	2	1.0
HT29_05vMiSeq_3_NoGC	7.0:9339000.00000003	2	1.0
HT29_05vMiSeq_3_NoGC	7.0:1.0339002000000086E7	2	1.0
HT29_05vMiSeq_3_NoGC	7.0:1.1339003999999875E7	2	1.0
HT29_05vMiSeq_3_NoGC	7.0:1.2338999999999966E7	2	1.0
HT29_05vMiSeq_3_NoGC	7.0:1.3339002000000022E7	2	1.0
HT29_05vMiSeq_3_NoGC	7.0:1.4339004000000078E7	2	1.0
HT29_05vMiSeq_3_NoGC	7.0:1.5338999999999903E7	2	1.0
HT29_05vMiSeq_3_NoGC	7.0:1.6339001999999957E7	2	1.0
HT29_05vMiSeq_3_NoGC	7.0:1.7339004000000015E7	2	1.0
HT29_05vMiSeq_3_NoGC	7.0:1.8339000000000104E7	2	1.0
HT29_05vMiSeq_3_NoGC	7.0:1.9339001999999896E7	2	1.0
HT29_05vMiSeq_3_NoGC	7.0:2.0339003999999948E7	2	1.0
HT29_05vMiSeq_3_NoGC	7.0:2.133900000000004E7	2	1.0
HT29_05vMiSeq_3_NoGC	7.0:7.633900200000001E7	2	1.0
HT29_05vMiSeq_3_NoGC	7.0:7.733900400000006E7	2	1.0
HT29_05vMiSeq_3_NoGC	7.0:7.83389999999999E7	2	1.0
HT29_05vMiSeq_3_NoGC	7.0:7.933900199999994E7	2	1.0
HT29_05vMiSeq_3_NoGC	7.0:8.0339004E7	2	1.0
HT29_05vMiSeq_3_NoGC	7.0:8.133900000000009E7	2	1.0
HT29_05vMiSeq_3_NoGC	7.0:8.233900199999988E7	2	1.0
HT29_05vMiSeq_3_NoGC	7.0:8.333900399999994E7	2	1.0
HT29_05vMiSeq_3_NoGC	7.0:8.433900000000003E7	2	1.0
HT29_05vMiSeq_3_NoGC	7.0:8.533900200000009E7	2	1.0
HT29_05vMiSeq_3_NoGC	7.0:8.633900399999988E7	2	1.0
HT29_05vMiSeq_3_NoGC	7.0:8.733899999999997E7	2	1.0
HT29_05vMiSeq_3_NoGC	7.0:8.833900200000001E7	2	1.0
HT29_05vMiSeq_3_NoGC	7.0:8.933900400000007E7	2	1.0
HT29_05vMiSeq_3_NoGC	7.0:9.03389999999999E7	2	1.0
HT29_05vMiSeq_3_NoGC	7.0:9.133900199999996E7	2	1.0
HT29_05vMiSeq_3_NoGC	7.0:9.233900400000001E7	2	1.0
HT29_05vMiSeq_3_NoGC	7.0:9.33390000000001E7	2	1.0
HT29_05vMiSeq_3_NoGC	7.0:9.43390019999999E7	2	1.0
HT29_05vMiSeq_3_NoGC	7.0:9.533900399999996E7	2	1.0
HT29_05vMiSeq_3_NoGC	7.0:9.633900000000004E7	2	1.0
HT29_05vMiSeq_3_NoGC	7.0:9.733900200000009E7	2	1.0
HT29_05vMiSeq_3_NoGC	7.0:9.833900399999988E7	2	1.0
HT29_05vMiSeq_3_NoGC	7.0:9.933899999999997E7	2	1.0
HT29_05vMiSeq_3_NoGC	7.0:1.0033900200000003E8	2	1.0
HT29_05vMiSeq_3_NoGC	7.0:1.0133900400000009E8	2	1.0
HT29_05vMiSeq_3_NoGC	7.0:1.0233899999999991E8	2	1.0
HT29_05vMiSeq_3_NoGC	7.0:1.0333900199999997E8	2	1.0
HT29_05vMiSeq_3_NoGC	7.0:1.0433900400000003E8	2	1.0
HT29_05vMiSeq_3_NoGC	7.0:1.0533900000000012E8	2	1.0
HT29_05vMiSeq_3_NoGC	7.0:1.0633900199999991E8	2	1.0
HT29_05vMiSeq_3_NoGC	7.0:1.0733900399999996E8	2	1.0
HT29_05vMiSeq_3_NoGC	7.0:1.0833900000000004E8	2	1.0
HT29_05vMiSeq_3_NoGC	7.0:1.093390020000001E8	2	1.0
HT29_05vMiSeq_3_NoGC	7.0:1.103390039999999E8	2	1.0
HT29_05vMiSeq_3_NoGC	7.0:1.1133899999999999E8	2	1.0
HT29_05vMiSeq_3_NoGC	7.0:1.1233900200000004E8	2	1.0
HT29_05vMiSeq_3_NoGC	7.0:1.133390040000001E8	2	1.0
HT29_05vMiSeq_3_NoGC	7.0:1.1433899999999993E8	2	1.0
HT29_05vMiSeq_3_NoGC	7.0:1.1533900199999999E8	2	1.0
HT29_05vMiSeq_3_NoGC	7.0:1.1633900400000003E8	2	1.0
HT29_05vMiSeq_3_NoGC	7.0:1.1733900000000012E8	2	1.0
HT29_05vMiSeq_3_NoGC	7.0:1.1833900199999991E8	2	1.0
HT29_05vMiSeq_3_NoGC	7.0:1.1933900399999997E8	2	1.0
HT29_05vMiSeq_3_NoGC	7.0:1.2033900000000006E8	2	1.0
HT29_05vMiSeq_3_NoGC	7.0:1.2133900200000012E8	2	1.0
HT29_05vMiSeq_3_NoGC	7.0:1.2233900399999991E8	2	1.0
HT29_05vMiSeq_3_NoGC	7.0:1.23339E8	2	1.0
HT29_05vMiSeq_3_NoGC	7.0:1.2433900200000006E8	2	1.0
HT29_05vMiSeq_3_NoGC	7.0:1.253390040000001E8	2	1.0
HT29_05vMiSeq_3_NoGC	8.0:1.3200000000000145E7	2	1.0
HT29_05vMiSeq_3_NoGC	8.0:1.4200001999999933E7	2	1.0
HT29_05vMiSeq_3_NoGC	8.0:1.5200004000000255E7	2	1.0
HT29_05vMiSeq_3_NoGC	8.0:1.620000000000008E7	2	1.0
HT29_05vMiSeq_3_NoGC	8.0:1.720000199999987E7	2	1.0
HT29_05vMiSeq_3_NoGC	8.0:1.820000400000019E7	2	1.0
HT29_05vMiSeq_3_NoGC	8.0:1.920000000000002E7	2	1.0
HT29_05vMiSeq_3_NoGC	8.0:2.0200001999999806E7	2	1.0
HT29_05vMiSeq_3_NoGC	8.0:2.1200004000000127E7	2	1.0
HT29_05vMiSeq_3_NoGC	8.0:2.219999999999995E7	2	1.0
HT29_05vMiSeq_3_NoGC	8.0:2.3200001999999743E7	2	1.0
HT29_05vMiSeq_3_NoGC	8.0:2.41999980000001E7	2	1.0
HT29_05vMiSeq_3_NoGC	8.0:2.519999999999989E7	2	1.0
HT29_05vMiSeq_3_NoGC	8.0:2.6200002000000212E7	2	1.0
HT29_05vMiSeq_3_NoGC	8.0:2.7199998000000037E7	2	1.0
HT29_05vMiSeq_3_NoGC	8.0:2.8199999999999825E7	2	1.0
HT29_05vMiSeq_3_NoGC	8.0:2.9200002000000145E7	2	1.0
HT29_05vMiSeq_3_NoGC	8.0:3.0200003999999937E7	2	1.0
HT29_05vMiSeq_3_NoGC	8.0:3.119999999999976E7	2	1.0
HT29_05vMiSeq_3_NoGC	8.0:3.2200002000000082E7	2	1.0
HT29_05vMiSeq_3_NoGC	8.0:3.3200003999999873E7	2	1.0
HT29_05vMiSeq_3_NoGC	8.0:3.420000000000023E7	2	1.0
HT29_05vMiSeq_3_NoGC	8.0:3.520000200000002E7	2	1.0
HT29_05vMiSeq_3_NoGC	8.0:3.620000399999981E7	2	1.0
HT29_05vMiSeq_3_NoGC	8.0:3.7200000000000164E7	2	1.0
HT29_05vMiSeq_3_NoGC	8.0:3.8200001999999955E7	2	1.0
HT29_05vMiSeq_3_NoGC	8.0:3.920000399999975E7	2	1.0
HT29_05vMiSeq_3_NoGC	8.0:4.0200000000000104E7	2	1.0
HT29_05vMiSeq_3_NoGC	8.0:4.120000199999989E7	2	1.0
HT29_05vMiSeq_3_NoGC	8.0:4.320000000000004E7	2	1.0
HT29_05vMiSeq_3_NoGC	8.0:4.619999999999998E7	2	1.0
HT29_05vMiSeq_3_NoGC	8.0:4.720000199999976E7	2	1.0
HT29_05vMiSeq_3_NoGC	8.0:4.820000400000008E7	2	1.0
HT29_05vMiSeq_3_NoGC	8.0:4.919999999999991E7	2	1.0
HT29_05vMiSeq_3_NoGC	8.0:5.020000200000023E7	2	1.0
HT29_05vMiSeq_3_NoGC	8.0:5.119999800000006E7	2	1.0
HT29_05vMiSeq_3_NoGC	8.0:5.219999999999984E7	2	1.0
HT29_05vMiSeq_3_NoGC	8.0:5.320000200000017E7	2	1.0
HT29_05vMiSeq_3_NoGC	8.0:5.4200003999999955E7	2	1.0
HT29_05vMiSeq_3_NoGC	8.0:5.5199999999999784E7	2	1.0
HT29_05vMiSeq_3_NoGC	8.0:5.6200002000000104E7	2	1.0
HT29_05vMiSeq_3_NoGC	8.0:5.7200003999999896E7	2	1.0
HT29_05vMiSeq_3_NoGC	8.0:5.820000000000025E7	2	1.0
HT29_05vMiSeq_3_NoGC	8.0:5.920000200000004E7	2	1.0
HT29_05vMiSeq_3_NoGC	8.0:6.020000399999983E7	2	1.0
HT29_05vMiSeq_3_NoGC	8.0:6.1200000000000186E7	2	1.0
HT29_05vMiSeq_3_NoGC	8.0:6.220000199999998E7	2	1.0
HT29_05vMiSeq_3_NoGC	8.0:6.320000399999977E7	2	1.0
HT29_05vMiSeq_3_NoGC	8.0:6.420000000000013E7	2	1.0
HT29_05vMiSeq_3_NoGC	8.0:6.520000199999991E7	2	1.0
HT29_05vMiSeq_3_NoGC	8.0:6.620000400000023E7	2	1.0
HT29_05vMiSeq_3_NoGC	8.0:6.720000000000006E7	2	1.0
HT29_05vMiSeq_3_NoGC	8.0:6.820000199999985E7	2	1.0
HT29_05vMiSeq_3_NoGC	8.0:6.920000400000016E7	2	1.0
HT29_05vMiSeq_3_NoGC	8.0:7.02E7	2	1.0
HT29_05vMiSeq_3_NoGC	8.0:7.120000199999979E7	2	1.0
HT29_05vMiSeq_3_NoGC	8.0:7.22000040000001E7	2	1.0
HT29_05vMiSeq_3_NoGC	8.0:7.319999999999993E7	2	1.0
HT29_05vMiSeq_3_NoGC	8.0:7.420000200000025E7	2	1.0
HT29_05vMiSeq_3_NoGC	8.0:7.519999800000007E7	2	1.0
HT29_05vMiSeq_3_NoGC	8.0:7.619999999999987E7	2	1.0
HT29_05vMiSeq_3_NoGC	8.0:7.72000020000002E7	2	1.0
HT29_05vMiSeq_3_NoGC	8.0:7.819999800000001E7	2	1.0
HT29_05vMiSeq_3_NoGC	8.0:7.91999999999998E7	2	1.0
HT29_05vMiSeq_3_NoGC	8.0:8.020000200000012E7	2	1.0
HT29_05vMiSeq_3_NoGC	8.0:8.120000399999991E7	2	1.0
HT29_05vMiSeq_3_NoGC	8.0:8.219999999999975E7	2	1.0
HT29_05vMiSeq_3_NoGC	8.0:8.320000200000006E7	2	1.0
HT29_05vMiSeq_3_NoGC	8.0:8.420000399999985E7	2	1.0
HT29_05vMiSeq_3_NoGC	8.0:8.520000000000021E7	2	1.0
HT29_05vMiSeq_3_NoGC	8.0:8.6200002E7	2	1.0
HT29_05vMiSeq_3_NoGC	8.0:8.720000399999979E7	2	1.0
HT29_05vMiSeq_3_NoGC	8.0:8.820000000000015E7	2	1.0
HT29_05vMiSeq_3_NoGC	8.0:8.920000199999994E7	2	1.0
HT29_05vMiSeq_3_NoGC	8.0:9.020000400000025E7	2	1.0
HT29_05vMiSeq_3_NoGC	8.0:9.120000000000007E7	2	1.0
HT29_05vMiSeq_3_NoGC	8.0:9.220000199999987E7	2	1.0
HT29_05vMiSeq_3_NoGC	8.0:9.32000040000002E7	2	1.0
HT29_05vMiSeq_3_NoGC	8.0:9.420000000000001E7	2	1.0
HT29_05vMiSeq_3_NoGC	8.0:9.52000019999998E7	2	1.0
HT29_05vMiSeq_3_NoGC	8.0:9.620000400000013E7	2	1.0
HT29_05vMiSeq_3_NoGC	8.0:9.719999999999996E7	2	1.0
HT29_05vMiSeq_3_NoGC	8.0:9.820000199999975E7	2	1.0
HT29_05vMiSeq_3_NoGC	8.0:9.91999980000001E7	2	1.0
HT29_05vMiSeq_3_NoGC	8.0:1.001999999999999E8	2	1.0
HT29_05vMiSeq_3_NoGC	8.0:1.0120000200000021E8	2	1.0
HT29_05vMiSeq_3_NoGC	8.0:1.0219999800000003E8	2	1.0
HT29_05vMiSeq_3_NoGC	8.0:1.0319999999999982E8	2	1.0
HT29_05vMiSeq_3_NoGC	8.0:1.0420000200000015E8	2	1.0
HT29_05vMiSeq_3_NoGC	8.0:1.0520000399999994E8	2	1.0
HT29_05vMiSeq_3_NoGC	8.0:1.0619999999999976E8	2	1.0
HT29_05vMiSeq_3_NoGC	8.0:1.0720000200000009E8	2	1.0
HT29_05vMiSeq_3_NoGC	8.0:1.0820000399999987E8	2	1.0
HT29_05vMiSeq_3_NoGC	8.0:1.0920000000000022E8	2	1.0
HT29_05vMiSeq_3_NoGC	8.0:1.1020000200000001E8	2	1.0
HT29_05vMiSeq_3_NoGC	8.0:1.112000039999998E8	2	1.0
HT29_05vMiSeq_3_NoGC	8.0:1.1220000000000016E8	2	1.0
HT29_05vMiSeq_3_NoGC	8.0:1.1320000199999996E8	2	1.0
HT29_05vMiSeq_3_NoGC	8.0:1.1420000399999975E8	2	1.0
HT29_05vMiSeq_3_NoGC	8.0:1.152000000000001E8	2	1.0
HT29_05vMiSeq_3_NoGC	8.0:1.162000019999999E8	2	1.0
HT29_05vMiSeq_3_NoGC	9.0:835002.0000001735	2	1.0
HT29_05vMiSeq_3_NoGC	9.0:1835003.9999999623	2	1.0
HT29_05vMiSeq_3_NoGC	9.0:2834999.9999997877	2	1.0
HT29_05vMiSeq_3_NoGC	9.0:3835002.0000001094	2	1.0
HT29_05vMiSeq_3_NoGC	9.0:4835003.9999998985	2	1.0
HT29_05vMiSeq_3_NoGC	9.0:5835000.000000257	2	1.0
HT29_05vMiSeq_3_NoGC	9.0:6835002.000000046	2	1.0
HT29_05vMiSeq_3_NoGC	9.0:7835003.999999834	2	1.0
HT29_05vMiSeq_3_NoGC	9.0:8835000.000000192	2	1.0
HT29_05vMiSeq_3_NoGC	9.0:9835001.999999981	2	1.0
HT29_05vMiSeq_3_NoGC	9.0:1.083500399999977E7	2	1.0
HT29_05vMiSeq_3_NoGC	9.0:1.1835000000000129E7	2	1.0
HT29_05vMiSeq_3_NoGC	9.0:1.2835001999999918E7	2	1.0
HT29_05vMiSeq_3_NoGC	9.0:1.383500400000024E7	2	1.0
HT29_05vMiSeq_3_NoGC	9.0:1.4835000000000065E7	2	1.0
HT29_05vMiSeq_3_NoGC	9.0:1.5835001999999853E7	2	1.0
HT29_05vMiSeq_3_NoGC	9.0:1.6835004000000175E7	2	1.0
HT29_05vMiSeq_3_NoGC	9.0:1.7835E7	2	1.0
HT29_05vMiSeq_3_NoGC	9.0:1.883500199999979E7	2	1.0
HT29_05vMiSeq_3_NoGC	9.0:1.983500400000011E7	2	1.0
HT29_05vMiSeq_3_NoGC	9.0:2.0834999999999937E7	2	1.0
HT29_05vMiSeq_3_NoGC	9.0:2.1835002000000257E7	2	1.0
HT29_05vMiSeq_3_NoGC	9.0:2.2834998000000086E7	2	1.0
HT29_05vMiSeq_3_NoGC	9.0:2.3834999999999873E7	2	1.0
HT29_05vMiSeq_3_NoGC	9.0:2.4835002000000194E7	2	1.0
HT29_05vMiSeq_3_NoGC	9.0:2.583499800000002E7	2	1.0
HT29_05vMiSeq_3_NoGC	9.0:2.683499999999981E7	2	1.0
HT29_05vMiSeq_3_NoGC	9.0:2.783500200000013E7	2	1.0
HT29_05vMiSeq_3_NoGC	9.0:2.8835003999999918E7	2	1.0
HT29_05vMiSeq_3_NoGC	9.0:2.9834999999999747E7	2	1.0
HT29_05vMiSeq_3_NoGC	9.0:3.0835002000000067E7	2	1.0
HT29_05vMiSeq_3_NoGC	9.0:3.1835003999999855E7	2	1.0
HT29_05vMiSeq_3_NoGC	10.0:4.262100000000011E7	2	1.0
HT29_05vMiSeq_3_NoGC	10.0:4.3621001999999896E7	2	1.0
HT29_05vMiSeq_3_NoGC	10.0:4.4621004000000216E7	2	1.0
HT29_05vMiSeq_3_NoGC	10.0:4.5621000000000045E7	2	1.0
HT29_05vMiSeq_3_NoGC	10.0:4.6621001999999836E7	2	1.0
HT29_05vMiSeq_3_NoGC	10.0:4.762100400000016E7	2	1.0
HT29_05vMiSeq_3_NoGC	10.0:4.862099999999998E7	2	1.0
HT29_05vMiSeq_3_NoGC	10.0:4.962100199999977E7	2	1.0
HT29_05vMiSeq_3_NoGC	10.0:5.062100400000009E7	2	1.0
HT29_05vMiSeq_3_NoGC	10.0:5.162099999999992E7	2	1.0
HT29_05vMiSeq_3_NoGC	10.0:5.262100200000024E7	2	1.0
HT29_05vMiSeq_3_NoGC	10.0:5.362099800000007E7	2	1.0
HT29_05vMiSeq_3_NoGC	10.0:5.462099999999985E7	2	1.0
HT29_05vMiSeq_3_NoGC	10.0:5.562100200000017E7	2	1.0
HT29_05vMiSeq_3_NoGC	10.0:5.662100399999996E7	2	1.0
HT29_05vMiSeq_3_NoGC	10.0:5.762099999999979E7	2	1.0
HT29_05vMiSeq_3_NoGC	10.0:5.862100200000011E7	2	1.0
HT29_05vMiSeq_3_NoGC	10.0:5.96210039999999E7	2	1.0
HT29_05vMiSeq_3_NoGC	10.0:6.062100000000026E7	2	1.0
HT29_05vMiSeq_3_NoGC	10.0:6.1621002000000045E7	2	1.0
HT29_05vMiSeq_3_NoGC	10.0:6.2621003999999836E7	2	1.0
HT29_05vMiSeq_3_NoGC	10.0:6.362100000000019E7	2	1.0
HT29_05vMiSeq_3_NoGC	10.0:6.4621001999999985E7	2	1.0
HT29_05vMiSeq_3_NoGC	10.0:6.562100399999977E7	2	1.0
HT29_05vMiSeq_3_NoGC	10.0:6.662100000000013E7	2	1.0
HT29_05vMiSeq_3_NoGC	10.0:6.762100199999993E7	2	1.0
HT29_05vMiSeq_3_NoGC	10.0:6.862100400000024E7	2	1.0
HT29_05vMiSeq_3_NoGC	10.0:6.962100000000006E7	2	1.0
HT29_05vMiSeq_3_NoGC	11.0:2.108600400000018E7	2	1.0
HT29_05vMiSeq_3_NoGC	11.0:2.2086000000000007E7	2	1.0
HT29_05vMiSeq_3_NoGC	11.0:2.3086001999999795E7	2	1.0
HT29_05vMiSeq_3_NoGC	11.0:2.4086004000000115E7	2	1.0
HT29_05vMiSeq_3_NoGC	11.0:2.508599999999994E7	2	1.0
HT29_05vMiSeq_3_NoGC	11.0:2.6086002000000264E7	2	1.0
HT29_05vMiSeq_3_NoGC	11.0:2.7086004000000052E7	2	1.0
HT29_05vMiSeq_3_NoGC	11.0:2.8085999999999877E7	2	1.0
HT29_05vMiSeq_3_NoGC	11.0:2.90860020000002E7	2	1.0
HT29_05vMiSeq_3_NoGC	11.0:3.008600399999999E7	2	1.0
HT29_05vMiSeq_3_NoGC	11.0:3.1085999999999814E7	2	1.0
HT29_05vMiSeq_3_NoGC	11.0:3.2086002000000134E7	2	1.0
HT29_05vMiSeq_3_NoGC	11.0:3.3086003999999925E7	2	1.0
HT29_05vMiSeq_3_NoGC	11.0:3.408599999999975E7	2	1.0
HT29_05vMiSeq_3_NoGC	11.0:3.5086002000000075E7	2	1.0
HT29_05vMiSeq_3_NoGC	11.0:3.608600399999986E7	2	1.0
HT29_05vMiSeq_3_NoGC	11.0:3.7086000000000216E7	2	1.0
HT29_05vMiSeq_3_NoGC	11.0:3.808600200000001E7	2	1.0
HT29_05vMiSeq_3_NoGC	11.0:3.90860039999998E7	2	1.0
HT29_05vMiSeq_3_NoGC	11.0:4.008600000000016E7	2	1.0
HT29_05vMiSeq_3_NoGC	11.0:4.108600199999994E7	2	1.0
HT29_05vMiSeq_3_NoGC	11.0:4.208600400000027E7	2	1.0
HT29_05vMiSeq_3_NoGC	11.0:4.308600000000009E7	2	1.0
HT29_05vMiSeq_3_NoGC	11.0:4.408600199999988E7	2	1.0
HT29_05vMiSeq_3_NoGC	11.0:4.50860040000002E7	2	1.0
HT29_05vMiSeq_3_NoGC	11.0:4.608600000000003E7	2	1.0
HT29_05vMiSeq_3_NoGC	11.0:4.7086001999999814E7	2	1.0
HT29_05vMiSeq_3_NoGC	11.0:4.8086004000000134E7	2	1.0
HT29_05vMiSeq_3_NoGC	11.0:4.908599999999996E7	2	1.0
HT29_05vMiSeq_3_NoGC	11.0:5.0086001999999754E7	2	1.0
HT29_05vMiSeq_3_NoGC	11.0:8.008600200000018E7	2	1.0
HT29_05vMiSeq_3_NoGC	11.0:8.108600399999997E7	2	1.0
HT29_05vMiSeq_3_NoGC	11.0:8.208599999999979E7	2	1.0
HT29_05vMiSeq_3_NoGC	11.0:8.308600200000012E7	2	1.0
HT29_05vMiSeq_3_NoGC	11.0:8.408600399999991E7	2	1.0
HT29_05vMiSeq_3_NoGC	11.0:8.508600000000027E7	2	1.0
HT29_05vMiSeq_3_NoGC	11.0:8.608600200000004E7	2	1.0
HT29_05vMiSeq_3_NoGC	11.0:8.708600399999984E7	2	1.0
HT29_05vMiSeq_3_NoGC	11.0:8.80860000000002E7	2	1.0
HT29_05vMiSeq_3_NoGC	11.0:8.908600199999999E7	2	1.0
HT29_05vMiSeq_3_NoGC	11.0:9.008600399999978E7	2	1.0
HT29_05vMiSeq_3_NoGC	11.0:9.108600000000013E7	2	1.0
HT29_05vMiSeq_3_NoGC	11.0:9.208600199999993E7	2	1.0
HT29_05vMiSeq_3_NoGC	11.0:9.308600400000024E7	2	1.0
HT29_05vMiSeq_3_NoGC	11.0:9.408600000000007E7	2	1.0
HT29_05vMiSeq_3_NoGC	11.0:9.508600199999987E7	2	1.0
HT29_05vMiSeq_3_NoGC	11.0:9.608600400000018E7	2	1.0
HT29_05vMiSeq_3_NoGC	11.0:9.7086E7	2	1.0
HT29_05vMiSeq_3_NoGC	11.0:9.808600199999979E7	2	1.0
HT29_05vMiSeq_3_NoGC	11.0:9.908600400000012E7	2	1.0
HT29_05vMiSeq_3_NoGC	11.0:1.0008599999999994E8	2	1.0
HT29_05vMiSeq_3_NoGC	11.0:1.0108600200000027E8	2	1.0
HT29_05vMiSeq_3_NoGC	11.0:1.0208600400000006E8	2	1.0
HT29_05vMiSeq_3_NoGC	11.0:1.0308599999999988E8	2	1.0
HT29_05vMiSeq_3_NoGC	11.0:1.040860020000002E8	2	1.0
HT29_05vMiSeq_3_NoGC	11.0:1.0508600399999999E8	2	1.0
HT29_05vMiSeq_3_NoGC	11.0:1.0608599999999982E8	2	1.0
HT29_05vMiSeq_3_NoGC	11.0:1.0708600200000013E8	2	1.0
HT29_05vMiSeq_3_NoGC	11.0:1.0808600399999993E8	2	1.0
HT29_05vMiSeq_3_NoGC	11.0:1.0908599999999975E8	2	1.0
HT29_05vMiSeq_3_NoGC	12.0:1.4078999999999909E7	2	1.0
HT29_05vMiSeq_3_NoGC	12.0:1.5079002000000231E7	2	1.0
HT29_05vMiSeq_3_NoGC	12.0:1.6079004000000019E7	2	1.0
HT29_05vMiSeq_3_NoGC	12.0:1.7078999999999844E7	2	1.0
HT29_05vMiSeq_3_NoGC	12.0:1.8079002000000168E7	2	1.0
HT29_05vMiSeq_3_NoGC	12.0:1.9079003999999955E7	2	1.0
HT29_05vMiSeq_3_NoGC	12.0:2.007899999999978E7	2	1.0
HT29_05vMiSeq_3_NoGC	12.0:2.10790020000001E7	2	1.0
HT29_05vMiSeq_3_NoGC	12.0:2.2079003999999892E7	2	1.0
HT29_05vMiSeq_3_NoGC	12.0:2.307900000000025E7	2	1.0
HT29_05vMiSeq_3_NoGC	12.0:2.4079002000000037E7	2	1.0
HT29_05vMiSeq_3_NoGC	12.0:2.507900399999983E7	2	1.0
HT29_05vMiSeq_3_NoGC	12.0:2.6079000000000186E7	2	1.0
HT29_05vMiSeq_3_NoGC	12.0:2.7079001999999974E7	2	1.0
HT29_05vMiSeq_3_NoGC	12.0:2.807900399999976E7	2	1.0
HT29_05vMiSeq_3_NoGC	12.0:2.9079000000000123E7	2	1.0
HT29_05vMiSeq_3_NoGC	12.0:3.007900199999991E7	2	1.0
HT29_05vMiSeq_3_NoGC	12.0:3.107900400000023E7	2	1.0
HT29_05vMiSeq_3_NoGC	12.0:3.2079000000000056E7	2	1.0
HT29_05vMiSeq_3_NoGC	12.0:3.3079001999999847E7	2	1.0
HT29_05vMiSeq_3_NoGC	12.0:3.407900400000017E7	2	1.0
HT29_05vMiSeq_3_NoGC	12.0:3.7079004000000104E7	2	1.0
HT29_05vMiSeq_3_NoGC	12.0:3.807899999999993E7	2	1.0
HT29_05vMiSeq_3_NoGC	12.0:3.907900200000025E7	2	1.0
HT29_05vMiSeq_3_NoGC	12.0:4.007900400000004E7	2	1.0
HT29_05vMiSeq_3_NoGC	12.0:4.1078999999999866E7	2	1.0
HT29_05vMiSeq_3_NoGC	12.0:4.2079002000000186E7	2	1.0
HT29_05vMiSeq_3_NoGC	12.0:4.307900399999998E7	2	1.0
HT29_05vMiSeq_3_NoGC	12.0:4.40789999999998E7	2	1.0
HT29_05vMiSeq_3_NoGC	12.0:4.507900200000013E7	2	1.0
HT29_05vMiSeq_3_NoGC	12.0:4.607900399999991E7	2	1.0
HT29_05vMiSeq_3_NoGC	12.0:5.9079000000000015E7	2	1.0
HT29_05vMiSeq_3_NoGC	12.0:6.007900199999981E7	2	1.0
HT29_05vMiSeq_3_NoGC	12.0:6.107900400000013E7	2	1.0
HT29_05vMiSeq_3_NoGC	12.0:6.207899999999995E7	2	1.0
HT29_05vMiSeq_3_NoGC	12.0:6.307900199999974E7	2	1.0
HT29_05vMiSeq_3_NoGC	12.0:6.407900400000006E7	2	1.0
HT29_05vMiSeq_3_NoGC	12.0:6.507899999999989E7	2	1.0
HT29_05vMiSeq_3_NoGC	12.0:6.607900200000021E7	2	1.0
HT29_05vMiSeq_3_NoGC	12.0:6.7079004E7	2	1.0
HT29_05vMiSeq_3_NoGC	12.0:6.807899999999982E7	2	1.0
HT29_05vMiSeq_3_NoGC	12.0:6.907900200000015E7	2	1.0
HT29_05vMiSeq_3_NoGC	12.0:7.007900399999994E7	2	1.0
HT29_05vMiSeq_3_NoGC	12.0:7.107899999999976E7	2	1.0
HT29_05vMiSeq_3_NoGC	12.0:7.207900200000007E7	2	1.0
HT29_05vMiSeq_3_NoGC	12.0:7.307900399999987E7	2	1.0
HT29_05vMiSeq_3_NoGC	12.0:7.407900000000022E7	2	1.0
HT29_05vMiSeq_3_NoGC	12.0:7.507900200000001E7	2	1.0
HT29_05vMiSeq_3_NoGC	12.0:7.60790039999998E7	2	1.0
HT29_05vMiSeq_3_NoGC	12.0:7.707900000000016E7	2	1.0
HT29_05vMiSeq_3_NoGC	12.0:7.807900199999996E7	2	1.0
HT29_05vMiSeq_3_NoGC	12.0:7.907900399999975E7	2	1.0
HT29_05vMiSeq_3_NoGC	12.0:8.00790000000001E7	2	1.0
HT29_05vMiSeq_3_NoGC	12.0:8.10790019999999E7	2	1.0
HT29_05vMiSeq_3_NoGC	12.0:8.207900400000021E7	2	1.0
HT29_05vMiSeq_3_NoGC	12.0:8.307900000000003E7	2	1.0
HT29_05vMiSeq_3_NoGC	12.0:8.407900199999982E7	2	1.0
HT29_05vMiSeq_3_NoGC	12.0:8.507900400000015E7	2	1.0
HT29_05vMiSeq_3_NoGC	12.0:8.607899999999997E7	2	1.0
HT29_05vMiSeq_3_NoGC	12.0:8.707900199999976E7	2	1.0
HT29_05vMiSeq_3_NoGC	12.0:8.807900400000009E7	2	1.0
HT29_05vMiSeq_3_NoGC	12.0:8.907899999999991E7	2	1.0
HT29_05vMiSeq_3_NoGC	12.0:9.007900200000022E7	2	1.0
HT29_05vMiSeq_3_NoGC	12.0:9.107900400000001E7	2	1.0
HT29_05vMiSeq_3_NoGC	12.0:9.207899999999985E7	2	1.0
HT29_05vMiSeq_3_NoGC	12.0:9.307900200000016E7	2	1.0
HT29_05vMiSeq_3_NoGC	12.0:9.407900399999996E7	2	1.0
HT29_05vMiSeq_3_NoGC	12.0:9.507899999999978E7	2	1.0
HT29_05vMiSeq_3_NoGC	12.0:9.60790020000001E7	2	1.0
HT29_05vMiSeq_3_NoGC	12.0:9.70790039999999E7	2	1.0
HT29_05vMiSeq_3_NoGC	12.0:9.807900000000025E7	2	1.0
HT29_05vMiSeq_3_NoGC	12.0:9.907900200000004E7	2	1.0
HT29_05vMiSeq_3_NoGC	12.0:1.0007900399999982E8	2	1.0
HT29_05vMiSeq_3_NoGC	13.0:7.222700400000015E7	2	1.0
HT29_05vMiSeq_3_NoGC	13.0:7.322699999999997E7	2	1.0
HT29_05vMiSeq_3_NoGC	13.0:7.422700199999976E7	2	1.0
HT29_05vMiSeq_3_NoGC	13.0:7.522700400000009E7	2	1.0
HT29_05vMiSeq_3_NoGC	13.0:7.622699999999991E7	2	1.0
HT29_05vMiSeq_3_NoGC	13.0:7.722700200000024E7	2	1.0
HT29_05vMiSeq_3_NoGC	13.0:7.822700400000001E7	2	1.0
HT29_05vMiSeq_3_NoGC	13.0:7.922699999999985E7	2	1.0
HT29_05vMiSeq_3_NoGC	13.0:8.022700200000016E7	2	1.0
HT29_05vMiSeq_3_NoGC	13.0:8.122700399999996E7	2	1.0
HT29_05vMiSeq_3_NoGC	13.0:8.222699999999978E7	2	1.0
HT29_05vMiSeq_3_NoGC	13.0:8.32270020000001E7	2	1.0
HT29_05vMiSeq_3_NoGC	13.0:8.42270039999999E7	2	1.0
HT29_05vMiSeq_3_NoGC	13.0:8.522700000000025E7	2	1.0
HT29_05vMiSeq_3_NoGC	13.0:8.622700200000004E7	2	1.0
HT29_05vMiSeq_3_NoGC	13.0:8.722700399999984E7	2	1.0
HT29_05vMiSeq_3_NoGC	13.0:8.82270000000002E7	2	1.0
HT29_05vMiSeq_3_NoGC	13.0:8.922700199999997E7	2	1.0
HT29_05vMiSeq_3_NoGC	13.0:9.022700399999976E7	2	1.0
HT29_05vMiSeq_3_NoGC	13.0:9.122700000000012E7	2	1.0
HT29_05vMiSeq_3_NoGC	13.0:9.222700199999991E7	2	1.0
HT29_05vMiSeq_3_NoGC	13.0:9.322700400000024E7	2	1.0
HT29_05vMiSeq_3_NoGC	13.0:9.422700000000006E7	2	1.0
HT29_05vMiSeq_3_NoGC	13.0:9.522700199999985E7	2	1.0
HT29_05vMiSeq_3_NoGC	13.0:9.622700400000018E7	2	1.0
HT29_05vMiSeq_3_NoGC	13.0:9.7227E7	2	1.0
HT29_05vMiSeq_3_NoGC	13.0:9.822700199999979E7	2	1.0
HT29_05vMiSeq_3_NoGC	13.0:9.92270040000001E7	2	1.0
HT29_05vMiSeq_3_NoGC	13.0:1.0022699999999993E8	2	1.0
HT29_05vMiSeq_3_NoGC	13.0:1.0122700200000025E8	2	1.0
HT29_05vMiSeq_3_NoGC	13.0:1.0222700400000004E8	2	1.0
HT29_05vMiSeq_3_NoGC	13.0:1.0322699999999987E8	2	1.0
HT29_05vMiSeq_3_NoGC	13.0:1.042270020000002E8	2	1.0
HT29_05vMiSeq_3_NoGC	13.0:1.0522700399999999E8	2	1.0
HT29_05vMiSeq_3_NoGC	13.0:1.062269999999998E8	2	1.0
HT29_05vMiSeq_3_NoGC	13.0:1.0722700200000013E8	2	1.0
HT29_05vMiSeq_3_NoGC	13.0:1.0822700399999991E8	2	1.0
HT29_05vMiSeq_3_NoGC	14.0:2.5057001999999784E7	2	1.0
HT29_05vMiSeq_3_NoGC	14.0:2.6057004000000104E7	2	1.0
HT29_05vMiSeq_3_NoGC	14.0:2.7056999999999933E7	2	1.0
HT29_05vMiSeq_3_NoGC	14.0:2.8057002000000253E7	2	1.0
HT29_05vMiSeq_3_NoGC	14.0:2.905700400000004E7	2	1.0
HT29_05vMiSeq_3_NoGC	14.0:3.0056999999999866E7	2	1.0
HT29_05vMiSeq_3_NoGC	14.0:3.105700200000019E7	2	1.0
HT29_05vMiSeq_3_NoGC	14.0:3.2057003999999978E7	2	1.0
HT29_05vMiSeq_3_NoGC	14.0:3.3056999999999803E7	2	1.0
HT29_05vMiSeq_3_NoGC	14.0:3.405700200000013E7	2	1.0
HT29_05vMiSeq_3_NoGC	14.0:3.505700399999991E7	2	1.0
HT29_05vMiSeq_3_NoGC	14.0:3.605699999999974E7	2	1.0
HT29_05vMiSeq_3_NoGC	14.0:3.705700200000006E7	2	1.0
HT29_05vMiSeq_3_NoGC	14.0:3.805700399999985E7	2	1.0
HT29_05vMiSeq_3_NoGC	14.0:3.905700000000021E7	2	1.0
HT29_05vMiSeq_3_NoGC	14.0:4.0057002E7	2	1.0
HT29_05vMiSeq_3_NoGC	14.0:4.1057003999999784E7	2	1.0
HT29_05vMiSeq_3_NoGC	14.0:4.205700000000014E7	2	1.0
HT29_05vMiSeq_3_NoGC	14.0:4.305700199999993E7	2	1.0
HT29_05vMiSeq_3_NoGC	14.0:4.405700400000025E7	2	1.0
HT29_05vMiSeq_3_NoGC	14.0:4.505700000000008E7	2	1.0
HT29_05vMiSeq_3_NoGC	14.0:4.6057001999999866E7	2	1.0
HT29_05vMiSeq_3_NoGC	14.0:4.705700400000019E7	2	1.0
HT29_05vMiSeq_3_NoGC	14.0:4.8057000000000015E7	2	1.0
HT29_05vMiSeq_3_NoGC	14.0:4.905700199999981E7	2	1.0
HT29_05vMiSeq_3_NoGC	14.0:5.005700400000013E7	2	1.0
HT29_05vMiSeq_3_NoGC	14.0:5.1056999999999955E7	2	1.0
HT29_05vMiSeq_3_NoGC	14.0:5.205700199999974E7	2	1.0
HT29_05vMiSeq_3_NoGC	14.0:5.305700400000006E7	2	1.0
HT29_05vMiSeq_3_NoGC	14.0:5.405699999999989E7	2	1.0
HT29_05vMiSeq_3_NoGC	14.0:5.505700200000021E7	2	1.0
HT29_05vMiSeq_3_NoGC	14.0:5.6057004E7	2	1.0
HT29_05vMiSeq_3_NoGC	14.0:5.705699999999982E7	2	1.0
HT29_05vMiSeq_3_NoGC	14.0:5.805700200000015E7	2	1.0
HT29_05vMiSeq_3_NoGC	14.0:5.905700399999993E7	2	1.0
HT29_05vMiSeq_3_NoGC	14.0:6.005699999999976E7	2	1.0
HT29_05vMiSeq_3_NoGC	14.0:6.105700200000008E7	2	1.0
HT29_05vMiSeq_3_NoGC	14.0:6.205700399999987E7	2	1.0
HT29_05vMiSeq_3_NoGC	14.0:6.305700000000023E7	2	1.0
HT29_05vMiSeq_3_NoGC	14.0:6.4057002000000015E7	2	1.0
HT29_05vMiSeq_3_NoGC	14.0:6.505700399999981E7	2	1.0
HT29_05vMiSeq_3_NoGC	14.0:6.6057000000000164E7	2	1.0
HT29_05vMiSeq_3_NoGC	14.0:6.7057001999999955E7	2	1.0
HT29_05vMiSeq_3_NoGC	14.0:6.805700399999975E7	2	1.0
HT29_05vMiSeq_3_NoGC	14.0:6.90570000000001E7	2	1.0
HT29_05vMiSeq_3_NoGC	14.0:7.00570019999999E7	2	1.0
HT29_05vMiSeq_3_NoGC	14.0:7.105700400000021E7	2	1.0
HT29_05vMiSeq_3_NoGC	14.0:7.205700000000004E7	2	1.0
HT29_05vMiSeq_3_NoGC	14.0:7.305700199999982E7	2	1.0
HT29_05vMiSeq_3_NoGC	14.0:7.405700400000015E7	2	1.0
HT29_05vMiSeq_3_NoGC	14.0:7.505699999999997E7	2	1.0
HT29_05vMiSeq_3_NoGC	14.0:7.605700199999976E7	2	1.0
HT29_05vMiSeq_3_NoGC	14.0:7.705700400000009E7	2	1.0
HT29_05vMiSeq_3_NoGC	14.0:7.805699999999991E7	2	1.0
HT29_05vMiSeq_3_NoGC	14.0:7.905700200000024E7	2	1.0
HT29_05vMiSeq_3_NoGC	14.0:8.005700400000001E7	2	1.0
HT29_05vMiSeq_3_NoGC	14.0:8.105699999999985E7	2	1.0
HT29_05vMiSeq_3_NoGC	14.0:8.205700200000016E7	2	1.0
HT29_05vMiSeq_3_NoGC	14.0:8.305700399999996E7	2	1.0
HT29_05vMiSeq_3_NoGC	14.0:8.405699999999978E7	2	1.0
HT29_05vMiSeq_3_NoGC	14.0:8.50570020000001E7	2	1.0
HT29_05vMiSeq_3_NoGC	14.0:8.60570039999999E7	2	1.0
HT29_05vMiSeq_3_NoGC	14.0:8.705700000000025E7	2	1.0
HT29_05vMiSeq_3_NoGC	14.0:8.805700200000004E7	2	1.0
HT29_05vMiSeq_3_NoGC	14.0:8.905700399999982E7	2	1.0
HT29_05vMiSeq_3_NoGC	14.0:9.00570000000002E7	2	1.0
HT29_05vMiSeq_3_NoGC	18.0:1.8624000000000507E7	2	1.0
HT29_05vMiSeq_3_NoGC	18.0:1.962400199999976E7	2	1.0
HT29_05vMiSeq_3_NoGC	18.0:2.0624004000000086E7	2	1.0
HT29_05vMiSeq_3_NoGC	18.0:2.162399999999991E7	2	1.0
HT29_05vMiSeq_3_NoGC	18.0:2.262400200000023E7	2	1.0
HT29_05vMiSeq_3_NoGC	18.0:2.3624003999999486E7	2	1.0
HT29_05vMiSeq_3_NoGC	18.0:2.462400000000038E7	2	1.0
HT29_05vMiSeq_3_NoGC	18.0:2.5624001999999635E7	2	1.0
HT29_05vMiSeq_3_NoGC	18.0:2.6624003999999955E7	2	1.0
HT29_05vMiSeq_3_NoGC	18.0:2.762399999999978E7	2	1.0
HT29_05vMiSeq_3_NoGC	18.0:2.8624002000000104E7	2	1.0
HT29_05vMiSeq_3_NoGC	18.0:2.9624004000000425E7	2	1.0
HT29_05vMiSeq_3_NoGC	18.0:3.062400000000025E7	2	1.0
HT29_05vMiSeq_3_NoGC	18.0:3.162400199999951E7	2	1.0
HT29_05vMiSeq_3_NoGC	18.0:3.26239980000004E7	2	1.0
HT29_05vMiSeq_3_NoGC	18.0:3.362399999999966E7	2	1.0
HT29_05vMiSeq_3_NoGC	18.0:3.462400199999998E7	2	1.0
HT29_05vMiSeq_3_NoGC	18.0:3.56240040000003E7	2	1.0
HT29_05vMiSeq_3_NoGC	18.0:3.662400000000013E7	2	1.0
HT29_05vMiSeq_3_NoGC	18.0:3.762400200000045E7	2	1.0
HT29_05vMiSeq_3_NoGC	18.0:3.86240039999997E7	2	1.0
HT29_05vMiSeq_3_NoGC	18.0:3.962399999999952E7	2	1.0
HT29_05vMiSeq_3_NoGC	18.0:4.062400199999985E7	2	1.0
HT29_05vMiSeq_3_NoGC	18.0:4.162400400000017E7	2	1.0
HT29_05vMiSeq_3_NoGC	18.0:4.262399999999999E7	2	1.0
HT29_05vMiSeq_3_NoGC	18.0:4.362400200000032E7	2	1.0
HT29_05vMiSeq_3_NoGC	18.0:4.4624003999999575E7	2	1.0
HT29_05vMiSeq_3_NoGC	18.0:4.562400000000046E7	2	1.0
HT29_05vMiSeq_3_NoGC	18.0:4.662400199999972E7	2	1.0
HT29_05vMiSeq_3_NoGC	18.0:4.7624004000000045E7	2	1.0
HT29_05vMiSeq_3_NoGC	18.0:4.8623999999999866E7	2	1.0
HT29_05vMiSeq_3_NoGC	18.0:4.9624002000000186E7	2	1.0
HT29_05vMiSeq_3_NoGC	18.0:5.0624004000000514E7	2	1.0
HT29_05vMiSeq_3_NoGC	18.0:5.1624000000000335E7	2	1.0
HT29_05vMiSeq_3_NoGC	18.0:5.262400199999959E7	2	1.0
HT29_05vMiSeq_3_NoGC	18.0:5.362400399999991E7	2	1.0
HT29_05vMiSeq_3_NoGC	18.0:5.462399999999974E7	2	1.0
HT29_05vMiSeq_3_NoGC	18.0:5.562400200000006E7	2	1.0
HT29_05vMiSeq_3_NoGC	18.0:5.662400400000038E7	2	1.0
HT29_05vMiSeq_3_NoGC	18.0:5.762400000000021E7	2	1.0
HT29_05vMiSeq_3_NoGC	18.0:5.862400200000053E7	2	1.0
HT29_05vMiSeq_3_NoGC	18.0:5.962399800000036E7	2	1.0
HT29_05vMiSeq_3_NoGC	18.0:6.062399999999961E7	2	1.0
HT29_05vMiSeq_3_NoGC	18.0:6.162400199999993E7	2	1.0
HT29_05vMiSeq_3_NoGC	18.0:6.262400400000025E7	2	1.0
HT29_05vMiSeq_3_NoGC	18.0:6.362400000000008E7	2	1.0
HT29_05vMiSeq_3_NoGC	18.0:6.46240020000004E7	2	1.0
HT29_05vMiSeq_3_NoGC	18.0:6.562400399999966E7	2	1.0
HT29_05vMiSeq_3_NoGC	18.0:6.6623999999999486E7	2	1.0
HT29_05vMiSeq_3_NoGC	18.0:6.76240019999998E7	2	1.0
HT29_05vMiSeq_3_NoGC	18.0:6.862400400000013E7	2	1.0
HT29_05vMiSeq_3_NoGC	18.0:6.962399999999996E7	2	1.0
HT29_05vMiSeq_3_NoGC	18.0:7.062400200000027E7	2	1.0
HT29_05vMiSeq_3_NoGC	21.0:1.3391003999999994E7	2	1.0
HT29_05vMiSeq_3_NoGC	21.0:1.4390999999999821E7	2	1.0
HT29_05vMiSeq_3_NoGC	21.0:1.5391002000000142E7	2	1.0
HT29_05vMiSeq_3_NoGC	21.0:1.6391004000000464E7	2	1.0
HT29_05vMiSeq_3_NoGC	21.0:1.739100000000029E7	2	1.0
HT29_05vMiSeq_3_NoGC	21.0:1.8391001999999546E7	2	1.0
HT29_05vMiSeq_3_NoGC	21.0:1.9390998000000436E7	2	1.0
HT29_05vMiSeq_3_NoGC	21.0:2.0390999999999695E7	2	1.0
HT29_05vMiSeq_3_NoGC	21.0:2.1391002000000015E7	2	1.0
HT29_05vMiSeq_3_NoGC	21.0:2.2391004000000335E7	2	1.0
HT29_05vMiSeq_3_NoGC	21.0:2.339100000000016E7	2	1.0
HT29_05vMiSeq_3_NoGC	21.0:2.4391002000000484E7	2	1.0
HT29_05vMiSeq_3_NoGC	21.0:2.539099800000031E7	2	1.0
HT29_05vMiSeq_3_NoGC	21.0:2.6390999999999564E7	2	1.0
HT29_05vMiSeq_3_NoGC	21.0:2.739100199999989E7	2	1.0
HT29_05vMiSeq_3_NoGC	21.0:2.839100400000021E7	2	1.0
HT29_05vMiSeq_3_NoGC	21.0:2.9391000000000034E7	2	1.0
HT29_05vMiSeq_3_NoGC	21.0:3.0391002000000354E7	2	1.0
HT29_05vMiSeq_3_NoGC	21.0:3.1391003999999613E7	2	1.0
HT29_05vMiSeq_3_NoGC	23.0:3956004.000000135	2	1.0
HT29_05vMiSeq_3_NoGC	23.0:4955999.999999961	2	1.0
HT29_05vMiSeq_3_NoGC	23.0:5956002.000000282	2	1.0
HT29_05vMiSeq_3_NoGC	23.0:6956003.999999538	2	1.0
HT29_05vMiSeq_3_NoGC	23.0:7956000.000000429	2	1.0
HT29_05vMiSeq_3_NoGC	23.0:8956001.999999685	2	1.0
HT29_05vMiSeq_3_NoGC	23.0:9956004.000000007	2	1.0
HT29_05vMiSeq_3_NoGC	23.0:1.0955999999999832E7	2	1.0
HT29_05vMiSeq_3_NoGC	23.0:1.1956002000000155E7	2	1.0
HT29_05vMiSeq_3_NoGC	23.0:1.2956004000000477E7	2	1.0
HT29_05vMiSeq_3_NoGC	23.0:1.3956000000000302E7	2	1.0
HT29_05vMiSeq_3_NoGC	23.0:1.4956001999999557E7	2	1.0
HT29_05vMiSeq_3_NoGC	23.0:1.5956003999999879E7	2	1.0
HT29_05vMiSeq_3_NoGC	23.0:1.6955999999999706E7	2	1.0
HT29_05vMiSeq_3_NoGC	23.0:1.7956002000000026E7	2	1.0
HT29_05vMiSeq_3_NoGC	23.0:1.8956004000000346E7	2	1.0
HT29_05vMiSeq_3_NoGC	23.0:1.9956000000000175E7	2	1.0
HT29_05vMiSeq_3_NoGC	23.0:2.0956002000000495E7	2	1.0
HT29_05vMiSeq_3_NoGC	23.0:2.195600399999975E7	2	1.0
HT29_05vMiSeq_3_NoGC	23.0:2.2955999999999575E7	2	1.0
HT29_05vMiSeq_3_NoGC	23.0:2.39560019999999E7	2	1.0
HT29_05vMiSeq_3_NoGC	23.0:2.495600400000022E7	2	1.0
HT29_05vMiSeq_3_NoGC	23.0:2.5956000000000045E7	2	1.0
HT29_05vMiSeq_3_NoGC	23.0:2.695600200000037E7	2	1.0
HT29_05vMiSeq_3_NoGC	23.0:2.7956003999999624E7	2	1.0
HT29_05vMiSeq_3_NoGC	23.0:2.8956000000000514E7	2	1.0
HT29_05vMiSeq_3_NoGC	23.0:2.995600199999977E7	2	1.0
HT29_05vMiSeq_3_NoGC	23.0:3.0956004000000093E7	2	1.0
HT29_05vMiSeq_3_NoGC	23.0:3.1955999999999918E7	2	1.0
HT29_05vMiSeq_3_NoGC	23.0:3.295600200000024E7	2	1.0
HT29_05vMiSeq_3_NoGC	23.0:3.395600399999949E7	2	1.0
HT29_05vMiSeq_3_NoGC	23.0:3.495600000000039E7	2	1.0
HT29_05vMiSeq_3_NoGC	23.0:3.595600199999964E7	2	1.0
HT29_05vMiSeq_3_NoGC	23.0:3.695600399999996E7	2	1.0
HT29_05vMiSeq_3_NoGC	23.0:3.795599999999979E7	2	1.0
HT29_05vMiSeq_3_NoGC	23.0:7.69559999999995E7	2	1.0
HT29_05vMiSeq_3_NoGC	23.0:7.79560019999998E7	2	1.0
HT29_05vMiSeq_3_NoGC	23.0:7.895600400000013E7	2	1.0
HT29_05vMiSeq_3_NoGC	23.0:7.995599999999996E7	2	1.0
HT29_05vMiSeq_3_NoGC	23.0:8.095600200000028E7	2	1.0
HT29_05vMiSeq_3_NoGC	23.0:8.195600399999954E7	2	1.0
HT29_05vMiSeq_3_NoGC	23.0:8.295600000000043E7	2	1.0
HT29_05vMiSeq_3_NoGC	23.0:8.395600199999969E7	2	1.0
HT29_05vMiSeq_3_NoGC	23.0:8.4956004E7	2	1.0
HT29_05vMiSeq_3_NoGC	23.0:8.595599999999984E7	2	1.0
HT29_05vMiSeq_3_NoGC	23.0:8.695600200000015E7	2	1.0
HT29_05vMiSeq_3_NoGC	23.0:8.795600400000048E7	2	1.0
HT29_05vMiSeq_3_NoGC	23.0:8.89560000000003E7	2	1.0
HT29_05vMiSeq_3_NoGC	23.0:8.995600199999955E7	2	1.0
HT29_05vMiSeq_3_NoGC	23.0:9.095600399999988E7	2	1.0
HT29_05vMiSeq_3_NoGC	23.0:9.19559999999997E7	2	1.0
HT29_05vMiSeq_3_NoGC	23.0:9.295600200000003E7	2	1.0
HT29_05vMiSeq_3_NoGC	23.0:9.395600400000034E7	2	1.0
HT29_05vMiSeq_3_NoGC	23.0:9.495600000000018E7	2	1.0
HT29_05vMiSeq_3_NoGC	23.0:9.595600200000049E7	2	1.0
HT29_05vMiSeq_3_NoGC	23.0:9.695600399999975E7	2	1.0
HT29_05vMiSeq_3_NoGC	23.0:9.795599999999958E7	2	1.0
HT29_05vMiSeq_3_NoGC	23.0:9.89560019999999E7	2	1.0
HT29_05vMiSeq_3_NoGC	23.0:9.995600400000022E7	2	1.0
HT29_05vMiSeq_3_NoGC	23.0:1.0095600000000004E8	2	1.0
HT29_05vMiSeq_3_NoGC	23.0:1.0195600200000037E8	2	1.0
HT29_05vMiSeq_3_NoGC	23.0:1.0295600399999963E8	2	1.0
HT29_05vMiSeq_3_NoGC	23.0:1.0395600000000052E8	2	1.0
HT29_05vMiSeq_3_NoGC	23.0:1.0495600199999978E8	2	1.0
HT29_05vMiSeq_3_NoGC	23.0:1.0595600400000009E8	2	1.0
HT29_05vMiSeq_3_NoGC	23.0:1.0695599999999991E8	2	1.0
HT29_05vMiSeq_3_NoGC	23.0:1.0795600200000024E8	2	1.0
HT29_05vMiSeq_3_NoGC	23.0:1.089560039999995E8	2	1.0
HT29_05vMiSeq_3_NoGC	23.0:1.0995600000000039E8	2	1.0
HT29_05vMiSeq_3_NoGC	23.0:1.1095600199999964E8	2	1.0
HT29_05vMiSeq_3_NoGC	23.0:1.1195600399999997E8	2	1.0
HT29_05vMiSeq_3_NoGC	23.0:1.1295599999999979E8	2	1.0
HT29_05vMiSeq_3_NoGC	23.0:1.139560020000001E8	2	1.0
HT29_05vMiSeq_3_NoGC	23.0:1.1495600400000043E8	2	1.0
HT29_05vMiSeq_3_NoGC	23.0:1.1595600000000025E8	2	1.0
HT29_05vMiSeq_3_NoGC	23.0:1.1695600199999951E8	2	1.0
HT29_05vMiSeq_3_NoGC	23.0:1.1795600399999984E8	2	1.0
HT29_05vMiSeq_3_NoGC	23.0:1.1895599999999966E8	2	1.0
HT29_05vMiSeq_3_NoGC	23.0:1.1995600199999999E8	2	1.0
HT29_05vMiSeq_3_NoGC	23.0:1.2095600400000031E8	2	1.0
HT29_05vMiSeq_3_NoGC	23.0:1.2195600000000013E8	2	1.0
HT29_05vMiSeq_3_NoGC	23.0:1.2295600200000045E8	2	1.0
HT29_05vMiSeq_3_NoGC	23.0:1.239560039999997E8	2	1.0
HT29_05vMiSeq_3_NoGC	23.0:1.2495599999999954E8	2	1.0
HT29_05vMiSeq_3_NoGC	23.0:1.2595600199999985E8	2	1.0
HT29_05vMiSeq_3_NoGC	23.0:1.2695600400000018E8	2	1.0
HT29_05vMiSeq_3_NoGC	23.0:1.27956E8	2	1.0
HT29_05vMiSeq_3_NoGC	23.0:1.2895600200000033E8	2	1.0
HT29_05vMiSeq_3_NoGC	23.0:1.2995600399999958E8	2	1.0
HT29_05vMiSeq_3_NoGC	23.0:1.3095600000000048E8	2	1.0
HT29_05vMiSeq_3_NoGC	23.0:1.3195600199999973E8	2	1.0
HT29_05vMiSeq_3_NoGC	23.0:1.3295600400000004E8	2	1.0
HT29_05vMiSeq_3_NoGC	23.0:1.3395599999999988E8	2	1.0
HT29_05vMiSeq_3_NoGC	23.0:1.349560020000002E8	2	1.0
HT29_05vMiSeq_3_NoGC	23.0:1.359560040000005E8	2	1.0
HT29_05vMiSeq_3_NoGC	23.0:1.3695600000000036E8	2	1.0
HT29_05vMiSeq_3_NoGC	23.0:1.379560019999996E8	2	1.0
HT29_05vMiSeq_3_NoGC	23.0:1.389560039999999E8	2	1.0
HT29_05vMiSeq_3_NoGC	23.0:1.3995599999999976E8	2	1.0
HT29_05vMiSeq_3_NoGC	23.0:1.4095600200000006E8	2	1.0
HT29_05vMiSeq_3_NoGC	23.0:1.419560040000004E8	2	1.0
HT29_05vMiSeq_3_NoGC	23.0:1.429560000000002E8	2	1.0
HT29_05vMiSeq_3_NoGC	23.0:1.4395600199999946E8	2	1.0
HT29_05vMiSeq_3_NoGC	23.0:1.449560039999998E8	2	1.0
HT29_05vMiSeq_3_NoGC	23.0:1.459559999999996E8	2	1.0
HT29_05vMiSeq_3_NoGC	1.0:0.0	4	1.0
HT29_05vMiSeq_3_NoGC	1.0:1000001.9999999887	4	1.0
HT29_05vMiSeq_3_NoGC	1.0:2000003.9999999774	4	1.0
HT29_05vMiSeq_3_NoGC	1.0:3000000.000000003	4	1.0
HT29_05vMiSeq_3_NoGC	1.0:4000001.9999999916	4	1.0
HT29_05vMiSeq_3_NoGC	1.0:5000003.99999998	4	1.0
HT29_05vMiSeq_3_NoGC	1.0:6000000.000000006	4	1.0
HT29_05vMiSeq_3_NoGC	1.0:7000001.999999994	4	1.0
HT29_05vMiSeq_3_NoGC	1.0:8000003.999999983	4	1.0
HT29_05vMiSeq_3_NoGC	1.0:9000000.000000007	4	1.0
HT29_05vMiSeq_3_NoGC	1.0:1.0000001999999996E7	4	1.0
HT29_05vMiSeq_3_NoGC	1.0:1.1000003999999985E7	4	1.0
HT29_05vMiSeq_3_NoGC	1.0:1.2000000000000011E7	4	1.0
HT29_05vMiSeq_3_NoGC	1.0:1.3000002E7	4	1.0
HT29_05vMiSeq_3_NoGC	1.0:1.4000003999999989E7	4	1.0
HT29_05vMiSeq_3_NoGC	1.0:1.5000000000000013E7	4	1.0
HT29_05vMiSeq_3_NoGC	1.0:1.6000002000000002E7	4	1.0
HT29_05vMiSeq_3_NoGC	1.0:1.7000003999999993E7	4	1.0
HT29_05vMiSeq_3_NoGC	1.0:1.8000000000000015E7	4	1.0
HT29_05vMiSeq_3_NoGC	1.0:1.9000002000000004E7	4	1.0
HT29_05vMiSeq_3_NoGC	1.0:2.0000003999999993E7	4	1.0
HT29_05vMiSeq_3_NoGC	1.0:2.100000000000002E7	4	1.0
HT29_05vMiSeq_3_NoGC	1.0:2.2000002000000007E7	4	1.0
HT29_05vMiSeq_3_NoGC	1.0:2.3000003999999996E7	4	1.0
HT29_05vMiSeq_3_NoGC	1.0:2.4000000000000022E7	4	1.0
HT29_05vMiSeq_3_NoGC	1.0:2.500000200000001E7	4	1.0
HT29_05vMiSeq_3_NoGC	1.0:2.6000004E7	4	1.0
HT29_05vMiSeq_3_NoGC	1.0:2.7000000000000022E7	4	1.0
HT29_05vMiSeq_3_NoGC	1.0:2.800000200000001E7	4	1.0
HT29_05vMiSeq_3_NoGC	1.0:2.9000004E7	4	1.0
HT29_05vMiSeq_3_NoGC	1.0:3.0000000000000026E7	4	1.0
HT29_05vMiSeq_3_NoGC	1.0:3.1000002000000015E7	4	1.0
HT29_05vMiSeq_3_NoGC	1.0:3.2000004000000004E7	4	1.0
HT29_05vMiSeq_3_NoGC	1.0:3.300000000000003E7	4	1.0
HT29_05vMiSeq_3_NoGC	1.0:3.4000002000000015E7	4	1.0
HT29_05vMiSeq_3_NoGC	1.0:3.500000400000001E7	4	1.0
HT29_05vMiSeq_3_NoGC	1.0:3.600000000000003E7	4	1.0
HT29_05vMiSeq_3_NoGC	1.0:3.700000200000002E7	4	1.0
HT29_05vMiSeq_3_NoGC	1.0:3.800000400000001E7	4	1.0
HT29_05vMiSeq_3_NoGC	1.0:3.899999999999997E7	4	1.0
HT29_05vMiSeq_3_NoGC	1.0:4.000000200000002E7	4	1.0
HT29_05vMiSeq_3_NoGC	1.0:4.0999997999999985E7	4	1.0
HT29_05vMiSeq_3_NoGC	1.0:4.199999999999997E7	4	1.0
HT29_05vMiSeq_3_NoGC	1.0:4.300000200000002E7	4	1.0
HT29_05vMiSeq_3_NoGC	1.0:4.4000004000000015E7	4	1.0
HT29_05vMiSeq_3_NoGC	1.0:4.499999999999997E7	4	1.0
HT29_05vMiSeq_3_NoGC	1.0:4.600000200000003E7	4	1.0
HT29_05vMiSeq_3_NoGC	1.0:4.6999997999999985E7	4	1.0
HT29_05vMiSeq_3_NoGC	1.0:4.799999999999998E7	4	1.0
HT29_05vMiSeq_3_NoGC	2.0:8.974900200000006E7	4	1.0
HT29_05vMiSeq_3_NoGC	2.0:9.074900399999999E7	4	1.0
HT29_05vMiSeq_3_NoGC	2.0:9.174899999999994E7	4	1.0
HT29_05vMiSeq_3_NoGC	3.0:1.9354900199999997E8	4	1.0
HT29_05vMiSeq_3_NoGC	3.0:1.94549004E8	4	1.0
HT29_05vMiSeq_3_NoGC	3.0:1.9554899999999997E8	4	1.0
HT29_05vMiSeq_3_NoGC	3.0:1.9654900200000003E8	4	1.0
HT29_05vMiSeq_3_NoGC	3.0:1.9754900399999994E8	4	1.0
HT29_05vMiSeq_3_NoGC	4.0:526001.999999881	4	1.0
HT29_05vMiSeq_3_NoGC	4.0:1526003.9999999364	4	1.0
HT29_05vMiSeq_3_NoGC	4.0:2526000.0000000284	4	1.0
HT29_05vMiSeq_3_NoGC	4.0:3526002.0000000834	4	1.0
HT29_05vMiSeq_3_NoGC	4.0:4525997.999999909	4	1.0
HT29_05vMiSeq_3_NoGC	4.0:5525999.999999965	4	1.0
HT29_05vMiSeq_3_NoGC	4.0:6526002.00000002	4	1.0
HT29_05vMiSeq_3_NoGC	4.0:7526004.0000000745	4	1.0
HT29_05vMiSeq_3_NoGC	4.0:8525999.9999999	4	1.0
HT29_05vMiSeq_3_NoGC	4.0:9526001.999999955	4	1.0
HT29_05vMiSeq_3_NoGC	6.0:1.674550020000001E8	4	1.0
HT29_05vMiSeq_3_NoGC	6.0:1.6845500400000012E8	4	1.0
HT29_05vMiSeq_3_NoGC	6.0:1.6945499999999997E8	4	1.0
HT29_05vMiSeq_3_NoGC	6.0:1.70455002E8	4	1.0
HT29_05vMiSeq_3_NoGC	7.0:338999.999999956	4	1.0
HT29_05vMiSeq_3_NoGC	7.0:1339002.0000000114	4	1.0
HT29_05vMiSeq_3_NoGC	7.0:2339004.0000000666	4	1.0
HT29_05vMiSeq_3_NoGC	7.0:3338999.999999892	4	1.0
HT29_05vMiSeq_3_NoGC	7.0:4339001.999999948	4	1.0
HT29_05vMiSeq_3_NoGC	7.0:5339004.000000003	4	1.0
HT29_05vMiSeq_3_NoGC	7.0:6339000.000000095	4	1.0
HT29_05vMiSeq_3_NoGC	8.0:1.1720000400000021E8	4	1.0
HT29_05vMiSeq_3_NoGC	8.0:1.1820000000000004E8	4	1.0
HT29_05vMiSeq_3_NoGC	8.0:1.1920000199999982E8	4	1.0
HT29_05vMiSeq_3_NoGC	8.0:1.2020000400000015E8	4	1.0
HT29_05vMiSeq_3_NoGC	8.0:1.2119999999999997E8	4	1.0
HT29_05vMiSeq_3_NoGC	8.0:1.2220000199999976E8	4	1.0
HT29_05vMiSeq_3_NoGC	8.0:1.2320000400000009E8	4	1.0
HT29_05vMiSeq_3_NoGC	8.0:1.2419999999999991E8	4	1.0
HT29_05vMiSeq_3_NoGC	8.0:1.2520000200000024E8	4	1.0
HT29_05vMiSeq_3_NoGC	8.0:1.2619999800000006E8	4	1.0
HT29_05vMiSeq_3_NoGC	8.0:1.2719999999999985E8	4	1.0
HT29_05vMiSeq_3_NoGC	8.0:1.2820000200000016E8	4	1.0
HT29_05vMiSeq_3_NoGC	8.0:1.2920000399999996E8	4	1.0
HT29_05vMiSeq_3_NoGC	8.0:1.3019999999999978E8	4	1.0
HT29_05vMiSeq_3_NoGC	8.0:1.312000020000001E8	4	1.0
HT29_05vMiSeq_3_NoGC	8.0:1.322000039999999E8	4	1.0
HT29_05vMiSeq_3_NoGC	8.0:1.3320000000000025E8	4	1.0
HT29_05vMiSeq_3_NoGC	8.0:1.3420000200000004E8	4	1.0
HT29_05vMiSeq_3_NoGC	8.0:1.3520000399999982E8	4	1.0
HT29_05vMiSeq_3_NoGC	8.0:1.3620000000000018E8	4	1.0
HT29_05vMiSeq_3_NoGC	8.0:1.3720000199999997E8	4	1.0
HT29_05vMiSeq_3_NoGC	8.0:1.3820000399999976E8	4	1.0
HT29_05vMiSeq_3_NoGC	8.0:1.3920000000000012E8	4	1.0
HT29_05vMiSeq_3_NoGC	8.0:1.402000019999999E8	4	1.0
HT29_05vMiSeq_3_NoGC	8.0:1.4120000400000024E8	4	1.0
HT29_05vMiSeq_3_NoGC	8.0:1.4220000000000006E8	4	1.0
HT29_05vMiSeq_3_NoGC	8.0:1.4320000199999985E8	4	1.0
HT29_05vMiSeq_3_NoGC	8.0:1.4420000400000018E8	4	1.0
HT29_05vMiSeq_3_NoGC	8.0:1.452E8	4	1.0
HT29_05vMiSeq_3_NoGC	8.0:1.462000019999998E8	4	1.0
HT29_05vMiSeq_3_NoGC	19.0:2.854600199999986E7	4	1.0
HT29_05vMiSeq_3_NoGC	19.0:2.9546004000000183E7	4	1.0
HT29_05vMiSeq_3_NoGC	19.0:3.0546000000000007E7	4	1.0
HT29_05vMiSeq_3_NoGC	19.0:3.1546002000000328E7	4	1.0
HT29_05vMiSeq_3_NoGC	19.0:3.2546003999999583E7	4	1.0
HT29_05vMiSeq_3_NoGC	19.0:3.3546000000000477E7	4	1.0
HT29_05vMiSeq_3_NoGC	19.0:3.454600199999973E7	4	1.0
HT29_05vMiSeq_3_NoGC	19.0:3.554600400000005E7	4	1.0
HT29_05vMiSeq_3_NoGC	19.0:3.654599999999988E7	4	1.0
HT29_05vMiSeq_3_NoGC	19.0:3.75460020000002E7	4	1.0
HT29_05vMiSeq_3_NoGC	19.0:3.854600400000052E7	4	1.0
HT29_05vMiSeq_3_NoGC	19.0:3.954600000000035E7	4	1.0
HT29_05vMiSeq_3_NoGC	19.0:4.0546001999999605E7	4	1.0
HT29_05vMiSeq_3_NoGC	19.0:4.1546003999999925E7	4	1.0
HT29_05vMiSeq_3_NoGC	19.0:4.2545999999999754E7	4	1.0
HT29_05vMiSeq_3_NoGC	19.0:4.3546002000000075E7	4	1.0
HT29_05vMiSeq_3_NoGC	19.0:4.4546004000000395E7	4	1.0
HT29_05vMiSeq_3_NoGC	19.0:4.5546000000000216E7	4	1.0
HT29_05vMiSeq_3_NoGC	19.0:4.654600199999948E7	4	1.0
HT29_05vMiSeq_3_NoGC	19.0:4.7545998000000365E7	4	1.0
HT29_05vMiSeq_3_NoGC	19.0:4.854599999999962E7	4	1.0
HT29_05vMiSeq_3_NoGC	19.0:4.954600199999995E7	4	1.0
HT29_05vMiSeq_3_NoGC	19.0:5.054600400000027E7	4	1.0
HT29_05vMiSeq_3_NoGC	19.0:5.154600000000009E7	4	1.0
HT29_05vMiSeq_3_NoGC	19.0:5.254600200000042E7	4	1.0
HT29_05vMiSeq_3_NoGC	19.0:5.354600399999967E7	4	1.0
HT29_05vMiSeq_3_NoGC	19.0:5.454599999999949E7	4	1.0
HT29_05vMiSeq_3_NoGC	19.0:5.5546001999999814E7	4	1.0
HT29_05vMiSeq_3_NoGC	19.0:5.654600400000014E7	4	1.0
HT29_05vMiSeq_3_NoGC	19.0:5.754599999999996E7	4	1.0
HT29_05vMiSeq_3_NoGC	19.0:5.854600200000028E7	4	1.0
HT29_05vMiSeq_3_NoGC	20.0:2.9416998000000305E7	4	1.0
HT29_05vMiSeq_3_NoGC	20.0:3.041699999999956E7	4	1.0
HT29_05vMiSeq_3_NoGC	20.0:3.1417001999999885E7	4	1.0
HT29_05vMiSeq_3_NoGC	20.0:3.2417004000000205E7	4	1.0
HT29_05vMiSeq_3_NoGC	20.0:3.341700000000003E7	4	1.0
HT29_05vMiSeq_3_NoGC	20.0:3.441700200000035E7	4	1.0
HT29_05vMiSeq_3_NoGC	20.0:3.5417003999999605E7	4	1.0
HT29_05vMiSeq_3_NoGC	20.0:3.64170000000005E7	4	1.0
HT29_05vMiSeq_3_NoGC	20.0:3.7417001999999754E7	4	1.0
HT29_05vMiSeq_3_NoGC	20.0:3.8417004000000075E7	4	1.0
HT29_05vMiSeq_3_NoGC	20.0:3.94169999999999E7	4	1.0
HT29_05vMiSeq_3_NoGC	20.0:4.041700200000022E7	4	1.0
HT29_05vMiSeq_3_NoGC	20.0:4.141700399999948E7	4	1.0
HT29_05vMiSeq_3_NoGC	20.0:4.241700000000037E7	4	1.0
HT29_05vMiSeq_3_NoGC	20.0:4.341700199999963E7	4	1.0
HT29_05vMiSeq_3_NoGC	20.0:4.441700399999995E7	4	1.0
HT29_05vMiSeq_3_NoGC	20.0:4.541699999999978E7	4	1.0
HT29_05vMiSeq_3_NoGC	20.0:4.64170020000001E7	4	1.0
HT29_05vMiSeq_3_NoGC	20.0:4.741700400000042E7	4	1.0
HT29_05vMiSeq_3_NoGC	20.0:4.8417000000000246E7	4	1.0
HT29_05vMiSeq_3_NoGC	20.0:4.94170019999995E7	4	1.0
HT29_05vMiSeq_3_NoGC	20.0:5.041699800000039E7	4	1.0
HT29_05vMiSeq_3_NoGC	20.0:5.141699999999965E7	4	1.0
HT29_05vMiSeq_3_NoGC	20.0:5.241700199999997E7	4	1.0
HT29_05vMiSeq_3_NoGC	20.0:5.341700400000029E7	4	1.0
HT29_05vMiSeq_3_NoGC	20.0:5.441700000000011E7	4	1.0
HT29_05vMiSeq_3_NoGC	20.0:5.541700200000044E7	4	1.0
HT29_05vMiSeq_3_NoGC	20.0:5.6417003999999695E7	4	1.0
HT29_05vMiSeq_3_NoGC	20.0:5.7416999999999516E7	4	1.0
HT29_05vMiSeq_3_NoGC	20.0:5.841700199999984E7	4	1.0
HT29_05vMiSeq_3_NoGC	20.0:5.9417004000000164E7	4	1.0
HT29_05vMiSeq_3_NoGC	20.0:6.0416999999999985E7	4	1.0
HT29_05vMiSeq_3_NoGC	20.0:6.1417002000000305E7	4	1.0
HT29_05vMiSeq_3_NoGC	20.0:6.241700399999957E7	4	1.0
HT29_05vMiSeq_3_NoGC	21.0:9391002.00000027	4	1.0
HT29_05vMiSeq_3_NoGC	21.0:1.0391003999999527E7	4	1.0
HT29_05vMiSeq_3_NoGC	4.0:4.8526001999999925E7	5	1.0
HT29_05vMiSeq_3_NoGC	6.0:5.8454999999999925E7	5	1.0
HT29_05vMiSeq_3_NoGC	10.0:3.8621003999999814E7	5	1.0
HT29_05vMiSeq_3_NoGC	10.0:4.1621003999999754E7	5	1.0
HT29_05vMiSeq_3_NoGC	11.0:5.1086004000000075E7	5	1.0
HT29_05vMiSeq_3_NoGC	16.0:4.617500399999948E7	5	1.0
HT29_05vMiSeq_3_NoGC	18.0:1.7624003999999616E7	6	1.0
