HT29_100vF7_3_NoGC	3.0:7.954900199999999E7	1	1.0
HT29_100vF7_3_NoGC	3.0:8.054900400000004E7	1	1.0
HT29_100vF7_3_NoGC	3.0:8.1549E7	1	1.0
HT29_100vF7_3_NoGC	3.0:8.254900200000006E7	1	1.0
HT29_100vF7_3_NoGC	3.0:8.354900399999999E7	1	1.0
HT29_100vF7_3_NoGC	3.0:8.454899999999994E7	1	1.0
HT29_100vF7_3_NoGC	3.0:8.5549002E7	1	1.0
HT29_100vF7_3_NoGC	3.0:8.654900400000004E7	1	1.0
HT29_100vF7_3_NoGC	3.0:8.754900000000001E7	1	1.0
HT29_100vF7_3_NoGC	3.0:8.854900200000006E7	1	1.0
HT29_100vF7_3_NoGC	3.0:8.954900399999999E7	1	1.0
HT29_100vF7_3_NoGC	16.0:6175002.000000518	1	1.0
HT29_100vF7_3_NoGC	2.0:2.42749002E8	2	1.0
HT29_100vF7_3_NoGC	3.0:548999.9999999995	2	1.0
HT29_100vF7_3_NoGC	3.0:1549002.000000055	2	1.0
HT29_100vF7_3_NoGC	3.0:2549003.999999977	2	1.0
HT29_100vF7_3_NoGC	3.0:3548999.9999999357	2	1.0
HT29_100vF7_3_NoGC	3.0:4549001.999999991	2	1.0
HT29_100vF7_3_NoGC	3.0:5549004.000000047	2	1.0
HT29_100vF7_3_NoGC	3.0:6549000.000000005	2	1.0
HT29_100vF7_3_NoGC	3.0:7549002.000000061	2	1.0
HT29_100vF7_3_NoGC	3.0:8549003.999999981	2	1.0
HT29_100vF7_3_NoGC	3.0:9548999.99999994	2	1.0
HT29_100vF7_3_NoGC	3.0:1.0549001999999996E7	2	1.0
HT29_100vF7_3_NoGC	3.0:1.1549004000000052E7	2	1.0
HT29_100vF7_3_NoGC	3.0:1.254900000000001E7	2	1.0
HT29_100vF7_3_NoGC	3.0:1.3549002000000065E7	2	1.0
HT29_100vF7_3_NoGC	3.0:1.4549003999999987E7	2	1.0
HT29_100vF7_3_NoGC	3.0:1.5548999999999946E7	2	1.0
HT29_100vF7_3_NoGC	3.0:1.6549002000000002E7	2	1.0
HT29_100vF7_3_NoGC	3.0:1.7549004000000056E7	2	1.0
HT29_100vF7_3_NoGC	3.0:1.8549000000000015E7	2	1.0
HT29_100vF7_3_NoGC	3.0:1.9549001999999937E7	2	1.0
HT29_100vF7_3_NoGC	3.0:2.0549003999999993E7	2	1.0
HT29_100vF7_3_NoGC	3.0:2.154899999999995E7	2	1.0
HT29_100vF7_3_NoGC	3.0:2.2549002000000007E7	2	1.0
HT29_100vF7_3_NoGC	3.0:2.3549004000000063E7	2	1.0
HT29_100vF7_3_NoGC	3.0:2.4549000000000022E7	2	1.0
HT29_100vF7_3_NoGC	3.0:2.5549001999999944E7	2	1.0
HT29_100vF7_3_NoGC	3.0:2.6549004E7	2	1.0
HT29_100vF7_3_NoGC	3.0:2.7548999999999955E7	2	1.0
HT29_100vF7_3_NoGC	3.0:2.854900200000001E7	2	1.0
HT29_100vF7_3_NoGC	3.0:2.9549003999999933E7	2	1.0
HT29_100vF7_3_NoGC	3.0:3.0549000000000026E7	2	1.0
HT29_100vF7_3_NoGC	3.0:3.1549001999999948E7	2	1.0
HT29_100vF7_3_NoGC	3.0:3.2549004000000004E7	2	1.0
HT29_100vF7_3_NoGC	3.0:3.3548999999999963E7	2	1.0
HT29_100vF7_3_NoGC	3.0:3.4549002000000015E7	2	1.0
HT29_100vF7_3_NoGC	3.0:3.554900399999994E7	2	1.0
HT29_100vF7_3_NoGC	3.0:3.654900000000003E7	2	1.0
HT29_100vF7_3_NoGC	3.0:3.7549001999999955E7	2	1.0
HT29_100vF7_3_NoGC	3.0:3.854900400000001E7	2	1.0
HT29_100vF7_3_NoGC	3.0:3.954899999999997E7	2	1.0
HT29_100vF7_3_NoGC	3.0:4.054900200000002E7	2	1.0
HT29_100vF7_3_NoGC	3.0:4.154900399999995E7	2	1.0
HT29_100vF7_3_NoGC	3.0:4.254900000000004E7	2	1.0
HT29_100vF7_3_NoGC	3.0:4.3549001999999955E7	2	1.0
HT29_100vF7_3_NoGC	3.0:4.4549004000000015E7	2	1.0
HT29_100vF7_3_NoGC	3.0:4.554899999999997E7	2	1.0
HT29_100vF7_3_NoGC	3.0:4.654900200000003E7	2	1.0
HT29_100vF7_3_NoGC	3.0:4.754900399999995E7	2	1.0
HT29_100vF7_3_NoGC	3.0:4.8549000000000045E7	2	1.0
HT29_100vF7_3_NoGC	3.0:4.954900199999996E7	2	1.0
HT29_100vF7_3_NoGC	3.0:5.054900400000002E7	2	1.0
HT29_100vF7_3_NoGC	3.0:5.154899999999998E7	2	1.0
HT29_100vF7_3_NoGC	3.0:5.254900200000003E7	2	1.0
HT29_100vF7_3_NoGC	3.0:5.3549003999999955E7	2	1.0
HT29_100vF7_3_NoGC	3.0:5.4549000000000045E7	2	1.0
HT29_100vF7_3_NoGC	3.0:5.554900199999997E7	2	1.0
HT29_100vF7_3_NoGC	3.0:5.654900400000002E7	2	1.0
HT29_100vF7_3_NoGC	3.0:5.7548999999999985E7	2	1.0
HT29_100vF7_3_NoGC	3.0:5.854900200000004E7	2	1.0
HT29_100vF7_3_NoGC	3.0:5.954900399999996E7	2	1.0
HT29_100vF7_3_NoGC	3.0:6.054900000000005E7	2	1.0
HT29_100vF7_3_NoGC	3.0:6.154900199999998E7	2	1.0
HT29_100vF7_3_NoGC	3.0:6.254900400000003E7	2	1.0
HT29_100vF7_3_NoGC	3.0:6.354899999999999E7	2	1.0
HT29_100vF7_3_NoGC	3.0:6.4549002000000045E7	2	1.0
HT29_100vF7_3_NoGC	3.0:6.554900399999996E7	2	1.0
HT29_100vF7_3_NoGC	3.0:6.654900000000006E7	2	1.0
HT29_100vF7_3_NoGC	3.0:6.754900199999999E7	2	1.0
HT29_100vF7_3_NoGC	3.0:6.854900400000003E7	2	1.0
HT29_100vF7_3_NoGC	3.0:6.9549E7	2	1.0
HT29_100vF7_3_NoGC	3.0:7.054900200000004E7	2	1.0
HT29_100vF7_3_NoGC	3.0:7.154900399999997E7	2	1.0
HT29_100vF7_3_NoGC	3.0:7.254900000000006E7	2	1.0
HT29_100vF7_3_NoGC	3.0:7.354900199999999E7	2	1.0
HT29_100vF7_3_NoGC	3.0:7.454900400000004E7	2	1.0
HT29_100vF7_3_NoGC	3.0:7.5549E7	2	1.0
HT29_100vF7_3_NoGC	3.0:7.654900200000006E7	2	1.0
HT29_100vF7_3_NoGC	3.0:7.754900399999997E7	2	1.0
HT29_100vF7_3_NoGC	3.0:7.854899999999994E7	2	1.0
HT29_100vF7_3_NoGC	4.0:1.575260040000001E8	2	1.0
HT29_100vF7_3_NoGC	4.0:1.585259999999999E8	2	1.0
HT29_100vF7_3_NoGC	4.0:1.5952600199999997E8	2	1.0
HT29_100vF7_3_NoGC	4.0:1.60526004E8	2	1.0
HT29_100vF7_3_NoGC	4.0:1.615260000000001E8	2	1.0
HT29_100vF7_3_NoGC	4.0:1.6252600199999988E8	2	1.0
HT29_100vF7_3_NoGC	4.0:1.6352600399999994E8	2	1.0
HT29_100vF7_3_NoGC	4.0:1.6452600000000003E8	2	1.0
HT29_100vF7_3_NoGC	4.0:1.655260020000001E8	2	1.0
HT29_100vF7_3_NoGC	4.0:1.665259979999999E8	2	1.0
HT29_100vF7_3_NoGC	4.0:1.6752599999999997E8	2	1.0
HT29_100vF7_3_NoGC	4.0:1.6852600200000003E8	2	1.0
HT29_100vF7_3_NoGC	4.0:1.695260040000001E8	2	1.0
HT29_100vF7_3_NoGC	4.0:1.705259999999999E8	2	1.0
HT29_100vF7_3_NoGC	4.0:1.7152600199999997E8	2	1.0
HT29_100vF7_3_NoGC	4.0:1.7252600400000003E8	2	1.0
HT29_100vF7_3_NoGC	4.0:1.7352600000000012E8	2	1.0
HT29_100vF7_3_NoGC	4.0:1.745260019999999E8	2	1.0
HT29_100vF7_3_NoGC	4.0:1.7552600399999997E8	2	1.0
HT29_100vF7_3_NoGC	4.0:1.7652600000000006E8	2	1.0
HT29_100vF7_3_NoGC	4.0:1.7752600200000012E8	2	1.0
HT29_100vF7_3_NoGC	4.0:1.7852600399999988E8	2	1.0
HT29_100vF7_3_NoGC	4.0:1.79526E8	2	1.0
HT29_100vF7_3_NoGC	4.0:1.8052600200000003E8	2	1.0
HT29_100vF7_3_NoGC	4.0:1.815260040000001E8	2	1.0
HT29_100vF7_3_NoGC	4.0:1.825259999999999E8	2	1.0
HT29_100vF7_3_NoGC	4.0:1.8352600199999997E8	2	1.0
HT29_100vF7_3_NoGC	4.0:1.8452600400000003E8	2	1.0
HT29_100vF7_3_NoGC	4.0:1.8552600000000012E8	2	1.0
HT29_100vF7_3_NoGC	4.0:1.865260019999999E8	2	1.0
HT29_100vF7_3_NoGC	6.0:7.645500000000007E7	2	1.0
HT29_100vF7_3_NoGC	6.0:7.745500200000013E7	2	1.0
HT29_100vF7_3_NoGC	6.0:7.845500399999991E7	2	1.0
HT29_100vF7_3_NoGC	6.0:7.945500000000001E7	2	1.0
HT29_100vF7_3_NoGC	6.0:8.045500200000006E7	2	1.0
HT29_100vF7_3_NoGC	6.0:8.145500400000012E7	2	1.0
HT29_100vF7_3_NoGC	6.0:8.245499999999994E7	2	1.0
HT29_100vF7_3_NoGC	6.0:8.3455002E7	2	1.0
HT29_100vF7_3_NoGC	6.0:8.445500400000006E7	2	1.0
HT29_100vF7_3_NoGC	6.0:8.545499999999988E7	2	1.0
HT29_100vF7_3_NoGC	6.0:8.645500199999994E7	2	1.0
HT29_100vF7_3_NoGC	6.0:8.745500399999999E7	2	1.0
HT29_100vF7_3_NoGC	6.0:8.845500000000009E7	2	1.0
HT29_100vF7_3_NoGC	6.0:8.945500199999987E7	2	1.0
HT29_100vF7_3_NoGC	6.0:9.045500399999993E7	2	1.0
HT29_100vF7_3_NoGC	6.0:9.145500000000001E7	2	1.0
HT29_100vF7_3_NoGC	6.0:9.245500200000007E7	2	1.0
HT29_100vF7_3_NoGC	6.0:9.345500400000013E7	2	1.0
HT29_100vF7_3_NoGC	6.0:9.445499999999996E7	2	1.0
HT29_100vF7_3_NoGC	6.0:9.545500200000001E7	2	1.0
HT29_100vF7_3_NoGC	6.0:9.645500400000006E7	2	1.0
HT29_100vF7_3_NoGC	6.0:9.74549999999999E7	2	1.0
HT29_100vF7_3_NoGC	6.0:9.845500199999994E7	2	1.0
HT29_100vF7_3_NoGC	6.0:9.9455004E7	2	1.0
HT29_100vF7_3_NoGC	6.0:1.0045500000000009E8	2	1.0
HT29_100vF7_3_NoGC	6.0:1.0145500199999988E8	2	1.0
HT29_100vF7_3_NoGC	6.0:1.0245500399999994E8	2	1.0
HT29_100vF7_3_NoGC	6.0:1.0345500000000003E8	2	1.0
HT29_100vF7_3_NoGC	6.0:1.0445500200000009E8	2	1.0
HT29_100vF7_3_NoGC	6.0:1.0545500399999988E8	2	1.0
HT29_100vF7_3_NoGC	6.0:1.0645499999999997E8	2	1.0
HT29_100vF7_3_NoGC	6.0:1.0745500200000001E8	2	1.0
HT29_100vF7_3_NoGC	6.0:1.0845500400000007E8	2	1.0
HT29_100vF7_3_NoGC	6.0:1.094549999999999E8	2	1.0
HT29_100vF7_3_NoGC	6.0:1.1045500199999996E8	2	1.0
HT29_100vF7_3_NoGC	6.0:1.1145500400000001E8	2	1.0
HT29_100vF7_3_NoGC	6.0:1.124550000000001E8	2	1.0
HT29_100vF7_3_NoGC	6.0:1.134550019999999E8	2	1.0
HT29_100vF7_3_NoGC	6.0:1.1445500399999996E8	2	1.0
HT29_100vF7_3_NoGC	6.0:1.1545500000000004E8	2	1.0
HT29_100vF7_3_NoGC	6.0:1.1645500200000009E8	2	1.0
HT29_100vF7_3_NoGC	6.0:1.1745500399999988E8	2	1.0
HT29_100vF7_3_NoGC	6.0:1.1845499999999997E8	2	1.0
HT29_100vF7_3_NoGC	6.0:1.1945500200000003E8	2	1.0
HT29_100vF7_3_NoGC	6.0:1.2045500400000009E8	2	1.0
HT29_100vF7_3_NoGC	6.0:1.2145499999999991E8	2	1.0
HT29_100vF7_3_NoGC	6.0:1.2245500199999997E8	2	1.0
HT29_100vF7_3_NoGC	6.0:1.2345500400000003E8	2	1.0
HT29_100vF7_3_NoGC	6.0:1.2445500000000012E8	2	1.0
HT29_100vF7_3_NoGC	6.0:1.2545500199999991E8	2	1.0
HT29_100vF7_3_NoGC	6.0:1.2645500399999996E8	2	1.0
HT29_100vF7_3_NoGC	6.0:1.2745500000000004E8	2	1.0
HT29_100vF7_3_NoGC	6.0:1.284550020000001E8	2	1.0
HT29_100vF7_3_NoGC	6.0:1.294550039999999E8	2	1.0
HT29_100vF7_3_NoGC	6.0:1.3045499999999999E8	2	1.0
HT29_100vF7_3_NoGC	6.0:1.3145500200000004E8	2	1.0
HT29_100vF7_3_NoGC	6.0:1.324550040000001E8	2	1.0
HT29_100vF7_3_NoGC	6.0:1.3345499999999993E8	2	1.0
HT29_100vF7_3_NoGC	6.0:1.3445500199999997E8	2	1.0
HT29_100vF7_3_NoGC	6.0:1.3545500400000003E8	2	1.0
HT29_100vF7_3_NoGC	6.0:1.3645500000000012E8	2	1.0
HT29_100vF7_3_NoGC	6.0:1.374550019999999E8	2	1.0
HT29_100vF7_3_NoGC	6.0:1.3845500399999997E8	2	1.0
HT29_100vF7_3_NoGC	6.0:1.3945500000000006E8	2	1.0
HT29_100vF7_3_NoGC	6.0:1.4045500200000012E8	2	1.0
HT29_100vF7_3_NoGC	6.0:1.414550039999999E8	2	1.0
HT29_100vF7_3_NoGC	6.0:1.42455E8	2	1.0
HT29_100vF7_3_NoGC	6.0:1.4345500200000006E8	2	1.0
HT29_100vF7_3_NoGC	6.0:1.4445500400000012E8	2	1.0
HT29_100vF7_3_NoGC	6.0:1.4545499999999994E8	2	1.0
HT29_100vF7_3_NoGC	6.0:1.46455002E8	2	1.0
HT29_100vF7_3_NoGC	6.0:1.4745500400000006E8	2	1.0
HT29_100vF7_3_NoGC	6.0:1.4845499999999988E8	2	1.0
HT29_100vF7_3_NoGC	6.0:1.4945500199999994E8	2	1.0
HT29_100vF7_3_NoGC	6.0:1.5045500399999997E8	2	1.0
HT29_100vF7_3_NoGC	6.0:1.5145500000000006E8	2	1.0
HT29_100vF7_3_NoGC	6.0:1.5245500200000012E8	2	1.0
HT29_100vF7_3_NoGC	6.0:1.534550039999999E8	2	1.0
HT29_100vF7_3_NoGC	6.0:1.54455E8	2	1.0
HT29_100vF7_3_NoGC	6.0:1.5545500200000006E8	2	1.0
HT29_100vF7_3_NoGC	6.0:1.5645500400000012E8	2	1.0
HT29_100vF7_3_NoGC	6.0:1.5745499999999994E8	2	1.0
HT29_100vF7_3_NoGC	6.0:1.58455002E8	2	1.0
HT29_100vF7_3_NoGC	6.0:1.5945500400000006E8	2	1.0
HT29_100vF7_3_NoGC	6.0:1.6045499999999988E8	2	1.0
HT29_100vF7_3_NoGC	6.0:1.6145500199999994E8	2	1.0
HT29_100vF7_3_NoGC	6.0:1.62455004E8	2	1.0
HT29_100vF7_3_NoGC	7.0:5.7339000000000075E7	2	1.0
HT29_100vF7_3_NoGC	7.0:6.033900000000001E7	2	1.0
HT29_100vF7_3_NoGC	7.0:6.133900200000007E7	2	1.0
HT29_100vF7_3_NoGC	8.0:199998.00000007896	2	1.0
HT29_100vF7_3_NoGC	8.0:1199999.9999998678	2	1.0
HT29_100vF7_3_NoGC	8.0:2200002.0000001895	2	1.0
HT29_100vF7_3_NoGC	8.0:3200003.9999999786	2	1.0
HT29_100vF7_3_NoGC	8.0:4199999.9999998035	2	1.0
HT29_100vF7_3_NoGC	8.0:5200002.000000126	2	1.0
HT29_100vF7_3_NoGC	8.0:6200003.999999914	2	1.0
HT29_100vF7_3_NoGC	8.0:7199999.99999974	2	1.0
HT29_100vF7_3_NoGC	8.0:8200002.0000000615	2	1.0
HT29_100vF7_3_NoGC	8.0:9200003.999999851	2	1.0
HT29_100vF7_3_NoGC	8.0:1.0200000000000209E7	2	1.0
HT29_100vF7_3_NoGC	8.0:1.1200001999999998E7	2	1.0
HT29_100vF7_3_NoGC	8.0:1.2200003999999786E7	2	1.0
HT29_100vF7_3_NoGC	8.0:1.3200000000000145E7	2	1.0
HT29_100vF7_3_NoGC	8.0:1.4200001999999933E7	2	1.0
HT29_100vF7_3_NoGC	8.0:1.5200004000000255E7	2	1.0
HT29_100vF7_3_NoGC	8.0:1.620000000000008E7	2	1.0
HT29_100vF7_3_NoGC	8.0:1.720000199999987E7	2	1.0
HT29_100vF7_3_NoGC	8.0:1.820000400000019E7	2	1.0
HT29_100vF7_3_NoGC	8.0:1.920000000000002E7	2	1.0
HT29_100vF7_3_NoGC	8.0:2.0200001999999806E7	2	1.0
HT29_100vF7_3_NoGC	8.0:2.1200004000000127E7	2	1.0
HT29_100vF7_3_NoGC	8.0:2.219999999999995E7	2	1.0
HT29_100vF7_3_NoGC	8.0:2.3200001999999743E7	2	1.0
HT29_100vF7_3_NoGC	8.0:2.41999980000001E7	2	1.0
HT29_100vF7_3_NoGC	8.0:2.519999999999989E7	2	1.0
HT29_100vF7_3_NoGC	8.0:2.6200002000000212E7	2	1.0
HT29_100vF7_3_NoGC	8.0:2.7199998000000037E7	2	1.0
HT29_100vF7_3_NoGC	8.0:2.8199999999999825E7	2	1.0
HT29_100vF7_3_NoGC	8.0:2.9200002000000145E7	2	1.0
HT29_100vF7_3_NoGC	8.0:3.0200003999999937E7	2	1.0
HT29_100vF7_3_NoGC	8.0:3.119999999999976E7	2	1.0
HT29_100vF7_3_NoGC	8.0:3.2200002000000082E7	2	1.0
HT29_100vF7_3_NoGC	8.0:3.3200003999999873E7	2	1.0
HT29_100vF7_3_NoGC	8.0:3.420000000000023E7	2	1.0
HT29_100vF7_3_NoGC	8.0:3.520000200000002E7	2	1.0
HT29_100vF7_3_NoGC	8.0:3.620000399999981E7	2	1.0
HT29_100vF7_3_NoGC	8.0:3.7200000000000164E7	2	1.0
HT29_100vF7_3_NoGC	8.0:3.8200001999999955E7	2	1.0
HT29_100vF7_3_NoGC	8.0:3.920000399999975E7	2	1.0
HT29_100vF7_3_NoGC	8.0:4.0200000000000104E7	2	1.0
HT29_100vF7_3_NoGC	8.0:4.120000199999989E7	2	1.0
HT29_100vF7_3_NoGC	8.0:4.320000000000004E7	2	1.0
HT29_100vF7_3_NoGC	8.0:4.619999999999998E7	2	1.0
HT29_100vF7_3_NoGC	9.0:3.683500199999994E7	2	1.0
HT29_100vF7_3_NoGC	9.0:3.783500400000026E7	2	1.0
HT29_100vF7_3_NoGC	9.0:3.883500000000009E7	2	1.0
HT29_100vF7_3_NoGC	9.0:3.983500199999987E7	2	1.0
HT29_100vF7_3_NoGC	9.0:4.083500400000019E7	2	1.0
HT29_100vF7_3_NoGC	9.0:4.183500000000002E7	2	1.0
HT29_100vF7_3_NoGC	9.0:4.2835001999999814E7	2	1.0
HT29_100vF7_3_NoGC	9.0:4.3835004000000134E7	2	1.0
HT29_100vF7_3_NoGC	9.0:4.4834999999999955E7	2	1.0
HT29_100vF7_3_NoGC	9.0:4.583500199999975E7	2	1.0
HT29_100vF7_3_NoGC	9.0:4.6834998000000104E7	2	1.0
HT29_100vF7_3_NoGC	9.0:6.4835004000000216E7	2	1.0
HT29_100vF7_3_NoGC	9.0:6.5835000000000045E7	2	1.0
HT29_100vF7_3_NoGC	10.0:4.1621003999999754E7	2	1.0
HT29_100vF7_3_NoGC	14.0:1.8057000000000123E7	2	1.0
HT29_100vF7_3_NoGC	14.0:1.905700199999991E7	2	1.0
HT29_100vF7_3_NoGC	14.0:2.0057004000000235E7	2	1.0
HT29_100vF7_3_NoGC	14.0:2.105700000000006E7	2	1.0
HT29_100vF7_3_NoGC	14.0:2.2057001999999847E7	2	1.0
HT29_100vF7_3_NoGC	14.0:2.305700400000017E7	2	1.0
HT29_100vF7_3_NoGC	14.0:2.4056999999999996E7	2	1.0
HT29_100vF7_3_NoGC	14.0:2.5057001999999784E7	2	1.0
HT29_100vF7_3_NoGC	14.0:2.6057004000000104E7	2	1.0
HT29_100vF7_3_NoGC	14.0:2.7056999999999933E7	2	1.0
HT29_100vF7_3_NoGC	14.0:2.8057002000000253E7	2	1.0
HT29_100vF7_3_NoGC	14.0:2.905700400000004E7	2	1.0
HT29_100vF7_3_NoGC	14.0:3.0056999999999866E7	2	1.0
HT29_100vF7_3_NoGC	14.0:3.105700200000019E7	2	1.0
HT29_100vF7_3_NoGC	14.0:3.2057003999999978E7	2	1.0
HT29_100vF7_3_NoGC	14.0:3.3056999999999803E7	2	1.0
HT29_100vF7_3_NoGC	14.0:3.405700200000013E7	2	1.0
HT29_100vF7_3_NoGC	14.0:3.505700399999991E7	2	1.0
HT29_100vF7_3_NoGC	14.0:3.605699999999974E7	2	1.0
HT29_100vF7_3_NoGC	14.0:3.705700200000006E7	2	1.0
HT29_100vF7_3_NoGC	14.0:3.805700399999985E7	2	1.0
HT29_100vF7_3_NoGC	14.0:3.905700000000021E7	2	1.0
HT29_100vF7_3_NoGC	14.0:4.0057002E7	2	1.0
HT29_100vF7_3_NoGC	14.0:4.1057003999999784E7	2	1.0
HT29_100vF7_3_NoGC	14.0:4.205700000000014E7	2	1.0
HT29_100vF7_3_NoGC	14.0:4.305700199999993E7	2	1.0
HT29_100vF7_3_NoGC	14.0:4.405700400000025E7	2	1.0
HT29_100vF7_3_NoGC	14.0:4.505700000000008E7	2	1.0
HT29_100vF7_3_NoGC	14.0:4.6057001999999866E7	2	1.0
HT29_100vF7_3_NoGC	14.0:4.705700400000019E7	2	1.0
HT29_100vF7_3_NoGC	14.0:4.8057000000000015E7	2	1.0
HT29_100vF7_3_NoGC	14.0:4.905700199999981E7	2	1.0
HT29_100vF7_3_NoGC	14.0:5.005700400000013E7	2	1.0
HT29_100vF7_3_NoGC	14.0:5.1056999999999955E7	2	1.0
HT29_100vF7_3_NoGC	14.0:5.205700199999974E7	2	1.0
HT29_100vF7_3_NoGC	14.0:5.305700400000006E7	2	1.0
HT29_100vF7_3_NoGC	14.0:5.405699999999989E7	2	1.0
HT29_100vF7_3_NoGC	14.0:5.505700200000021E7	2	1.0
HT29_100vF7_3_NoGC	14.0:5.6057004E7	2	1.0
HT29_100vF7_3_NoGC	14.0:5.705699999999982E7	2	1.0
HT29_100vF7_3_NoGC	14.0:5.805700200000015E7	2	1.0
HT29_100vF7_3_NoGC	14.0:5.905700399999993E7	2	1.0
HT29_100vF7_3_NoGC	14.0:6.005699999999976E7	2	1.0
HT29_100vF7_3_NoGC	14.0:6.105700200000008E7	2	1.0
HT29_100vF7_3_NoGC	14.0:6.205700399999987E7	2	1.0
HT29_100vF7_3_NoGC	14.0:6.305700000000023E7	2	1.0
HT29_100vF7_3_NoGC	14.0:6.4057002000000015E7	2	1.0
HT29_100vF7_3_NoGC	14.0:6.505700399999981E7	2	1.0
HT29_100vF7_3_NoGC	14.0:6.6057000000000164E7	2	1.0
HT29_100vF7_3_NoGC	14.0:6.7057001999999955E7	2	1.0
HT29_100vF7_3_NoGC	14.0:6.805700399999975E7	2	1.0
HT29_100vF7_3_NoGC	14.0:6.90570000000001E7	2	1.0
HT29_100vF7_3_NoGC	14.0:7.00570019999999E7	2	1.0
HT29_100vF7_3_NoGC	14.0:7.105700400000021E7	2	1.0
HT29_100vF7_3_NoGC	14.0:7.205700000000004E7	2	1.0
HT29_100vF7_3_NoGC	14.0:7.305700199999982E7	2	1.0
HT29_100vF7_3_NoGC	14.0:7.405700400000015E7	2	1.0
HT29_100vF7_3_NoGC	14.0:7.505699999999997E7	2	1.0
HT29_100vF7_3_NoGC	14.0:7.605700199999976E7	2	1.0
HT29_100vF7_3_NoGC	14.0:7.705700400000009E7	2	1.0
HT29_100vF7_3_NoGC	14.0:7.805699999999991E7	2	1.0
HT29_100vF7_3_NoGC	14.0:7.905700200000024E7	2	1.0
HT29_100vF7_3_NoGC	14.0:8.005700400000001E7	2	1.0
HT29_100vF7_3_NoGC	14.0:8.105699999999985E7	2	1.0
HT29_100vF7_3_NoGC	14.0:8.205700200000016E7	2	1.0
HT29_100vF7_3_NoGC	14.0:8.305700399999996E7	2	1.0
HT29_100vF7_3_NoGC	14.0:8.405699999999978E7	2	1.0
HT29_100vF7_3_NoGC	14.0:8.50570020000001E7	2	1.0
HT29_100vF7_3_NoGC	14.0:8.60570039999999E7	2	1.0
HT29_100vF7_3_NoGC	14.0:8.705700000000025E7	2	1.0
HT29_100vF7_3_NoGC	14.0:8.805700200000004E7	2	1.0
HT29_100vF7_3_NoGC	14.0:8.905700399999982E7	2	1.0
HT29_100vF7_3_NoGC	14.0:9.00570000000002E7	2	1.0
HT29_100vF7_3_NoGC	14.0:9.105700199999997E7	2	1.0
HT29_100vF7_3_NoGC	14.0:9.205700399999976E7	2	1.0
HT29_100vF7_3_NoGC	14.0:9.305700000000012E7	2	1.0
HT29_100vF7_3_NoGC	14.0:9.405700199999991E7	2	1.0
HT29_100vF7_3_NoGC	14.0:9.505700400000024E7	2	1.0
HT29_100vF7_3_NoGC	14.0:9.605700000000006E7	2	1.0
HT29_100vF7_3_NoGC	14.0:9.705700199999985E7	2	1.0
HT29_100vF7_3_NoGC	14.0:9.805700400000016E7	2	1.0
HT29_100vF7_3_NoGC	14.0:9.9057E7	2	1.0
HT29_100vF7_3_NoGC	14.0:1.0005700199999979E8	2	1.0
HT29_100vF7_3_NoGC	14.0:1.010570040000001E8	2	1.0
HT29_100vF7_3_NoGC	14.0:1.0205699999999993E8	2	1.0
HT29_100vF7_3_NoGC	14.0:1.0305700200000025E8	2	1.0
HT29_100vF7_3_NoGC	14.0:1.0405700400000004E8	2	1.0
HT29_100vF7_3_NoGC	14.0:1.0505699999999987E8	2	1.0
HT29_100vF7_3_NoGC	14.0:1.060570020000002E8	2	1.0
HT29_100vF7_3_NoGC	14.0:1.0705700399999999E8	2	1.0
HT29_100vF7_3_NoGC	17.0:4820004.000000467	2	1.0
HT29_100vF7_3_NoGC	17.0:5820000.0000002915	2	1.0
HT29_100vF7_3_NoGC	17.0:6820001.999999547	2	1.0
HT29_100vF7_3_NoGC	17.0:7819998.000000439	2	1.0
HT29_100vF7_3_NoGC	17.0:8819999.999999695	2	1.0
HT29_100vF7_3_NoGC	17.0:9820002.000000017	2	1.0
HT29_100vF7_3_NoGC	17.0:1.0820004000000339E7	2	1.0
HT29_100vF7_3_NoGC	17.0:1.1820000000000164E7	2	1.0
HT29_100vF7_3_NoGC	17.0:1.2820002000000486E7	2	1.0
HT29_100vF7_3_NoGC	17.0:1.3819998000000311E7	2	1.0
HT29_100vF7_3_NoGC	17.0:1.4819999999999566E7	2	1.0
HT29_100vF7_3_NoGC	17.0:1.5820001999999888E7	2	1.0
HT29_100vF7_3_NoGC	17.0:1.682000400000021E7	2	1.0
HT29_100vF7_3_NoGC	17.0:1.7820000000000037E7	2	1.0
HT29_100vF7_3_NoGC	17.0:1.8820002000000358E7	2	1.0
HT29_100vF7_3_NoGC	17.0:1.9820003999999613E7	2	1.0
HT29_100vF7_3_NoGC	17.0:2.0820000000000503E7	2	1.0
HT29_100vF7_3_NoGC	17.0:2.182000199999976E7	2	1.0
HT29_100vF7_3_NoGC	17.0:2.482000200000023E7	2	1.0
HT29_100vF7_3_NoGC	17.0:6.68200020000004E7	2	1.0
HT29_100vF7_3_NoGC	17.0:6.782000399999966E7	2	1.0
HT29_100vF7_3_NoGC	17.0:6.881999999999948E7	2	1.0
HT29_100vF7_3_NoGC	17.0:6.98200019999998E7	2	1.0
HT29_100vF7_3_NoGC	18.0:1.7624003999999616E7	2	1.0
HT29_100vF7_3_NoGC	18.0:1.8624000000000507E7	2	1.0
HT29_100vF7_3_NoGC	18.0:1.962400199999976E7	2	1.0
HT29_100vF7_3_NoGC	18.0:2.0624004000000086E7	2	1.0
HT29_100vF7_3_NoGC	18.0:2.162399999999991E7	2	1.0
HT29_100vF7_3_NoGC	18.0:2.262400200000023E7	2	1.0
HT29_100vF7_3_NoGC	18.0:2.3624003999999486E7	2	1.0
HT29_100vF7_3_NoGC	18.0:2.462400000000038E7	2	1.0
HT29_100vF7_3_NoGC	18.0:2.5624001999999635E7	2	1.0
HT29_100vF7_3_NoGC	18.0:2.6624003999999955E7	2	1.0
HT29_100vF7_3_NoGC	18.0:2.762399999999978E7	2	1.0
HT29_100vF7_3_NoGC	18.0:2.8624002000000104E7	2	1.0
HT29_100vF7_3_NoGC	18.0:2.9624004000000425E7	2	1.0
HT29_100vF7_3_NoGC	18.0:3.062400000000025E7	2	1.0
HT29_100vF7_3_NoGC	18.0:3.162400199999951E7	2	1.0
HT29_100vF7_3_NoGC	18.0:3.26239980000004E7	2	1.0
HT29_100vF7_3_NoGC	18.0:3.362399999999966E7	2	1.0
HT29_100vF7_3_NoGC	18.0:3.462400199999998E7	2	1.0
HT29_100vF7_3_NoGC	18.0:3.56240040000003E7	2	1.0
HT29_100vF7_3_NoGC	18.0:3.662400000000013E7	2	1.0
HT29_100vF7_3_NoGC	18.0:3.762400200000045E7	2	1.0
HT29_100vF7_3_NoGC	18.0:3.86240039999997E7	2	1.0
HT29_100vF7_3_NoGC	18.0:3.962399999999952E7	2	1.0
HT29_100vF7_3_NoGC	18.0:4.062400199999985E7	2	1.0
HT29_100vF7_3_NoGC	18.0:4.162400400000017E7	2	1.0
HT29_100vF7_3_NoGC	18.0:4.262399999999999E7	2	1.0
HT29_100vF7_3_NoGC	18.0:4.362400200000032E7	2	1.0
HT29_100vF7_3_NoGC	18.0:4.4624003999999575E7	2	1.0
HT29_100vF7_3_NoGC	18.0:4.562400000000046E7	2	1.0
HT29_100vF7_3_NoGC	18.0:4.662400199999972E7	2	1.0
HT29_100vF7_3_NoGC	18.0:4.7624004000000045E7	2	1.0
HT29_100vF7_3_NoGC	18.0:4.8623999999999866E7	2	1.0
HT29_100vF7_3_NoGC	18.0:4.9624002000000186E7	2	1.0
HT29_100vF7_3_NoGC	18.0:5.0624004000000514E7	2	1.0
HT29_100vF7_3_NoGC	18.0:5.1624000000000335E7	2	1.0
HT29_100vF7_3_NoGC	18.0:5.262400199999959E7	2	1.0
HT29_100vF7_3_NoGC	18.0:5.362400399999991E7	2	1.0
HT29_100vF7_3_NoGC	18.0:5.462399999999974E7	2	1.0
HT29_100vF7_3_NoGC	18.0:5.562400200000006E7	2	1.0
HT29_100vF7_3_NoGC	18.0:5.662400400000038E7	2	1.0
HT29_100vF7_3_NoGC	18.0:5.762400000000021E7	2	1.0
HT29_100vF7_3_NoGC	18.0:5.862400200000053E7	2	1.0
HT29_100vF7_3_NoGC	18.0:5.962399800000036E7	2	1.0
HT29_100vF7_3_NoGC	18.0:6.062399999999961E7	2	1.0
HT29_100vF7_3_NoGC	18.0:6.162400199999993E7	2	1.0
HT29_100vF7_3_NoGC	18.0:6.262400400000025E7	2	1.0
HT29_100vF7_3_NoGC	18.0:6.362400000000008E7	2	1.0
HT29_100vF7_3_NoGC	18.0:6.46240020000004E7	2	1.0
HT29_100vF7_3_NoGC	18.0:6.562400399999966E7	2	1.0
HT29_100vF7_3_NoGC	18.0:6.6623999999999486E7	2	1.0
HT29_100vF7_3_NoGC	18.0:6.76240019999998E7	2	1.0
HT29_100vF7_3_NoGC	18.0:6.862400400000013E7	2	1.0
HT29_100vF7_3_NoGC	18.0:6.962399999999996E7	2	1.0
HT29_100vF7_3_NoGC	18.0:7.062400200000027E7	2	1.0
HT29_100vF7_3_NoGC	18.0:7.162400399999952E7	2	1.0
HT29_100vF7_3_NoGC	18.0:7.262400000000042E7	2	1.0
HT29_100vF7_3_NoGC	18.0:7.362400199999967E7	2	1.0
HT29_100vF7_3_NoGC	18.0:7.4624004E7	2	1.0
HT29_100vF7_3_NoGC	18.0:7.562399999999982E7	2	1.0
HT29_100vF7_3_NoGC	18.0:7.662400200000015E7	2	1.0
HT29_100vF7_3_NoGC	19.0:1.954600199999952E7	2	1.0
HT29_100vF7_3_NoGC	19.0:2.054599800000041E7	2	1.0
HT29_100vF7_3_NoGC	19.0:2.1545999999999665E7	2	1.0
HT29_100vF7_3_NoGC	19.0:2.254600199999999E7	2	1.0
HT29_100vF7_3_NoGC	19.0:2.354600400000031E7	2	1.0
HT29_100vF7_3_NoGC	19.0:2.4546000000000134E7	2	1.0
HT29_100vF7_3_NoGC	21.0:9391002.00000027	2	1.0
HT29_100vF7_3_NoGC	21.0:1.0391003999999527E7	2	1.0
HT29_100vF7_3_NoGC	21.0:1.3391003999999994E7	2	1.0
HT29_100vF7_3_NoGC	21.0:1.4390999999999821E7	2	1.0
HT29_100vF7_3_NoGC	21.0:1.5391002000000142E7	2	1.0
HT29_100vF7_3_NoGC	21.0:1.6391004000000464E7	2	1.0
HT29_100vF7_3_NoGC	21.0:1.739100000000029E7	2	1.0
HT29_100vF7_3_NoGC	21.0:1.8391001999999546E7	2	1.0
HT29_100vF7_3_NoGC	21.0:1.9390998000000436E7	2	1.0
HT29_100vF7_3_NoGC	21.0:2.0390999999999695E7	2	1.0
HT29_100vF7_3_NoGC	21.0:2.1391002000000015E7	2	1.0
HT29_100vF7_3_NoGC	21.0:2.2391004000000335E7	2	1.0
HT29_100vF7_3_NoGC	21.0:2.339100000000016E7	2	1.0
HT29_100vF7_3_NoGC	21.0:2.4391002000000484E7	2	1.0
HT29_100vF7_3_NoGC	21.0:2.539099800000031E7	2	1.0
HT29_100vF7_3_NoGC	21.0:2.6390999999999564E7	2	1.0
HT29_100vF7_3_NoGC	21.0:2.739100199999989E7	2	1.0
HT29_100vF7_3_NoGC	21.0:2.839100400000021E7	2	1.0
HT29_100vF7_3_NoGC	21.0:2.9391000000000034E7	2	1.0
HT29_100vF7_3_NoGC	21.0:3.0391002000000354E7	2	1.0
HT29_100vF7_3_NoGC	21.0:3.1391003999999613E7	2	1.0
HT29_100vF7_3_NoGC	21.0:3.2391000000000503E7	2	1.0
HT29_100vF7_3_NoGC	21.0:3.3391001999999758E7	2	1.0
HT29_100vF7_3_NoGC	21.0:3.439100400000008E7	2	1.0
HT29_100vF7_3_NoGC	21.0:3.53909999999999E7	2	1.0
HT29_100vF7_3_NoGC	21.0:3.639100200000023E7	2	1.0
HT29_100vF7_3_NoGC	21.0:3.7391003999999486E7	2	1.0
HT29_100vF7_3_NoGC	21.0:3.839100000000037E7	2	1.0
HT29_100vF7_3_NoGC	21.0:3.939100199999963E7	2	1.0
HT29_100vF7_3_NoGC	21.0:4.0391003999999955E7	2	1.0
HT29_100vF7_3_NoGC	21.0:4.139099999999978E7	2	1.0
HT29_100vF7_3_NoGC	21.0:4.23910020000001E7	2	1.0
HT29_100vF7_3_NoGC	21.0:4.3391004000000425E7	2	1.0
HT29_100vF7_3_NoGC	21.0:4.4391000000000246E7	2	1.0
HT29_100vF7_3_NoGC	21.0:4.53910019999995E7	2	1.0
HT29_100vF7_3_NoGC	21.0:4.6390998000000395E7	2	1.0
HT29_100vF7_3_NoGC	21.0:4.739099999999965E7	2	1.0
HT29_100vF7_3_NoGC	22.0:1.5260999999999925E7	2	1.0
HT29_100vF7_3_NoGC	22.0:1.6261002000000246E7	2	1.0
HT29_100vF7_3_NoGC	22.0:1.72610039999995E7	2	1.0
HT29_100vF7_3_NoGC	22.0:1.8261000000000395E7	2	1.0
HT29_100vF7_3_NoGC	22.0:2.1260999999999795E7	2	1.0
HT29_100vF7_3_NoGC	22.0:2.226100200000012E7	2	1.0
HT29_100vF7_3_NoGC	22.0:2.326100400000044E7	2	1.0
HT29_100vF7_3_NoGC	22.0:2.4261000000000264E7	2	1.0
HT29_100vF7_3_NoGC	22.0:2.5261001999999523E7	2	1.0
HT29_100vF7_3_NoGC	22.0:2.6261003999999844E7	2	1.0
HT29_100vF7_3_NoGC	22.0:2.726099999999967E7	2	1.0
HT29_100vF7_3_NoGC	22.0:3.0261000000000138E7	2	1.0
HT29_100vF7_3_NoGC	22.0:3.126100200000046E7	2	1.0
HT29_100vF7_3_NoGC	22.0:3.2261003999999717E7	2	1.0
HT29_100vF7_3_NoGC	22.0:3.326099999999954E7	2	1.0
HT29_100vF7_3_NoGC	22.0:3.4261001999999866E7	2	1.0
HT29_100vF7_3_NoGC	22.0:3.5261004000000186E7	2	1.0
HT29_100vF7_3_NoGC	22.0:3.626100000000001E7	2	1.0
HT29_100vF7_3_NoGC	22.0:3.7261002000000335E7	2	1.0
HT29_100vF7_3_NoGC	22.0:3.826100399999959E7	2	1.0
HT29_100vF7_3_NoGC	22.0:3.926100000000048E7	2	1.0
HT29_100vF7_3_NoGC	22.0:4.026100199999973E7	2	1.0
HT29_100vF7_3_NoGC	22.0:4.126100400000006E7	2	1.0
HT29_100vF7_3_NoGC	22.0:4.226099999999988E7	2	1.0
HT29_100vF7_3_NoGC	22.0:4.32610020000002E7	2	1.0
HT29_100vF7_3_NoGC	22.0:4.426100400000053E7	2	1.0
HT29_100vF7_3_NoGC	22.0:4.526100000000035E7	2	1.0
HT29_100vF7_3_NoGC	22.0:4.6261001999999605E7	2	1.0
HT29_100vF7_3_NoGC	22.0:4.7261003999999925E7	2	1.0
HT29_100vF7_3_NoGC	22.0:4.8260999999999754E7	2	1.0
HT29_100vF7_3_NoGC	22.0:4.9261002000000075E7	2	1.0
HT29_100vF7_3_NoGC	22.0:5.0261004000000395E7	2	1.0
HT29_100vF7_3_NoGC	22.0:5.126100000000022E7	2	1.0
HT29_100vF7_3_NoGC	23.0:956003.9999996661	2	1.0
HT29_100vF7_3_NoGC	23.0:1955999.9999994915	2	1.0
HT29_100vF7_3_NoGC	23.0:2956001.9999998133	2	1.0
HT29_100vF7_3_NoGC	23.0:3956004.000000135	2	1.0
HT29_100vF7_3_NoGC	23.0:4955999.999999961	2	1.0
HT29_100vF7_3_NoGC	23.0:5956002.000000282	2	1.0
HT29_100vF7_3_NoGC	23.0:6956003.999999538	2	1.0
HT29_100vF7_3_NoGC	23.0:7956000.000000429	2	1.0
HT29_100vF7_3_NoGC	23.0:8956001.999999685	2	1.0
HT29_100vF7_3_NoGC	23.0:9956004.000000007	2	1.0
HT29_100vF7_3_NoGC	23.0:1.0955999999999832E7	2	1.0
HT29_100vF7_3_NoGC	23.0:1.1956002000000155E7	2	1.0
HT29_100vF7_3_NoGC	23.0:1.2956004000000477E7	2	1.0
HT29_100vF7_3_NoGC	23.0:1.3956000000000302E7	2	1.0
HT29_100vF7_3_NoGC	23.0:1.4956001999999557E7	2	1.0
HT29_100vF7_3_NoGC	23.0:1.5956003999999879E7	2	1.0
HT29_100vF7_3_NoGC	23.0:1.6955999999999706E7	2	1.0
HT29_100vF7_3_NoGC	23.0:1.7956002000000026E7	2	1.0
HT29_100vF7_3_NoGC	23.0:1.8956004000000346E7	2	1.0
HT29_100vF7_3_NoGC	23.0:1.9956000000000175E7	2	1.0
HT29_100vF7_3_NoGC	23.0:2.0956002000000495E7	2	1.0
HT29_100vF7_3_NoGC	23.0:2.195600399999975E7	2	1.0
HT29_100vF7_3_NoGC	23.0:2.2955999999999575E7	2	1.0
HT29_100vF7_3_NoGC	23.0:2.39560019999999E7	2	1.0
HT29_100vF7_3_NoGC	23.0:2.495600400000022E7	2	1.0
HT29_100vF7_3_NoGC	23.0:2.5956000000000045E7	2	1.0
HT29_100vF7_3_NoGC	23.0:2.695600200000037E7	2	1.0
HT29_100vF7_3_NoGC	23.0:2.7956003999999624E7	2	1.0
HT29_100vF7_3_NoGC	23.0:2.8956000000000514E7	2	1.0
HT29_100vF7_3_NoGC	23.0:2.995600199999977E7	2	1.0
HT29_100vF7_3_NoGC	23.0:3.0956004000000093E7	2	1.0
HT29_100vF7_3_NoGC	23.0:3.1955999999999918E7	2	1.0
HT29_100vF7_3_NoGC	23.0:3.295600200000024E7	2	1.0
HT29_100vF7_3_NoGC	23.0:3.395600399999949E7	2	1.0
HT29_100vF7_3_NoGC	23.0:3.495600000000039E7	2	1.0
HT29_100vF7_3_NoGC	23.0:3.595600199999964E7	2	1.0
HT29_100vF7_3_NoGC	23.0:3.695600399999996E7	2	1.0
HT29_100vF7_3_NoGC	23.0:3.795599999999979E7	2	1.0
HT29_100vF7_3_NoGC	23.0:3.895600200000011E7	2	1.0
HT29_100vF7_3_NoGC	23.0:3.995600400000043E7	2	1.0
HT29_100vF7_3_NoGC	23.0:4.095600000000026E7	2	1.0
HT29_100vF7_3_NoGC	23.0:5.6956001999999724E7	2	1.0
HT29_100vF7_3_NoGC	23.0:5.795600400000005E7	2	1.0
HT29_100vF7_3_NoGC	23.0:6.095600400000052E7	2	1.0
HT29_100vF7_3_NoGC	23.0:6.195600000000034E7	2	1.0
HT29_100vF7_3_NoGC	23.0:6.29560019999996E7	2	1.0
HT29_100vF7_3_NoGC	23.0:6.3956003999999925E7	2	1.0
HT29_100vF7_3_NoGC	23.0:6.495599999999975E7	2	1.0
HT29_100vF7_3_NoGC	23.0:6.595600200000007E7	2	1.0
HT29_100vF7_3_NoGC	3.0:9.254900400000006E7	4	1.0
HT29_100vF7_3_NoGC	3.0:9.354900000000001E7	4	1.0
HT29_100vF7_3_NoGC	3.0:9.454900199999994E7	4	1.0
HT29_100vF7_3_NoGC	3.0:9.5549004E7	4	1.0
HT29_100vF7_3_NoGC	3.0:9.654899999999996E7	4	1.0
HT29_100vF7_3_NoGC	3.0:9.7549002E7	4	1.0
HT29_100vF7_3_NoGC	3.0:9.854900400000006E7	4	1.0
HT29_100vF7_3_NoGC	3.0:9.954900000000001E7	4	1.0
HT29_100vF7_3_NoGC	3.0:1.0054900199999994E8	4	1.0
HT29_100vF7_3_NoGC	3.0:1.01549004E8	4	1.0
HT29_100vF7_3_NoGC	3.0:1.0254899999999996E8	4	1.0
HT29_100vF7_3_NoGC	3.0:1.0354900200000001E8	4	1.0
HT29_100vF7_3_NoGC	3.0:1.0454900399999994E8	4	1.0
HT29_100vF7_3_NoGC	3.0:1.0554900000000003E8	4	1.0
HT29_100vF7_3_NoGC	3.0:1.0654900199999996E8	4	1.0
HT29_100vF7_3_NoGC	3.0:1.07549004E8	4	1.0
HT29_100vF7_3_NoGC	3.0:1.0854899999999996E8	4	1.0
HT29_100vF7_3_NoGC	3.0:1.0954900200000001E8	4	1.0
HT29_100vF7_3_NoGC	3.0:1.1054900399999994E8	4	1.0
HT29_100vF7_3_NoGC	3.0:1.1154900000000003E8	4	1.0
HT29_100vF7_3_NoGC	3.0:1.1254900199999996E8	4	1.0
HT29_100vF7_3_NoGC	3.0:1.1354900400000001E8	4	1.0
HT29_100vF7_3_NoGC	3.0:1.1454899999999997E8	4	1.0
HT29_100vF7_3_NoGC	3.0:1.1554900200000003E8	4	1.0
HT29_100vF7_3_NoGC	3.0:1.1654900399999994E8	4	1.0
HT29_100vF7_3_NoGC	3.0:1.1754900000000003E8	4	1.0
HT29_100vF7_3_NoGC	3.0:1.1854900199999996E8	4	1.0
HT29_100vF7_3_NoGC	3.0:1.1954900400000001E8	4	1.0
HT29_100vF7_3_NoGC	3.0:1.2054899999999997E8	4	1.0
HT29_100vF7_3_NoGC	3.0:1.2154900200000003E8	4	1.0
HT29_100vF7_3_NoGC	3.0:1.2254900399999996E8	4	1.0
HT29_100vF7_3_NoGC	3.0:1.2354900000000004E8	4	1.0
HT29_100vF7_3_NoGC	3.0:1.2454900199999997E8	4	1.0
HT29_100vF7_3_NoGC	3.0:1.2554900400000001E8	4	1.0
HT29_100vF7_3_NoGC	3.0:1.2654899999999999E8	4	1.0
HT29_100vF7_3_NoGC	3.0:1.2754900200000003E8	4	1.0
HT29_100vF7_3_NoGC	3.0:1.2854900399999996E8	4	1.0
HT29_100vF7_3_NoGC	3.0:1.2954900000000004E8	4	1.0
HT29_100vF7_3_NoGC	5.0:2371002.000000111	4	1.0
HT29_100vF7_3_NoGC	5.0:3371003.9999999	4	1.0
HT29_100vF7_3_NoGC	5.0:4370999.999999992	4	1.0
HT29_100vF7_3_NoGC	5.0:5371002.000000047	4	1.0
HT29_100vF7_3_NoGC	5.0:6371004.000000102	4	1.0
HT29_100vF7_3_NoGC	5.0:7370999.999999927	4	1.0
HT29_100vF7_3_NoGC	5.0:8371001.999999983	4	1.0
HT29_100vF7_3_NoGC	5.0:9371004.00000004	4	1.0
HT29_100vF7_3_NoGC	5.0:1.037100000000013E7	4	1.0
HT29_100vF7_3_NoGC	5.0:1.137100199999992E7	4	1.0
HT29_100vF7_3_NoGC	5.0:1.2371003999999974E7	4	1.0
HT29_100vF7_3_NoGC	5.0:1.3371000000000067E7	4	1.0
HT29_100vF7_3_NoGC	5.0:1.4371002000000121E7	4	1.0
HT29_100vF7_3_NoGC	5.0:1.537100399999991E7	4	1.0
HT29_100vF7_3_NoGC	5.0:1.6371000000000002E7	4	1.0
HT29_100vF7_3_NoGC	5.0:1.7371002000000056E7	4	1.0
HT29_100vF7_3_NoGC	7.0:2.133900000000004E7	4	1.0
HT29_100vF7_3_NoGC	7.0:2.2339002000000097E7	4	1.0
HT29_100vF7_3_NoGC	7.0:2.3339003999999885E7	4	1.0
HT29_100vF7_3_NoGC	7.0:2.4338999999999978E7	4	1.0
HT29_100vF7_3_NoGC	7.0:2.5339002000000034E7	4	1.0
HT29_100vF7_3_NoGC	7.0:2.633900400000009E7	4	1.0
HT29_100vF7_3_NoGC	7.0:2.7338999999999914E7	4	1.0
HT29_100vF7_3_NoGC	7.0:2.833900199999997E7	4	1.0
HT29_100vF7_3_NoGC	7.0:2.9339004000000022E7	4	1.0
HT29_100vF7_3_NoGC	7.0:3.0339000000000115E7	4	1.0
HT29_100vF7_3_NoGC	7.0:3.1339001999999903E7	4	1.0
HT29_100vF7_3_NoGC	7.0:3.233900399999996E7	4	1.0
HT29_100vF7_3_NoGC	7.0:3.3339000000000052E7	4	1.0
HT29_100vF7_3_NoGC	7.0:3.4339002000000104E7	4	1.0
HT29_100vF7_3_NoGC	7.0:3.5339003999999896E7	4	1.0
HT29_100vF7_3_NoGC	7.0:3.6338999999999985E7	4	1.0
HT29_100vF7_3_NoGC	7.0:3.7339002000000045E7	4	1.0
HT29_100vF7_3_NoGC	7.0:3.83390040000001E7	4	1.0
HT29_100vF7_3_NoGC	7.0:3.9338999999999925E7	4	1.0
HT29_100vF7_3_NoGC	7.0:4.033900199999998E7	4	1.0
HT29_100vF7_3_NoGC	7.0:4.133900400000004E7	4	1.0
HT29_100vF7_3_NoGC	7.0:4.233900000000013E7	4	1.0
HT29_100vF7_3_NoGC	7.0:4.333900199999992E7	4	1.0
HT29_100vF7_3_NoGC	7.0:4.433900399999997E7	4	1.0
HT29_100vF7_3_NoGC	7.0:4.533900000000006E7	4	1.0
HT29_100vF7_3_NoGC	7.0:4.633900200000012E7	4	1.0
HT29_100vF7_3_NoGC	7.0:4.73390039999999E7	4	1.0
HT29_100vF7_3_NoGC	7.0:4.8339E7	4	1.0
HT29_100vF7_3_NoGC	7.0:4.933900200000005E7	4	1.0
HT29_100vF7_3_NoGC	7.0:5.033900400000011E7	4	1.0
HT29_100vF7_3_NoGC	7.0:5.133899999999993E7	4	1.0
HT29_100vF7_3_NoGC	7.0:5.233900199999999E7	4	1.0
HT29_100vF7_3_NoGC	7.0:5.3339004000000045E7	4	1.0
HT29_100vF7_3_NoGC	7.0:5.433899999999987E7	4	1.0
HT29_100vF7_3_NoGC	7.0:5.5339001999999925E7	4	1.0
HT29_100vF7_3_NoGC	7.0:5.6339003999999985E7	4	1.0
HT29_100vF7_3_NoGC	7.0:6.233900400000012E7	4	1.0
HT29_100vF7_3_NoGC	7.0:6.333899999999995E7	4	1.0
HT29_100vF7_3_NoGC	7.0:6.4339002E7	4	1.0
HT29_100vF7_3_NoGC	7.0:6.533900400000006E7	4	1.0
HT29_100vF7_3_NoGC	7.0:6.633899999999988E7	4	1.0
HT29_100vF7_3_NoGC	7.0:6.733900199999994E7	4	1.0
HT29_100vF7_3_NoGC	7.0:6.833900399999999E7	4	1.0
HT29_100vF7_3_NoGC	7.0:6.933900000000009E7	4	1.0
HT29_100vF7_3_NoGC	7.0:7.033900199999987E7	4	1.0
HT29_100vF7_3_NoGC	7.0:7.133900399999993E7	4	1.0
HT29_100vF7_3_NoGC	7.0:7.233900000000001E7	4	1.0
HT29_100vF7_3_NoGC	7.0:7.333900200000007E7	4	1.0
HT29_100vF7_3_NoGC	7.0:7.433900400000013E7	4	1.0
HT29_100vF7_3_NoGC	7.0:7.533899999999996E7	4	1.0
HT29_100vF7_3_NoGC	7.0:7.633900200000001E7	4	1.0
HT29_100vF7_3_NoGC	7.0:7.733900400000006E7	4	1.0
HT29_100vF7_3_NoGC	7.0:7.83389999999999E7	4	1.0
HT29_100vF7_3_NoGC	7.0:7.933900199999994E7	4	1.0
HT29_100vF7_3_NoGC	7.0:8.0339004E7	4	1.0
HT29_100vF7_3_NoGC	7.0:8.133900000000009E7	4	1.0
HT29_100vF7_3_NoGC	7.0:8.233900199999988E7	4	1.0
HT29_100vF7_3_NoGC	7.0:8.333900399999994E7	4	1.0
HT29_100vF7_3_NoGC	7.0:8.433900000000003E7	4	1.0
HT29_100vF7_3_NoGC	7.0:8.533900200000009E7	4	1.0
HT29_100vF7_3_NoGC	7.0:8.633900399999988E7	4	1.0
HT29_100vF7_3_NoGC	7.0:8.733899999999997E7	4	1.0
HT29_100vF7_3_NoGC	7.0:8.833900200000001E7	4	1.0
HT29_100vF7_3_NoGC	7.0:8.933900400000007E7	4	1.0
HT29_100vF7_3_NoGC	7.0:9.03389999999999E7	4	1.0
HT29_100vF7_3_NoGC	7.0:9.133900199999996E7	4	1.0
HT29_100vF7_3_NoGC	7.0:9.233900400000001E7	4	1.0
HT29_100vF7_3_NoGC	7.0:9.33390000000001E7	4	1.0
HT29_100vF7_3_NoGC	7.0:9.43390019999999E7	4	1.0
HT29_100vF7_3_NoGC	7.0:9.533900399999996E7	4	1.0
HT29_100vF7_3_NoGC	7.0:9.633900000000004E7	4	1.0
HT29_100vF7_3_NoGC	7.0:9.733900200000009E7	4	1.0
HT29_100vF7_3_NoGC	7.0:9.833900399999988E7	4	1.0
HT29_100vF7_3_NoGC	7.0:9.933899999999997E7	4	1.0
HT29_100vF7_3_NoGC	7.0:1.0033900200000003E8	4	1.0
HT29_100vF7_3_NoGC	7.0:1.0133900400000009E8	4	1.0
HT29_100vF7_3_NoGC	7.0:1.0233899999999991E8	4	1.0
HT29_100vF7_3_NoGC	7.0:1.0333900199999997E8	4	1.0
HT29_100vF7_3_NoGC	7.0:1.0433900400000003E8	4	1.0
HT29_100vF7_3_NoGC	7.0:1.0533900000000012E8	4	1.0
HT29_100vF7_3_NoGC	7.0:1.0633900199999991E8	4	1.0
HT29_100vF7_3_NoGC	7.0:1.0733900399999996E8	4	1.0
HT29_100vF7_3_NoGC	7.0:1.0833900000000004E8	4	1.0
HT29_100vF7_3_NoGC	7.0:1.093390020000001E8	4	1.0
HT29_100vF7_3_NoGC	7.0:1.103390039999999E8	4	1.0
HT29_100vF7_3_NoGC	7.0:1.1133899999999999E8	4	1.0
HT29_100vF7_3_NoGC	7.0:1.1233900200000004E8	4	1.0
HT29_100vF7_3_NoGC	7.0:1.133390040000001E8	4	1.0
HT29_100vF7_3_NoGC	7.0:1.1433899999999993E8	4	1.0
HT29_100vF7_3_NoGC	7.0:1.1533900199999999E8	4	1.0
HT29_100vF7_3_NoGC	7.0:1.1633900400000003E8	4	1.0
HT29_100vF7_3_NoGC	7.0:1.1733900000000012E8	4	1.0
HT29_100vF7_3_NoGC	7.0:1.1833900199999991E8	4	1.0
HT29_100vF7_3_NoGC	7.0:1.1933900399999997E8	4	1.0
HT29_100vF7_3_NoGC	7.0:1.2033900000000006E8	4	1.0
HT29_100vF7_3_NoGC	7.0:1.2133900200000012E8	4	1.0
HT29_100vF7_3_NoGC	7.0:1.2233900399999991E8	4	1.0
HT29_100vF7_3_NoGC	7.0:1.23339E8	4	1.0
HT29_100vF7_3_NoGC	7.0:1.2433900200000006E8	4	1.0
HT29_100vF7_3_NoGC	7.0:1.253390040000001E8	4	1.0
HT29_100vF7_3_NoGC	7.0:1.2633899999999994E8	4	1.0
HT29_100vF7_3_NoGC	7.0:1.2733900199999999E8	4	1.0
HT29_100vF7_3_NoGC	7.0:1.2833900400000004E8	4	1.0
HT29_100vF7_3_NoGC	7.0:1.2933899999999987E8	4	1.0
HT29_100vF7_3_NoGC	7.0:1.3033900199999993E8	4	1.0
HT29_100vF7_3_NoGC	7.0:1.3133900399999999E8	4	1.0
HT29_100vF7_3_NoGC	7.0:1.3233900000000007E8	4	1.0
HT29_100vF7_3_NoGC	7.0:1.3333900200000013E8	4	1.0
HT29_100vF7_3_NoGC	7.0:1.343390039999999E8	4	1.0
HT29_100vF7_3_NoGC	7.0:1.35339E8	4	1.0
HT29_100vF7_3_NoGC	7.0:1.3633900200000006E8	4	1.0
HT29_100vF7_3_NoGC	7.0:1.3733900400000012E8	4	1.0
HT29_100vF7_3_NoGC	7.0:1.3833899999999994E8	4	1.0
HT29_100vF7_3_NoGC	7.0:1.39339002E8	4	1.0
HT29_100vF7_3_NoGC	7.0:1.4033900400000006E8	4	1.0
HT29_100vF7_3_NoGC	7.0:1.4133899999999988E8	4	1.0
HT29_100vF7_3_NoGC	7.0:1.4233900199999994E8	4	1.0
HT29_100vF7_3_NoGC	7.0:1.43339004E8	4	1.0
HT29_100vF7_3_NoGC	7.0:1.443390000000001E8	4	1.0
HT29_100vF7_3_NoGC	7.0:1.4533900199999988E8	4	1.0
HT29_100vF7_3_NoGC	7.0:1.4633900399999994E8	4	1.0
HT29_100vF7_3_NoGC	7.0:1.4733900000000003E8	4	1.0
HT29_100vF7_3_NoGC	8.0:9.420000000000001E7	4	1.0
HT29_100vF7_3_NoGC	8.0:9.52000019999998E7	4	1.0
HT29_100vF7_3_NoGC	8.0:9.620000400000013E7	4	1.0
HT29_100vF7_3_NoGC	8.0:9.719999999999996E7	4	1.0
HT29_100vF7_3_NoGC	8.0:9.820000199999975E7	4	1.0
HT29_100vF7_3_NoGC	8.0:9.91999980000001E7	4	1.0
HT29_100vF7_3_NoGC	8.0:1.001999999999999E8	4	1.0
HT29_100vF7_3_NoGC	8.0:1.0120000200000021E8	4	1.0
HT29_100vF7_3_NoGC	8.0:1.0219999800000003E8	4	1.0
HT29_100vF7_3_NoGC	8.0:1.0319999999999982E8	4	1.0
HT29_100vF7_3_NoGC	9.0:1.2983500200000009E8	4	1.0
HT29_100vF7_3_NoGC	9.0:1.3083500399999988E8	4	1.0
HT29_100vF7_3_NoGC	9.0:1.3183500000000024E8	4	1.0
HT29_100vF7_3_NoGC	9.0:1.3283500200000003E8	4	1.0
HT29_100vF7_3_NoGC	9.0:1.338350039999998E8	4	1.0
HT29_100vF7_3_NoGC	9.0:1.3483500000000018E8	4	1.0
HT29_100vF7_3_NoGC	9.0:1.3583500199999997E8	4	1.0
HT29_100vF7_3_NoGC	9.0:1.3683500399999976E8	4	1.0
HT29_100vF7_3_NoGC	9.0:1.3783500000000012E8	4	1.0
HT29_100vF7_3_NoGC	9.0:1.388350019999999E8	4	1.0
HT29_100vF7_3_NoGC	9.0:1.398350040000002E8	4	1.0
HT29_100vF7_3_NoGC	11.0:4085999.9999998566	4	1.0
HT29_100vF7_3_NoGC	11.0:5086002.000000178	4	1.0
HT29_100vF7_3_NoGC	11.0:6086003.999999967	4	1.0
HT29_100vF7_3_NoGC	11.0:7085999.999999792	4	1.0
HT29_100vF7_3_NoGC	11.0:8086002.000000115	4	1.0
HT29_100vF7_3_NoGC	11.0:9086003.999999903	4	1.0
HT29_100vF7_3_NoGC	11.0:1.008600000000026E7	4	1.0
HT29_100vF7_3_NoGC	11.0:1.108600200000005E7	4	1.0
HT29_100vF7_3_NoGC	11.0:1.208600399999984E7	4	1.0
HT29_100vF7_3_NoGC	11.0:1.3086000000000197E7	4	1.0
HT29_100vF7_3_NoGC	11.0:1.4086001999999987E7	4	1.0
HT29_100vF7_3_NoGC	11.0:1.5086003999999775E7	4	1.0
HT29_100vF7_3_NoGC	11.0:1.6086000000000134E7	4	1.0
HT29_100vF7_3_NoGC	11.0:1.708600199999992E7	4	1.0
HT29_100vF7_3_NoGC	11.0:1.8086004000000246E7	4	1.0
HT29_100vF7_3_NoGC	11.0:1.908600000000007E7	4	1.0
HT29_100vF7_3_NoGC	11.0:2.008600199999986E7	4	1.0
HT29_100vF7_3_NoGC	11.0:2.108600400000018E7	4	1.0
HT29_100vF7_3_NoGC	11.0:2.2086000000000007E7	4	1.0
HT29_100vF7_3_NoGC	11.0:2.3086001999999795E7	4	1.0
HT29_100vF7_3_NoGC	11.0:2.4086004000000115E7	4	1.0
HT29_100vF7_3_NoGC	11.0:2.508599999999994E7	4	1.0
HT29_100vF7_3_NoGC	11.0:2.6086002000000264E7	4	1.0
HT29_100vF7_3_NoGC	11.0:2.7086004000000052E7	4	1.0
HT29_100vF7_3_NoGC	11.0:2.8085999999999877E7	4	1.0
HT29_100vF7_3_NoGC	11.0:2.90860020000002E7	4	1.0
HT29_100vF7_3_NoGC	11.0:3.008600399999999E7	4	1.0
HT29_100vF7_3_NoGC	11.0:3.1085999999999814E7	4	1.0
HT29_100vF7_3_NoGC	11.0:3.2086002000000134E7	4	1.0
HT29_100vF7_3_NoGC	11.0:3.3086003999999925E7	4	1.0
HT29_100vF7_3_NoGC	11.0:3.408599999999975E7	4	1.0
HT29_100vF7_3_NoGC	11.0:3.5086002000000075E7	4	1.0
HT29_100vF7_3_NoGC	11.0:3.608600399999986E7	4	1.0
HT29_100vF7_3_NoGC	11.0:3.7086000000000216E7	4	1.0
HT29_100vF7_3_NoGC	11.0:3.808600200000001E7	4	1.0
HT29_100vF7_3_NoGC	11.0:3.90860039999998E7	4	1.0
HT29_100vF7_3_NoGC	11.0:4.008600000000016E7	4	1.0
HT29_100vF7_3_NoGC	11.0:4.108600199999994E7	4	1.0
HT29_100vF7_3_NoGC	11.0:4.208600400000027E7	4	1.0
HT29_100vF7_3_NoGC	11.0:4.308600000000009E7	4	1.0
HT29_100vF7_3_NoGC	11.0:4.408600199999988E7	4	1.0
HT29_100vF7_3_NoGC	11.0:4.50860040000002E7	4	1.0
HT29_100vF7_3_NoGC	11.0:4.608600000000003E7	4	1.0
HT29_100vF7_3_NoGC	11.0:4.7086001999999814E7	4	1.0
HT29_100vF7_3_NoGC	11.0:7.608599999999993E7	4	1.0
HT29_100vF7_3_NoGC	11.0:7.708600200000024E7	4	1.0
HT29_100vF7_3_NoGC	11.0:7.808600400000003E7	4	1.0
HT29_100vF7_3_NoGC	11.0:7.908599999999985E7	4	1.0
HT29_100vF7_3_NoGC	11.0:8.008600200000018E7	4	1.0
HT29_100vF7_3_NoGC	11.0:8.108600399999997E7	4	1.0
HT29_100vF7_3_NoGC	11.0:8.208599999999979E7	4	1.0
HT29_100vF7_3_NoGC	11.0:8.308600200000012E7	4	1.0
HT29_100vF7_3_NoGC	11.0:8.408600399999991E7	4	1.0
HT29_100vF7_3_NoGC	11.0:8.508600000000027E7	4	1.0
HT29_100vF7_3_NoGC	11.0:8.608600200000004E7	4	1.0
HT29_100vF7_3_NoGC	11.0:8.708600399999984E7	4	1.0
HT29_100vF7_3_NoGC	11.0:8.80860000000002E7	4	1.0
HT29_100vF7_3_NoGC	11.0:8.908600199999999E7	4	1.0
HT29_100vF7_3_NoGC	11.0:9.008600399999978E7	4	1.0
HT29_100vF7_3_NoGC	11.0:9.108600000000013E7	4	1.0
HT29_100vF7_3_NoGC	11.0:9.208600199999993E7	4	1.0
HT29_100vF7_3_NoGC	11.0:9.308600400000024E7	4	1.0
HT29_100vF7_3_NoGC	11.0:9.408600000000007E7	4	1.0
HT29_100vF7_3_NoGC	11.0:9.508600199999987E7	4	1.0
HT29_100vF7_3_NoGC	11.0:9.608600400000018E7	4	1.0
HT29_100vF7_3_NoGC	11.0:9.7086E7	4	1.0
HT29_100vF7_3_NoGC	11.0:9.808600199999979E7	4	1.0
HT29_100vF7_3_NoGC	11.0:9.908600400000012E7	4	1.0
HT29_100vF7_3_NoGC	11.0:1.0008599999999994E8	4	1.0
HT29_100vF7_3_NoGC	11.0:1.0108600200000027E8	4	1.0
HT29_100vF7_3_NoGC	11.0:1.0208600400000006E8	4	1.0
HT29_100vF7_3_NoGC	11.0:1.0308599999999988E8	4	1.0
HT29_100vF7_3_NoGC	11.0:1.040860020000002E8	4	1.0
HT29_100vF7_3_NoGC	11.0:1.0508600399999999E8	4	1.0
HT29_100vF7_3_NoGC	11.0:1.0608599999999982E8	4	1.0
HT29_100vF7_3_NoGC	11.0:1.0708600200000013E8	4	1.0
HT29_100vF7_3_NoGC	11.0:1.0808600399999993E8	4	1.0
HT29_100vF7_3_NoGC	11.0:1.0908599999999975E8	4	1.0
HT29_100vF7_3_NoGC	11.0:1.1008600200000007E8	4	1.0
HT29_100vF7_3_NoGC	11.0:1.1108600399999987E8	4	1.0
HT29_100vF7_3_NoGC	11.0:1.1208600000000022E8	4	1.0
HT29_100vF7_3_NoGC	11.0:1.1308600200000001E8	4	1.0
HT29_100vF7_3_NoGC	11.0:1.1408600399999979E8	4	1.0
HT29_100vF7_3_NoGC	11.0:1.1508600000000015E8	4	1.0
HT29_100vF7_3_NoGC	11.0:1.1608600199999994E8	4	1.0
HT29_100vF7_3_NoGC	11.0:1.1708600400000027E8	4	1.0
HT29_100vF7_3_NoGC	11.0:1.1808600000000009E8	4	1.0
HT29_100vF7_3_NoGC	11.0:1.1908600199999988E8	4	1.0
HT29_100vF7_3_NoGC	11.0:1.2008600400000021E8	4	1.0
HT29_100vF7_3_NoGC	11.0:1.2108600000000003E8	4	1.0
HT29_100vF7_3_NoGC	11.0:1.2208600199999982E8	4	1.0
HT29_100vF7_3_NoGC	11.0:1.2308600400000013E8	4	1.0
HT29_100vF7_3_NoGC	11.0:1.2408599999999997E8	4	1.0
HT29_100vF7_3_NoGC	11.0:1.2508600199999975E8	4	1.0
HT29_100vF7_3_NoGC	11.0:1.2608600400000007E8	4	1.0
HT29_100vF7_3_NoGC	11.0:1.270859999999999E8	4	1.0
HT29_100vF7_3_NoGC	11.0:1.2808600200000022E8	4	1.0
HT29_100vF7_3_NoGC	11.0:1.2908600400000001E8	4	1.0
HT29_100vF7_3_NoGC	11.0:1.3008599999999984E8	4	1.0
HT29_100vF7_3_NoGC	11.0:1.3108600200000016E8	4	1.0
HT29_100vF7_3_NoGC	11.0:1.3208600399999994E8	4	1.0
HT29_100vF7_3_NoGC	11.0:1.3308599999999978E8	4	1.0
HT29_100vF7_3_NoGC	11.0:1.3408600200000009E8	4	1.0
HT29_100vF7_3_NoGC	12.0:79002.0000000169	4	1.0
HT29_100vF7_3_NoGC	13.0:3.422699999999974E7	4	1.0
HT29_100vF7_3_NoGC	13.0:3.522700200000006E7	4	1.0
HT29_100vF7_3_NoGC	13.0:3.622700399999985E7	4	1.0
HT29_100vF7_3_NoGC	13.0:3.722700000000021E7	4	1.0
HT29_100vF7_3_NoGC	13.0:3.8227002E7	4	1.0
HT29_100vF7_3_NoGC	13.0:3.922700399999979E7	4	1.0
HT29_100vF7_3_NoGC	13.0:4.022700000000015E7	4	1.0
HT29_100vF7_3_NoGC	13.0:4.122700199999993E7	4	1.0
HT29_100vF7_3_NoGC	13.0:4.222700400000025E7	4	1.0
HT29_100vF7_3_NoGC	13.0:4.322700000000008E7	4	1.0
HT29_100vF7_3_NoGC	13.0:4.422700199999987E7	4	1.0
HT29_100vF7_3_NoGC	13.0:4.522700400000019E7	4	1.0
HT29_100vF7_3_NoGC	13.0:4.6227000000000015E7	4	1.0
HT29_100vF7_3_NoGC	13.0:4.722700199999981E7	4	1.0
HT29_100vF7_3_NoGC	13.0:4.822700400000013E7	4	1.0
HT29_100vF7_3_NoGC	13.0:4.9226999999999955E7	4	1.0
HT29_100vF7_3_NoGC	13.0:5.022700199999975E7	4	1.0
HT29_100vF7_3_NoGC	13.0:5.122700400000007E7	4	1.0
HT29_100vF7_3_NoGC	13.0:5.222699999999989E7	4	1.0
HT29_100vF7_3_NoGC	13.0:7.222700400000015E7	4	1.0
HT29_100vF7_3_NoGC	13.0:7.322699999999997E7	4	1.0
HT29_100vF7_3_NoGC	13.0:7.422700199999976E7	4	1.0
HT29_100vF7_3_NoGC	13.0:7.522700400000009E7	4	1.0
HT29_100vF7_3_NoGC	13.0:7.622699999999991E7	4	1.0
HT29_100vF7_3_NoGC	13.0:9.422700000000006E7	4	1.0
HT29_100vF7_3_NoGC	13.0:9.522700199999985E7	4	1.0
HT29_100vF7_3_NoGC	13.0:9.622700400000018E7	4	1.0
HT29_100vF7_3_NoGC	13.0:9.7227E7	4	1.0
HT29_100vF7_3_NoGC	13.0:9.822700199999979E7	4	1.0
HT29_100vF7_3_NoGC	13.0:9.92270040000001E7	4	1.0
HT29_100vF7_3_NoGC	13.0:1.0022699999999993E8	4	1.0
HT29_100vF7_3_NoGC	13.0:1.0122700200000025E8	4	1.0
HT29_100vF7_3_NoGC	13.0:1.0222700400000004E8	4	1.0
HT29_100vF7_3_NoGC	13.0:1.0322699999999987E8	4	1.0
HT29_100vF7_3_NoGC	13.0:1.042270020000002E8	4	1.0
HT29_100vF7_3_NoGC	13.0:1.0522700399999999E8	4	1.0
HT29_100vF7_3_NoGC	13.0:1.062269999999998E8	4	1.0
HT29_100vF7_3_NoGC	13.0:1.0722700200000013E8	4	1.0
HT29_100vF7_3_NoGC	13.0:1.0822700399999991E8	4	1.0
HT29_100vF7_3_NoGC	13.0:1.0922699999999975E8	4	1.0
HT29_100vF7_3_NoGC	15.0:2.2706999999999944E7	4	1.0
HT29_100vF7_3_NoGC	15.0:2.3707002000000264E7	4	1.0
HT29_100vF7_3_NoGC	15.0:2.4707004000000056E7	4	1.0
HT29_100vF7_3_NoGC	15.0:2.570699999999988E7	4	1.0
HT29_100vF7_3_NoGC	15.0:2.67070020000002E7	4	1.0
HT29_100vF7_3_NoGC	15.0:2.770700399999999E7	4	1.0
HT29_100vF7_3_NoGC	15.0:2.8706999999999817E7	4	1.0
HT29_100vF7_3_NoGC	15.0:2.9707002000000138E7	4	1.0
HT29_100vF7_3_NoGC	15.0:3.0707003999999925E7	4	1.0
HT29_100vF7_3_NoGC	15.0:3.170699999999975E7	4	1.0
HT29_100vF7_3_NoGC	15.0:3.2707002000000075E7	4	1.0
HT29_100vF7_3_NoGC	15.0:3.3707003999999866E7	4	1.0
HT29_100vF7_3_NoGC	15.0:3.470700000000022E7	4	1.0
HT29_100vF7_3_NoGC	15.0:3.570700200000001E7	4	1.0
HT29_100vF7_3_NoGC	15.0:3.67070039999998E7	4	1.0
HT29_100vF7_3_NoGC	15.0:3.770700000000016E7	4	1.0
HT29_100vF7_3_NoGC	15.0:3.870700199999995E7	4	1.0
HT29_100vF7_3_NoGC	15.0:3.970700399999973E7	4	1.0
HT29_100vF7_3_NoGC	15.0:4.070700000000009E7	4	1.0
HT29_100vF7_3_NoGC	15.0:4.170700199999988E7	4	1.0
HT29_100vF7_3_NoGC	15.0:4.27070040000002E7	4	1.0
HT29_100vF7_3_NoGC	15.0:4.370700000000003E7	4	1.0
HT29_100vF7_3_NoGC	15.0:4.470700199999982E7	4	1.0
HT29_100vF7_3_NoGC	15.0:4.570700400000014E7	4	1.0
HT29_100vF7_3_NoGC	15.0:4.670699999999996E7	4	1.0
HT29_100vF7_3_NoGC	15.0:4.7707001999999754E7	4	1.0
HT29_100vF7_3_NoGC	15.0:4.8707004000000075E7	4	1.0
HT29_100vF7_3_NoGC	15.0:4.97069999999999E7	4	1.0
HT29_100vF7_3_NoGC	15.0:5.070700200000022E7	4	1.0
HT29_100vF7_3_NoGC	15.0:5.1707004000000015E7	4	1.0
HT29_100vF7_3_NoGC	15.0:5.2706999999999836E7	4	1.0
HT29_100vF7_3_NoGC	15.0:5.370700200000016E7	4	1.0
HT29_100vF7_3_NoGC	15.0:5.470700399999995E7	4	1.0
HT29_100vF7_3_NoGC	15.0:5.570699999999978E7	4	1.0
HT29_100vF7_3_NoGC	15.0:5.67070020000001E7	4	1.0
HT29_100vF7_3_NoGC	15.0:5.770700399999988E7	4	1.0
HT29_100vF7_3_NoGC	15.0:5.8707000000000246E7	4	1.0
HT29_100vF7_3_NoGC	15.0:5.970700200000003E7	4	1.0
HT29_100vF7_3_NoGC	15.0:6.070700399999982E7	4	1.0
HT29_100vF7_3_NoGC	15.0:6.170700000000018E7	4	1.0
HT29_100vF7_3_NoGC	15.0:6.270700199999997E7	4	1.0
HT29_100vF7_3_NoGC	15.0:6.3707003999999754E7	4	1.0
HT29_100vF7_3_NoGC	15.0:6.470700000000011E7	4	1.0
HT29_100vF7_3_NoGC	15.0:6.57070019999999E7	4	1.0
HT29_100vF7_3_NoGC	15.0:6.670700400000022E7	4	1.0
HT29_100vF7_3_NoGC	15.0:6.770700000000004E7	4	1.0
HT29_100vF7_3_NoGC	15.0:6.870700199999984E7	4	1.0
HT29_100vF7_3_NoGC	15.0:6.970700400000016E7	4	1.0
HT29_100vF7_3_NoGC	15.0:7.070699999999999E7	4	1.0
HT29_100vF7_3_NoGC	15.0:7.170700199999978E7	4	1.0
HT29_100vF7_3_NoGC	15.0:7.27070040000001E7	4	1.0
HT29_100vF7_3_NoGC	15.0:7.370699999999993E7	4	1.0
HT29_100vF7_3_NoGC	15.0:7.470700200000024E7	4	1.0
HT29_100vF7_3_NoGC	15.0:7.570700400000003E7	4	1.0
HT29_100vF7_3_NoGC	15.0:7.670699999999987E7	4	1.0
HT29_100vF7_3_NoGC	15.0:7.770700200000018E7	4	1.0
HT29_100vF7_3_NoGC	15.0:7.870700399999997E7	4	1.0
HT29_100vF7_3_NoGC	15.0:7.970699999999979E7	4	1.0
HT29_100vF7_3_NoGC	15.0:8.070700200000012E7	4	1.0
HT29_100vF7_3_NoGC	15.0:8.170700399999991E7	4	1.0
HT29_100vF7_3_NoGC	15.0:8.270700000000027E7	4	1.0
HT29_100vF7_3_NoGC	15.0:8.370700200000006E7	4	1.0
HT29_100vF7_3_NoGC	15.0:8.470700399999984E7	4	1.0
HT29_100vF7_3_NoGC	15.0:8.57070000000002E7	4	1.0
HT29_100vF7_3_NoGC	15.0:8.670700199999999E7	4	1.0
HT29_100vF7_3_NoGC	15.0:8.770700399999978E7	4	1.0
HT29_100vF7_3_NoGC	15.0:8.870700000000013E7	4	1.0
HT29_100vF7_3_NoGC	15.0:8.970700199999993E7	4	1.0
HT29_100vF7_3_NoGC	15.0:9.070700400000025E7	4	1.0
HT29_100vF7_3_NoGC	15.0:9.170700000000007E7	4	1.0
HT29_100vF7_3_NoGC	15.0:9.270700199999987E7	4	1.0
HT29_100vF7_3_NoGC	15.0:9.370700400000018E7	4	1.0
HT29_100vF7_3_NoGC	15.0:9.470700000000001E7	4	1.0
HT29_100vF7_3_NoGC	15.0:9.570700199999979E7	4	1.0
HT29_100vF7_3_NoGC	15.0:9.670700400000012E7	4	1.0
HT29_100vF7_3_NoGC	15.0:9.770699999999994E7	4	1.0
HT29_100vF7_3_NoGC	15.0:9.870700200000027E7	4	1.0
HT29_100vF7_3_NoGC	15.0:9.970700400000006E7	4	1.0
HT29_100vF7_3_NoGC	15.0:1.0070699999999988E8	4	1.0
HT29_100vF7_3_NoGC	15.0:1.0170700200000021E8	4	1.0
HT29_100vF7_3_NoGC	16.0:175001.99999958	4	1.0
HT29_100vF7_3_NoGC	16.0:1175003.9999999017	4	1.0
HT29_100vF7_3_NoGC	16.0:2174999.999999727	4	1.0
HT29_100vF7_3_NoGC	16.0:3175002.000000049	4	1.0
HT29_100vF7_3_NoGC	16.0:4175004.0000003707	4	1.0
HT29_100vF7_3_NoGC	16.0:5175000.0000001965	4	1.0
HT29_100vF7_3_NoGC	17.0:2.5820003999999486E7	4	1.0
HT29_100vF7_3_NoGC	17.0:2.6820000000000376E7	4	1.0
HT29_100vF7_3_NoGC	17.0:2.782000199999963E7	4	1.0
HT29_100vF7_3_NoGC	17.0:2.8820003999999955E7	4	1.0
HT29_100vF7_3_NoGC	17.0:2.981999999999978E7	4	1.0
HT29_100vF7_3_NoGC	17.0:3.08200020000001E7	4	1.0
HT29_100vF7_3_NoGC	17.0:3.1820004000000425E7	4	1.0
HT29_100vF7_3_NoGC	17.0:3.78200040000003E7	4	1.0
HT29_100vF7_3_NoGC	17.0:3.882000000000012E7	4	1.0
HT29_100vF7_3_NoGC	17.0:3.982000200000044E7	4	1.0
HT29_100vF7_3_NoGC	17.0:4.08200039999997E7	4	1.0
HT29_100vF7_3_NoGC	17.0:4.181999999999952E7	4	1.0
HT29_100vF7_3_NoGC	17.0:4.282000199999984E7	4	1.0
HT29_100vF7_3_NoGC	17.0:4.382000400000017E7	4	1.0
HT29_100vF7_3_NoGC	17.0:4.481999999999999E7	4	1.0
HT29_100vF7_3_NoGC	17.0:4.582000200000031E7	4	1.0
HT29_100vF7_3_NoGC	17.0:4.682000399999957E7	4	1.0
HT29_100vF7_3_NoGC	17.0:4.782000000000046E7	4	1.0
HT29_100vF7_3_NoGC	17.0:7.082000400000012E7	4	1.0
HT29_100vF7_3_NoGC	17.0:7.181999999999996E7	4	1.0
HT29_100vF7_3_NoGC	17.0:7.282000200000027E7	4	1.0
HT29_100vF7_3_NoGC	17.0:7.382000399999952E7	4	1.0
HT29_100vF7_3_NoGC	17.0:7.482000000000042E7	4	1.0
HT29_100vF7_3_NoGC	17.0:7.582000199999967E7	4	1.0
HT29_100vF7_3_NoGC	17.0:7.6820004E7	4	1.0
HT29_100vF7_3_NoGC	17.0:7.781999999999982E7	4	1.0
HT29_100vF7_3_NoGC	17.0:7.882000200000015E7	4	1.0
HT29_100vF7_3_NoGC	17.0:7.982000400000046E7	4	1.0
HT29_100vF7_3_NoGC	17.0:8.08200000000003E7	4	1.0
HT29_100vF7_3_NoGC	18.0:623999.9999998247	4	1.0
HT29_100vF7_3_NoGC	18.0:1624002.0000001465	4	1.0
HT29_100vF7_3_NoGC	18.0:2624004.0000004685	4	1.0
HT29_100vF7_3_NoGC	18.0:3624000.000000294	4	1.0
HT29_100vF7_3_NoGC	18.0:4624001.999999549	4	1.0
HT29_100vF7_3_NoGC	18.0:5623998.0000004405	4	1.0
HT29_100vF7_3_NoGC	18.0:6623999.999999696	4	1.0
HT29_100vF7_3_NoGC	18.0:7624002.000000019	4	1.0
HT29_100vF7_3_NoGC	18.0:8624004.00000034	4	1.0
HT29_100vF7_3_NoGC	18.0:9624000.000000166	4	1.0
HT29_100vF7_3_NoGC	18.0:1.0624002000000488E7	4	1.0
HT29_100vF7_3_NoGC	18.0:1.1623998000000313E7	4	1.0
HT29_100vF7_3_NoGC	18.0:1.262399999999957E7	4	1.0
HT29_100vF7_3_NoGC	18.0:1.362400199999989E7	4	1.0
HT29_100vF7_3_NoGC	18.0:1.4624004000000212E7	4	1.0
HT29_100vF7_3_NoGC	19.0:2.854600199999986E7	4	1.0
HT29_100vF7_3_NoGC	19.0:2.9546004000000183E7	4	1.0
HT29_100vF7_3_NoGC	19.0:3.0546000000000007E7	4	1.0
HT29_100vF7_3_NoGC	19.0:3.1546002000000328E7	4	1.0
HT29_100vF7_3_NoGC	19.0:3.2546003999999583E7	4	1.0
HT29_100vF7_3_NoGC	22.0:2.826100199999999E7	4	1.0
HT29_100vF7_3_NoGC	22.0:2.9261004000000313E7	4	1.0
HT29_100vF7_3_NoGC	1.0:0.0	5	1.0
HT29_100vF7_3_NoGC	1.0:1000001.9999999887	5	1.0
HT29_100vF7_3_NoGC	1.0:2000003.9999999774	5	1.0
HT29_100vF7_3_NoGC	1.0:3000000.000000003	5	1.0
HT29_100vF7_3_NoGC	7.0:338999.999999956	5	1.0
HT29_100vF7_3_NoGC	7.0:1339002.0000000114	5	1.0
HT29_100vF7_3_NoGC	7.0:2339004.0000000666	5	1.0
HT29_100vF7_3_NoGC	7.0:3338999.999999892	5	1.0
HT29_100vF7_3_NoGC	7.0:4339001.999999948	5	1.0
HT29_100vF7_3_NoGC	7.0:5339004.000000003	5	1.0
HT29_100vF7_3_NoGC	7.0:6339000.000000095	5	1.0
HT29_100vF7_3_NoGC	7.0:1.483390020000001E8	5	1.0
HT29_100vF7_3_NoGC	7.0:1.4933900400000012E8	5	1.0
HT29_100vF7_3_NoGC	7.0:1.5033899999999997E8	5	1.0
HT29_100vF7_3_NoGC	7.0:1.51339002E8	5	1.0
HT29_100vF7_3_NoGC	7.0:1.5233900400000006E8	5	1.0
HT29_100vF7_3_NoGC	7.0:1.5333899999999988E8	5	1.0
HT29_100vF7_3_NoGC	7.0:1.5433900199999994E8	5	1.0
HT29_100vF7_3_NoGC	7.0:1.55339004E8	5	1.0
HT29_100vF7_3_NoGC	7.0:1.563390000000001E8	5	1.0
HT29_100vF7_3_NoGC	7.0:1.5733900199999988E8	5	1.0
HT29_100vF7_3_NoGC	7.0:1.5833900399999994E8	5	1.0
HT29_100vF7_3_NoGC	10.0:1.336210020000001E8	5	1.0
HT29_100vF7_3_NoGC	10.0:1.346210039999999E8	5	1.0
HT29_100vF7_3_NoGC	11.0:86004.00000009501	5	1.0
HT29_100vF7_3_NoGC	11.0:1085999.9999999204	5	1.0
HT29_100vF7_3_NoGC	11.0:2086002.0000002421	5	1.0
HT29_100vF7_3_NoGC	11.0:3086004.000000031	5	1.0
HT29_100vF7_3_NoGC	11.0:5.708600399999995E7	5	1.0
HT29_100vF7_3_NoGC	11.0:5.808599999999977E7	5	1.0
HT29_100vF7_3_NoGC	11.0:5.908600200000009E7	5	1.0
HT29_100vF7_3_NoGC	11.0:6.008600399999988E7	5	1.0
HT29_100vF7_3_NoGC	11.0:6.108600000000024E7	5	1.0
HT29_100vF7_3_NoGC	11.0:6.208600200000003E7	5	1.0
HT29_100vF7_3_NoGC	11.0:6.308600399999982E7	5	1.0
HT29_100vF7_3_NoGC	11.0:6.408600000000018E7	5	1.0
HT29_100vF7_3_NoGC	11.0:6.508600199999996E7	5	1.0
HT29_100vF7_3_NoGC	11.0:6.6086003999999754E7	5	1.0
HT29_100vF7_3_NoGC	11.0:6.708600000000011E7	5	1.0
HT29_100vF7_3_NoGC	11.0:6.80860019999999E7	5	1.0
HT29_100vF7_3_NoGC	11.0:6.908600400000022E7	5	1.0
HT29_100vF7_3_NoGC	11.0:7.008600000000004E7	5	1.0
HT29_100vF7_3_NoGC	11.0:7.108600199999984E7	5	1.0
HT29_100vF7_3_NoGC	11.0:7.208600400000016E7	5	1.0
HT29_100vF7_3_NoGC	11.0:7.308599999999999E7	5	1.0
HT29_100vF7_3_NoGC	11.0:7.408600199999978E7	5	1.0
HT29_100vF7_3_NoGC	11.0:7.508600400000009E7	5	1.0
HT29_100vF7_3_NoGC	13.0:1.1022700200000006E8	5	1.0
HT29_100vF7_3_NoGC	13.0:1.1122700399999985E8	5	1.0
HT29_100vF7_3_NoGC	13.0:1.1222700000000021E8	5	1.0
HT29_100vF7_3_NoGC	13.0:1.13227002E8	5	1.0
HT29_100vF7_3_NoGC	13.0:1.1422700399999979E8	5	1.0
HT29_100vF7_3_NoGC	17.0:6.281999999999961E7	5	1.0
HT29_100vF7_3_NoGC	17.0:6.382000199999993E7	5	1.0
HT29_100vF7_3_NoGC	17.0:6.482000400000025E7	5	1.0
HT29_100vF7_3_NoGC	17.0:6.582000000000008E7	5	1.0
HT29_100vF7_3_NoGC	20.0:3.041699999999956E7	5	1.0
HT29_100vF7_3_NoGC	20.0:3.1417001999999885E7	5	1.0
HT29_100vF7_3_NoGC	20.0:3.2417004000000205E7	5	1.0
HT29_100vF7_3_NoGC	20.0:3.341700000000003E7	5	1.0
HT29_100vF7_3_NoGC	20.0:3.441700200000035E7	5	1.0
HT29_100vF7_3_NoGC	20.0:3.5417003999999605E7	5	1.0
HT29_100vF7_3_NoGC	20.0:3.64170000000005E7	5	1.0
HT29_100vF7_3_NoGC	20.0:3.7417001999999754E7	5	1.0
HT29_100vF7_3_NoGC	20.0:3.8417004000000075E7	5	1.0
HT29_100vF7_3_NoGC	20.0:3.94169999999999E7	5	1.0
HT29_100vF7_3_NoGC	20.0:4.041700200000022E7	5	1.0
HT29_100vF7_3_NoGC	20.0:4.141700399999948E7	5	1.0
HT29_100vF7_3_NoGC	20.0:4.241700000000037E7	5	1.0
HT29_100vF7_3_NoGC	20.0:4.341700199999963E7	5	1.0
HT29_100vF7_3_NoGC	20.0:4.441700399999995E7	5	1.0
HT29_100vF7_3_NoGC	20.0:4.541699999999978E7	5	1.0
HT29_100vF7_3_NoGC	20.0:4.64170020000001E7	5	1.0
HT29_100vF7_3_NoGC	20.0:4.741700400000042E7	5	1.0
HT29_100vF7_3_NoGC	20.0:4.8417000000000246E7	5	1.0
HT29_100vF7_3_NoGC	20.0:4.94170019999995E7	5	1.0
HT29_100vF7_3_NoGC	20.0:5.041699800000039E7	5	1.0
HT29_100vF7_3_NoGC	20.0:5.141699999999965E7	5	1.0
HT29_100vF7_3_NoGC	20.0:5.241700199999997E7	5	1.0
HT29_100vF7_3_NoGC	20.0:5.341700400000029E7	5	1.0
HT29_100vF7_3_NoGC	20.0:5.441700000000011E7	5	1.0
HT29_100vF7_3_NoGC	20.0:5.541700200000044E7	5	1.0
HT29_100vF7_3_NoGC	20.0:5.6417003999999695E7	5	1.0
HT29_100vF7_3_NoGC	20.0:5.7416999999999516E7	5	1.0
HT29_100vF7_3_NoGC	20.0:5.841700199999984E7	5	1.0
HT29_100vF7_3_NoGC	20.0:5.9417004000000164E7	5	1.0
HT29_100vF7_3_NoGC	23.0:1.519559999999995E8	5	1.0
HT29_100vF7_3_NoGC	23.0:1.5295600199999982E8	5	1.0
HT29_100vF7_3_NoGC	23.0:1.5395600400000015E8	5	1.0
HT29_100vF7_3_NoGC	2.0:3.2749001999999948E7	6	1.0
HT29_100vF7_3_NoGC	5.0:371003.9999999637	6	1.0
HT29_100vF7_3_NoGC	5.0:1371000.0000000554	6	1.0
HT29_100vF7_3_NoGC	8.0:1.152000000000001E8	6	1.0
HT29_100vF7_3_NoGC	8.0:1.162000019999999E8	6	1.0
HT29_100vF7_3_NoGC	8.0:1.1720000400000021E8	6	1.0
HT29_100vF7_3_NoGC	8.0:1.1820000000000004E8	6	1.0
HT29_100vF7_3_NoGC	8.0:1.1920000199999982E8	6	1.0
HT29_100vF7_3_NoGC	8.0:1.2020000400000015E8	6	1.0
HT29_100vF7_3_NoGC	8.0:1.2119999999999997E8	6	1.0
HT29_100vF7_3_NoGC	8.0:1.2220000199999976E8	6	1.0
HT29_100vF7_3_NoGC	8.0:1.2320000400000009E8	6	1.0
HT29_100vF7_3_NoGC	8.0:1.2419999999999991E8	6	1.0
HT29_100vF7_3_NoGC	8.0:1.2520000200000024E8	6	1.0
HT29_100vF7_3_NoGC	8.0:1.2619999800000006E8	6	1.0
HT29_100vF7_3_NoGC	8.0:1.2719999999999985E8	6	1.0
HT29_100vF7_3_NoGC	8.0:1.2820000200000016E8	6	1.0
HT29_100vF7_3_NoGC	8.0:1.2920000399999996E8	6	1.0
HT29_100vF7_3_NoGC	8.0:1.3019999999999978E8	6	1.0
HT29_100vF7_3_NoGC	8.0:1.312000020000001E8	6	1.0
HT29_100vF7_3_NoGC	8.0:1.322000039999999E8	6	1.0
HT29_100vF7_3_NoGC	8.0:1.3320000000000025E8	6	1.0
HT29_100vF7_3_NoGC	8.0:1.3420000200000004E8	6	1.0
HT29_100vF7_3_NoGC	8.0:1.3520000399999982E8	6	1.0
HT29_100vF7_3_NoGC	8.0:1.3620000000000018E8	6	1.0
HT29_100vF7_3_NoGC	8.0:1.3720000199999997E8	6	1.0
HT29_100vF7_3_NoGC	8.0:1.3820000399999976E8	6	1.0
HT29_100vF7_3_NoGC	8.0:1.3920000000000012E8	6	1.0
HT29_100vF7_3_NoGC	8.0:1.402000019999999E8	6	1.0
HT29_100vF7_3_NoGC	8.0:1.4120000400000024E8	6	1.0
HT29_100vF7_3_NoGC	8.0:1.4220000000000006E8	6	1.0
HT29_100vF7_3_NoGC	8.0:1.4320000199999985E8	6	1.0
HT29_100vF7_3_NoGC	8.0:1.4420000400000018E8	6	1.0
HT29_100vF7_3_NoGC	8.0:1.452E8	6	1.0
HT29_100vF7_3_NoGC	13.0:1.8227004000000235E7	6	1.0
HT29_100vF7_3_NoGC	13.0:1.922700000000006E7	6	1.0
HT29_100vF7_3_NoGC	13.0:2.022700199999985E7	6	1.0
HT29_100vF7_3_NoGC	13.0:2.122700400000017E7	6	1.0
HT29_100vF7_3_NoGC	13.0:2.2226999999999996E7	6	1.0
HT29_100vF7_3_NoGC	13.0:2.3227001999999784E7	6	1.0
HT29_100vF7_3_NoGC	13.0:2.4227004000000108E7	6	1.0
HT29_100vF7_3_NoGC	13.0:2.5226999999999933E7	6	1.0
HT29_100vF7_3_NoGC	13.0:2.6227002000000253E7	6	1.0
HT29_100vF7_3_NoGC	13.0:2.7227004000000045E7	6	1.0
HT29_100vF7_3_NoGC	13.0:2.822699999999987E7	6	1.0
HT29_100vF7_3_NoGC	13.0:2.922700200000019E7	6	1.0
HT29_100vF7_3_NoGC	13.0:3.022700399999998E7	6	1.0
HT29_100vF7_3_NoGC	13.0:3.1226999999999806E7	6	1.0
HT29_100vF7_3_NoGC	13.0:3.2227002000000127E7	6	1.0
HT29_100vF7_3_NoGC	13.0:3.3227003999999914E7	6	1.0
HT29_100vF7_3_NoGC	15.0:1.9707000000000007E7	6	1.0
HT29_100vF7_3_NoGC	15.0:2.0707001999999795E7	6	1.0
HT29_100vF7_3_NoGC	15.0:2.170700400000012E7	6	1.0
HT29_100vF7_3_NoGC	17.0:3.282000000000025E7	6	1.0
HT29_100vF7_3_NoGC	17.0:3.382000199999951E7	6	1.0
HT29_100vF7_3_NoGC	17.0:3.4819998000000395E7	6	1.0
HT29_100vF7_3_NoGC	17.0:3.581999999999965E7	6	1.0
HT29_100vF7_3_NoGC	17.0:3.682000199999997E7	6	1.0
HT29_100vF7_3_NoGC	19.0:3.3546000000000477E7	6	1.0
HT29_100vF7_3_NoGC	19.0:3.454600199999973E7	6	1.0
HT29_100vF7_3_NoGC	19.0:3.554600400000005E7	6	1.0
HT29_100vF7_3_NoGC	19.0:3.654599999999988E7	6	1.0
HT29_100vF7_3_NoGC	19.0:3.75460020000002E7	6	1.0
HT29_100vF7_3_NoGC	19.0:3.854600400000052E7	6	1.0
HT29_100vF7_3_NoGC	19.0:3.954600000000035E7	6	1.0
HT29_100vF7_3_NoGC	19.0:4.0546001999999605E7	6	1.0
HT29_100vF7_3_NoGC	19.0:4.1546003999999925E7	6	1.0
HT29_100vF7_3_NoGC	19.0:4.2545999999999754E7	6	1.0
HT29_100vF7_3_NoGC	19.0:4.3546002000000075E7	6	1.0
HT29_100vF7_3_NoGC	19.0:4.4546004000000395E7	6	1.0
HT29_100vF7_3_NoGC	19.0:4.5546000000000216E7	6	1.0
HT29_100vF7_3_NoGC	19.0:4.654600199999948E7	6	1.0
HT29_100vF7_3_NoGC	19.0:4.7545998000000365E7	6	1.0
HT29_100vF7_3_NoGC	19.0:4.854599999999962E7	6	1.0
HT29_100vF7_3_NoGC	19.0:4.954600199999995E7	6	1.0
HT29_100vF7_3_NoGC	19.0:5.054600400000027E7	6	1.0
HT29_100vF7_3_NoGC	19.0:5.154600000000009E7	6	1.0
HT29_100vF7_3_NoGC	19.0:5.254600200000042E7	6	1.0
HT29_100vF7_3_NoGC	19.0:5.354600399999967E7	6	1.0
HT29_100vF7_3_NoGC	19.0:5.454599999999949E7	6	1.0
HT29_100vF7_3_NoGC	19.0:5.5546001999999814E7	6	1.0
HT29_100vF7_3_NoGC	19.0:5.654600400000014E7	6	1.0
HT29_100vF7_3_NoGC	19.0:5.754599999999996E7	6	1.0
HT29_100vF7_3_NoGC	19.0:5.854600200000028E7	6	1.0
HT29_100vF7_3_NoGC	20.0:6.0416999999999985E7	6	1.0
HT29_100vF7_3_NoGC	20.0:6.1417002000000305E7	6	1.0
HT29_100vF7_3_NoGC	20.0:6.241700399999957E7	6	1.0
HT29_100vF7_3_NoGC	22.0:1.926100199999965E7	6	1.0
HT29_100vF7_3_NoGC	22.0:2.026100399999997E7	6	1.0
