Sample       Chr FirstProbe LastProbe   NbSnp  length_min    Type Avg_certainty
HT29_00vMiSeq_3_NoGC        1 102000000 107000004       6  5.00e+06 0.333  1.00
HT29_00vMiSeq_3_NoGC        1 186000000 199000002      14  1.30e+07 0.333  1.00
HT29_00vMiSeq_3_NoGC        3 76549002 88549002      13  1.20e+07 0.333  1.00
HT29_00vMiSeq_3_NoGC        4 27526002 35526000       9  8.00e+06 0.333  1.00
HT29_00vMiSeq_3_NoGC        4 58526004 66526002       9  8.00e+06 0.333  1.00
HT29_00vMiSeq_3_NoGC        4 130526004 138526001       9  8.00e+06 0.333  1.00
HT29_00vMiSeq_3_NoGC        5 18371004 29371002      12  1.10e+07 0.333  1.00
HT29_00vMiSeq_3_NoGC        6 61455000 69455004       9  8.00e+06 0.333  1.00
HT29_00vMiSeq_3_NoGC        8 111200003 115200000       5  4.00e+06 0.333  1.00
HT29_00vMiSeq_3_NoGC       10 52621002 58621002       7  6.00e+06 0.333  1.00
HT29_00vMiSeq_3_NoGC       13 54227004 72227004      19  1.80e+07 0.333  1.00
HT29_00vMiSeq_3_NoGC       13 81227003 90227003      10  9.00e+06 0.333  1.00
HT29_00vMiSeq_3_NoGC        1 65999999 101000004      36  3.50e+07 0.667  1.00
HT29_00vMiSeq_3_NoGC        2 31749000 40748999      10  9.00e+06 0.667  1.00
HT29_00vMiSeq_3_NoGC        2 49749000 58748999      10  9.00e+06 0.667  1.00
HT29_00vMiSeq_3_NoGC        2 75749004 83749002       9  8.00e+06 0.667  1.00
HT29_00vMiSeq_3_NoGC        2 137749001 215749002      79  7.80e+07 0.667  1.00
HT29_00vMiSeq_3_NoGC        2 242749002 242749002       1   0.00 0.667  1.00
HT29_00vMiSeq_3_NoGC        3  548999 7549002       8  7.00e+06 0.667  1.00
HT29_00vMiSeq_3_NoGC        3 15548999 35549003      21  2.00e+07 0.667  1.00
HT29_00vMiSeq_3_NoGC        3 89549003 120548999      30  3.10e+07 0.667  1.00
HT29_00vMiSeq_3_NoGC        3 143549004 181549001      39  3.80e+07 0.667  1.00
HT29_00vMiSeq_3_NoGC        3 188549004 192549000       5  4.00e+06 0.667  1.00
HT29_00vMiSeq_3_NoGC        4 11526000 26526000      16  1.50e+07 0.667  1.00
HT29_00vMiSeq_3_NoGC        4 36526001 47525999      12  1.10e+07 0.667  1.00
HT29_00vMiSeq_3_NoGC        4 67525997 129526002      63  6.20e+07 0.667  1.00
HT29_00vMiSeq_3_NoGC        4 139526003 182525999      44  4.30e+07 0.667  1.00
HT29_00vMiSeq_3_NoGC        5 30370997 129371003      98  9.90e+07 0.667  1.00
HT29_00vMiSeq_3_NoGC        5 160371000 166371000       7  6.00e+06 0.667  1.00
HT29_00vMiSeq_3_NoGC        6 44455002 57455004      14  1.30e+07 0.667  1.00
HT29_00vMiSeq_3_NoGC        6 70454999 147455004      78  7.70e+07 0.667  1.00
HT29_00vMiSeq_3_NoGC        7 7339001 21339000      15  1.40e+07 0.667  1.00
HT29_00vMiSeq_3_NoGC        7 76339002 96339000      21  2.00e+07 0.667  1.00
HT29_00vMiSeq_3_NoGC        7 102338999 126338999      25  2.40e+07 0.667  1.00
HT29_00vMiSeq_3_NoGC        7 144339000 147339000       4  3.00e+06 0.667  1.00
HT29_00vMiSeq_3_NoGC        8 2200002 5200002       4  3.00e+06 0.667  1.00
HT29_00vMiSeq_3_NoGC        8 13200000 17200001       5  4.00e+06 0.667  1.00
HT29_00vMiSeq_3_NoGC        8 50200002 110200002      61  6.00e+07 0.667  1.00
HT29_00vMiSeq_3_NoGC        8 116200001 122200001       7  6.00e+06 0.667  1.00
HT29_00vMiSeq_3_NoGC        9  835002 30835002      31  3.00e+07 0.667  1.00
HT29_00vMiSeq_3_NoGC        9 102835002 108835002       7  6.00e+06 0.667  1.00
HT29_00vMiSeq_3_NoGC       10 59621003 68621004      10  9.00e+06 0.667  1.00
HT29_00vMiSeq_3_NoGC       11 21086004 42086004      22  2.10e+07 0.667  1.00
HT29_00vMiSeq_3_NoGC       11 54086004 59086002       6  5.00e+06 0.667  1.00
HT29_00vMiSeq_3_NoGC       11 79085999 109085999      31  3.00e+07 0.667  1.00
HT29_00vMiSeq_3_NoGC       12 14078999 47078999      32  3.30e+07 0.667  1.00
HT29_00vMiSeq_3_NoGC       12 58079004 103079003      46  4.50e+07 0.667  1.00
HT29_00vMiSeq_3_NoGC       13 32227002 39227003       8  7.00e+06 0.667  1.00
HT29_00vMiSeq_3_NoGC       13 73226999 80227002       8  7.00e+06 0.667  1.00
HT29_00vMiSeq_3_NoGC       13 91227000 109226999      19  1.80e+07 0.667  1.00
HT29_00vMiSeq_3_NoGC       14 25057001 50057004      26  2.50e+07 0.667  1.00
HT29_00vMiSeq_3_NoGC       14 79057002 88057002      10  9.00e+06 0.667  1.00
HT29_00vMiSeq_3_NoGC       16 59175000 64175004       6  5.00e+06 0.667  1.00
HT29_00vMiSeq_3_NoGC       17 49820004 51820002       3  2.00e+06 0.667  1.00
HT29_00vMiSeq_3_NoGC       18 18624000 40624001      23  2.20e+07 0.667  1.00
HT29_00vMiSeq_3_NoGC       18 57624000 70624002      14  1.30e+07 0.667  1.00
HT29_00vMiSeq_3_NoGC       20 6417000 16417001      11  1.00e+07 0.667  1.00
HT29_00vMiSeq_3_NoGC       21 13391003 31391003      19  1.80e+07 0.667  1.00
HT29_00vMiSeq_3_NoGC        X 20956002 37955999      18  1.70e+07 0.667  1.00
HT29_00vMiSeq_3_NoGC        X 76955999 145955999      70  6.90e+07 0.667  1.00
HT29_00vMiSeq_3_NoGC        1       0 47999999      49  4.80e+07  1.33  1.00
HT29_00vMiSeq_3_NoGC        1 200000004 206000004       7  6.00e+06  1.33  1.00
HT29_00vMiSeq_3_NoGC        2 84749003 96749004      11  1.20e+07  1.33  1.00
HT29_00vMiSeq_3_NoGC        2 231749004 241748999      11  1.00e+07  1.33  1.00
HT29_00vMiSeq_3_NoGC        3 8549003 14549003       7  6.00e+06  1.33  1.00
HT29_00vMiSeq_3_NoGC        3 193549001 197549003       5  4.00e+06  1.33  1.00
HT29_00vMiSeq_3_NoGC        4  526001 10526004      11  1.00e+07  1.33  1.00
HT29_00vMiSeq_3_NoGC        5 167371002 178371000      12  1.10e+07  1.33  1.00
HT29_00vMiSeq_3_NoGC        6 29455002 43454999      15  1.40e+07  1.33  1.00
HT29_00vMiSeq_3_NoGC        6 167455002 170455002       4  3.00e+06  1.33  1.00
HT29_00vMiSeq_3_NoGC        7  338999 6339000       7  6.00e+06  1.33  1.00
HT29_00vMiSeq_3_NoGC        7 70339001 75338999       6  5.00e+06  1.33  1.00
HT29_00vMiSeq_3_NoGC        7 97339002 101339004       5  4.00e+06  1.33  1.00
HT29_00vMiSeq_3_NoGC        7 148339002 158339003      11  1.00e+07  1.33  1.00
HT29_00vMiSeq_3_NoGC        8  199998 1199999       2  1.00e+06  1.33  1.00
HT29_00vMiSeq_3_NoGC        8 6200003 12200003       7  6.00e+06  1.33  1.00
HT29_00vMiSeq_3_NoGC        8 139200000 146200001       8  7.00e+06  1.33  1.00
HT29_00vMiSeq_3_NoGC        9 125834999 140835000      16  1.50e+07  1.33  1.00
HT29_00vMiSeq_3_NoGC       10  620999  620999       1   0.00  1.33  1.00
HT29_00vMiSeq_3_NoGC       10 120621000 134621003      15  1.40e+07  1.33  1.00
HT29_00vMiSeq_3_NoGC       11   86004 3086004       4  3.00e+06  1.33  1.00
HT29_00vMiSeq_3_NoGC       11 60086003 78086004      19  1.80e+07  1.33  1.00
HT29_00vMiSeq_3_NoGC       12 48079002 57079001      10  9.00e+06  1.33  1.00
HT29_00vMiSeq_3_NoGC       12 104079000 133079004      30  2.90e+07  1.33  1.00
HT29_00vMiSeq_3_NoGC       13 110227002 114227003       5  4.00e+06  1.33  1.00
HT29_00vMiSeq_3_NoGC       14 18057000 24056999       7  6.00e+06  1.33  1.00
HT29_00vMiSeq_3_NoGC       14 89057003 106057002      18  1.70e+07  1.33  1.00
HT29_00vMiSeq_3_NoGC       15 100706999 101707002       2  1.00e+06  1.33  1.00
HT29_00vMiSeq_3_NoGC       16  175001 58175004      49  5.80e+07  1.33  1.00
HT29_00vMiSeq_3_NoGC       16 65174999 90175001      26  2.50e+07  1.33  1.00
HT29_00vMiSeq_3_NoGC       17  820001 48820001      47  4.80e+07  1.33  1.00
HT29_00vMiSeq_3_NoGC       18 71624003 77624004       7  6.00e+06  1.33  1.00
HT29_00vMiSeq_3_NoGC       19  545999 58546002      57  5.80e+07  1.33  1.00
HT29_00vMiSeq_3_NoGC       20  417000 5417004       6  5.00e+06  1.33  1.00
HT29_00vMiSeq_3_NoGC       20 17417003 62417003      43  4.50e+07  1.33  1.00
HT29_00vMiSeq_3_NoGC       21 9391002 10391003       2  1.00e+06  1.33  1.00
HT29_00vMiSeq_3_NoGC       21 32391000 47390999      16  1.50e+07  1.33  1.00
HT29_00vMiSeq_3_NoGC       22 15260999 51261000      37  3.60e+07  1.33  1.00
HT29_00vMiSeq_3_NoGC        X  956003 2956001       3  2.00e+06  1.33  1.00
HT29_00vMiSeq_3_NoGC       10 38621003 41621003       2  3.00e+06  1.67  1.00
HT29_00vMiSeq_3_NoGC       17 70820004 80820000      11  1.00e+07  1.67  1.00
##Estimated cellularity:0.681
##Estimated ratio:0.9129880662727423
##Version:2.0
