Sample	Chr	FirstProbe	LastProbe	NbSnp	length_bp	Type	Avg_certainty
HT29_100vMiSeq_3_GC	3	59899001	60899004	21	1000003	0.666	1.00
HT29_100vMiSeq_3_GC	3	79448999	90449004	221	11000005	0.666	1.00
HT29_100vMiSeq_3_GC	16	6374999	6824999	10	450000	0.666	1.00
HT29_100vMiSeq_3_GC	20	14517000	15767003	26	1250003	0.666	1.00
HT29_100vMiSeq_3_GC	3	149003	59849004	1195	59700001	1.334	1.00
HT29_100vMiSeq_3_GC	3	60949002	79399001	370	18449999	1.334	1.00
HT29_100vMiSeq_3_GC	4	157176000	190976003	677	33800003	1.334	1.00
HT29_100vMiSeq_3_GC	6	76855001	162805002	1720	85950001	1.334	1.00
HT29_100vMiSeq_3_GC	8	150000	43800000	874	43650000	1.334	1.00
HT29_100vMiSeq_3_GC	8	105400002	106950000	32	1549998	1.334	1.00
HT29_100vMiSeq_3_GC	9	36485004	47235000	216	10749996	1.334	1.00
HT29_100vMiSeq_3_GC	10	42320999	42421002	3	100003	1.334	1.00
HT29_100vMiSeq_3_GC	14	19007004	107257002	1766	88249998	1.334	1.00
HT29_100vMiSeq_3_GC	17	1970003	22220004	406	20250001	1.334	1.00
HT29_100vMiSeq_3_GC	17	66370002	70720001	88	4349999	1.334	1.00
HT29_100vMiSeq_3_GC	18	18524003	78074004	1192	59550001	1.334	1.00
HT29_100vMiSeq_3_GC	19	46002	24596003	492	24550001	1.334	1.00
HT29_100vMiSeq_3_GC	21	9391002	10691003	27	1300001	1.334	1.00
HT29_100vMiSeq_3_GC	21	14341002	47941001	673	33599999	1.334	1.00
HT29_100vMiSeq_3_GC	22	16061004	18911003	58	2849999	1.334	1.00
HT29_100vMiSeq_3_GC	22	21311003	28411001	143	7099998	1.334	1.00
HT29_100vMiSeq_3_GC	22	30311003	51261000	420	20949997	1.334	1.00
HT29_100vMiSeq_3_GC	23	56003	16106003	322	16050000	1.334	1.00
HT29_100vMiSeq_3_GC	23	23056001	41906004	378	18850003	1.334	1.00
HT29_100vMiSeq_3_GC	1	0	500004	11	500004	2.66	1.00
HT29_100vMiSeq_3_GC	1	121500000	142450002	420	20950002	2.66	1.00
HT29_100vMiSeq_3_GC	2	92249003	96049002	77	3799999	2.66	1.00
HT29_100vMiSeq_3_GC	3	90499002	130549001	802	40049999	2.66	1.00
HT29_100vMiSeq_3_GC	3	167549004	176199000	174	8649996	2.66	1.00
HT29_100vMiSeq_3_GC	5	4271003	17671001	269	13399998	2.66	1.00
HT29_100vMiSeq_3_GC	5	31421004	54421002	461	22999998	2.66	1.00
HT29_100vMiSeq_3_GC	6	170705003	171105000	9	399997	2.66	1.00
HT29_100vMiSeq_3_GC	7	39000	7339001	147	7300001	2.66	1.00
HT29_100vMiSeq_3_GC	7	21339000	147439002	2523	126100002	2.66	1.00
HT29_100vMiSeq_3_GC	7	151939001	159089004	144	7150003	2.66	1.00
HT29_100vMiSeq_3_GC	8	0	100001	3	100001	2.66	1.00
HT29_100vMiSeq_3_GC	8	43850004	46750001	59	2899997	2.66	1.00
HT29_100vMiSeq_3_GC	8	94350000	105350004	221	11000004	2.66	1.00
HT29_100vMiSeq_3_GC	8	142650000	146350001	75	3700001	2.66	1.00
HT29_100vMiSeq_3_GC	9	35003	35003	1	0	2.66	1.00
HT29_100vMiSeq_3_GC	9	47285004	67484999	405	20199995	2.66	1.00
HT29_100vMiSeq_3_GC	10	133870998	135521003	34	1650005	2.66	1.00
HT29_100vMiSeq_3_GC	11	36000	134986002	2700	134950002	2.66	1.00
HT29_100vMiSeq_3_GC	12	29004	929004	19	900000	2.66	1.00
HT29_100vMiSeq_3_GC	12	24679002	37779000	263	13099998	2.66	1.00
HT29_100vMiSeq_3_GC	12	133579002	133829004	6	250002	2.66	1.00
HT29_100vMiSeq_3_GC	13	27000	19027001	381	19000001	2.66	1.00
HT29_100vMiSeq_3_GC	13	34027002	53677002	394	19650000	2.66	1.00
HT29_100vMiSeq_3_GC	13	94577003	115127003	412	20550000	2.66	1.00
HT29_100vMiSeq_3_GC	14	7002	18957000	380	18949998	2.66	1.00
HT29_100vMiSeq_3_GC	14	107306999	107306999	1	0	2.66	1.00
HT29_100vMiSeq_3_GC	15	7002	102506999	2051	102499997	2.66	1.00
HT29_100vMiSeq_3_GC	16	25001	525000	11	499999	2.66	1.00
HT29_100vMiSeq_3_GC	16	35325000	46424999	223	11099999	2.66	1.00
HT29_100vMiSeq_3_GC	17	22270001	32870004	213	10600003	2.66	1.00
HT29_100vMiSeq_3_GC	17	70770000	81170004	209	10400004	2.66	1.00
HT29_100vMiSeq_3_GC	18	24000	18473999	370	18449999	2.66	1.00
HT29_100vMiSeq_3_GC	19	24646002	27646001	61	2999999	2.66	1.00
HT29_100vMiSeq_3_GC	19	28196004	33246000	102	5049996	2.66	1.00
HT29_100vMiSeq_3_GC	20	24667001	29767002	103	5100001	2.66	1.00
HT29_100vMiSeq_3_GC	21	10741002	14291004	72	3550002	2.66	1.00
HT29_100vMiSeq_3_GC	21	47991000	48091001	3	100001	2.66	1.00
HT29_100vMiSeq_3_GC	22	11004	16011000	321	15999996	2.66	1.00
HT29_100vMiSeq_3_GC	22	28461000	30261000	37	1800000	2.66	1.00
HT29_100vMiSeq_3_GC	23	146656001	155206001	172	8550000	2.66	1.00
HT29_100vMiSeq_3_GC	4	191026002	191126004	3	100002	3.34	1.00
HT29_100vMiSeq_3_GC	5	21000	4221000	85	4200000	3.34	1.00
HT29_100vMiSeq_3_GC	7	147488999	151889004	89	4400005	3.34	1.00
HT29_100vMiSeq_3_GC	10	39071003	42271001	65	3199998	3.34	1.00
HT29_100vMiSeq_3_GC	13	72626999	76777002	84	4150003	3.34	1.00
HT29_100vMiSeq_3_GC	17	63320003	66320003	61	3000000	3.34	1.00
HT29_100vMiSeq_3_GC	20	29816999	63017004	665	33200005	3.34	1.00
HT29_100vMiSeq_3_GC	21	41004	9340998	187	9299994	3.34	1.00
HT29_100vMiSeq_3_GC	22	18961002	21260999	47	2299997	3.34	1.00
HT29_100vMiSeq_3_GC	13	19076999	26377001	147	7300002	4	1.00
HT29_100vMiSeq_3_GC	17	32920001	37120002	85	4200001	4	1.00
HT29_100vMiSeq_3_GC	19	33296003	59096003	517	25800000	4	1.00
HT29_100vMiSeq_3_GC	20	17004	17004	1	0	4	1.00
HT29_100vMiSeq_3_GC	13	26426999	33977003	152	7550004	4.66	1.00
HT29_100vMiSeq_3_GC	8	115200000	142600002	549	27400002	6.66	1.00
##Estimated cellularity:1.0
##Estimated ratio:1.046
##Version:2.0
