HT29_10vF1_3_NoGC	8.0:4.2200004000000216E7	1	1.0
HT29_10vF1_3_NoGC	8.0:1.1720000400000021E8	3	1.0
HT29_10vF1_3_NoGC	8.0:1.1820000000000004E8	3	1.0
HT29_10vF1_3_NoGC	8.0:1.1920000199999982E8	3	1.0
HT29_10vF1_3_NoGC	8.0:1.2020000400000015E8	3	1.0
HT29_10vF1_3_NoGC	8.0:1.2119999999999997E8	3	1.0
HT29_10vF1_3_NoGC	8.0:1.2220000199999976E8	3	1.0
HT29_10vF1_3_NoGC	8.0:1.2320000400000009E8	3	1.0
HT29_10vF1_3_NoGC	8.0:1.2419999999999991E8	3	1.0
HT29_10vF1_3_NoGC	8.0:1.2520000200000024E8	3	1.0
HT29_10vF1_3_NoGC	8.0:1.2619999800000006E8	3	1.0
HT29_10vF1_3_NoGC	8.0:1.2719999999999985E8	3	1.0
HT29_10vF1_3_NoGC	8.0:1.2820000200000016E8	3	1.0
HT29_10vF1_3_NoGC	8.0:1.2920000399999996E8	3	1.0
HT29_10vF1_3_NoGC	8.0:1.3019999999999978E8	3	1.0
HT29_10vF1_3_NoGC	8.0:1.312000020000001E8	3	1.0
HT29_10vF1_3_NoGC	8.0:1.322000039999999E8	3	1.0
HT29_10vF1_3_NoGC	8.0:1.3320000000000025E8	3	1.0
HT29_10vF1_3_NoGC	8.0:1.3420000200000004E8	3	1.0
HT29_10vF1_3_NoGC	8.0:1.3520000399999982E8	3	1.0
HT29_10vF1_3_NoGC	8.0:1.3620000000000018E8	3	1.0
HT29_10vF1_3_NoGC	8.0:1.3720000199999997E8	3	1.0
HT29_10vF1_3_NoGC	8.0:1.3820000399999976E8	3	1.0
HT29_10vF1_3_NoGC	8.0:1.3920000000000012E8	3	1.0
HT29_10vF1_3_NoGC	8.0:1.402000019999999E8	3	1.0
HT29_10vF1_3_NoGC	8.0:1.4120000400000024E8	3	1.0
HT29_10vF1_3_NoGC	8.0:1.4220000000000006E8	3	1.0
HT29_10vF1_3_NoGC	8.0:1.4320000199999985E8	3	1.0
HT29_10vF1_3_NoGC	8.0:1.4420000400000018E8	3	1.0
HT29_10vF1_3_NoGC	8.0:1.452E8	3	1.0
HT29_10vF1_3_NoGC	19.0:3.3546000000000477E7	3	1.0
HT29_10vF1_3_NoGC	19.0:3.454600199999973E7	3	1.0
HT29_10vF1_3_NoGC	19.0:3.554600400000005E7	3	1.0
HT29_10vF1_3_NoGC	19.0:3.654599999999988E7	3	1.0
HT29_10vF1_3_NoGC	19.0:3.75460020000002E7	3	1.0
HT29_10vF1_3_NoGC	19.0:3.854600400000052E7	3	1.0
HT29_10vF1_3_NoGC	19.0:3.954600000000035E7	3	1.0
HT29_10vF1_3_NoGC	19.0:4.0546001999999605E7	3	1.0
HT29_10vF1_3_NoGC	19.0:4.1546003999999925E7	3	1.0
HT29_10vF1_3_NoGC	19.0:4.2545999999999754E7	3	1.0
HT29_10vF1_3_NoGC	19.0:4.3546002000000075E7	3	1.0
HT29_10vF1_3_NoGC	19.0:4.4546004000000395E7	3	1.0
HT29_10vF1_3_NoGC	19.0:4.5546000000000216E7	3	1.0
HT29_10vF1_3_NoGC	19.0:4.654600199999948E7	3	1.0
HT29_10vF1_3_NoGC	19.0:4.7545998000000365E7	3	1.0
HT29_10vF1_3_NoGC	19.0:4.854599999999962E7	3	1.0
HT29_10vF1_3_NoGC	19.0:4.954600199999995E7	3	1.0
HT29_10vF1_3_NoGC	19.0:5.054600400000027E7	3	1.0
HT29_10vF1_3_NoGC	19.0:5.154600000000009E7	3	1.0
HT29_10vF1_3_NoGC	19.0:5.254600200000042E7	3	1.0
HT29_10vF1_3_NoGC	19.0:5.354600399999967E7	3	1.0
HT29_10vF1_3_NoGC	19.0:5.454599999999949E7	3	1.0
HT29_10vF1_3_NoGC	19.0:5.5546001999999814E7	3	1.0
HT29_10vF1_3_NoGC	19.0:5.654600400000014E7	3	1.0
HT29_10vF1_3_NoGC	19.0:5.754599999999996E7	3	1.0
HT29_10vF1_3_NoGC	19.0:5.854600200000028E7	3	1.0
